time,[HUME],[TEMP],[PRES],[RADI],[RAPV],[DIRV],[PREC]
2020-02-25T00:00:00-05:00,87.47,13.28,738.08,0.24,0.63,96.58,0
2020-02-25T00:01:00-05:00,86.18,13.28,739.05,-0.35,0.63,96.58,0
2020-02-25T00:02:00-05:00,85.54,13.35,738.95,0.53,0.63,96.58,0
2020-02-25T00:03:00-05:00,85.29,13.37,738.04,1.42,0.63,96.58,0
2020-02-25T00:04:00-05:00,84.78,13.43,738.71,0.24,0.63,96.58,0
2020-02-25T00:05:00-05:00,84.49,13.46,739.21,2.3,0.63,96.58,0
2020-02-25T00:06:00-05:00,85.16,13.47,738.04,-0.64,0.63,96.58,0
2020-02-25T00:07:00-05:00,86.24,13.46,737.67,-0.79,0.63,96.58,0
2020-02-25T00:08:00-05:00,87.17,13.37,738.68,-2.41,0.63,96.58,0
2020-02-25T00:09:00-05:00,88.08,13.27,737.27,-0.94,0.63,96.58,0
2020-02-25T00:10:00-05:00,88.63,13.2,738.54,-2.11,0.63,96.58,0
2020-02-25T00:11:00-05:00,88.74,13.16,738.34,-2.26,0.63,96.58,0
2020-02-25T00:12:00-05:00,89.12,13.1,737.94,0.09,0.63,96.58,0
2020-02-25T00:13:00-05:00,89.42,13.04,738.18,0.09,0.63,96.58,0
2020-02-25T00:14:00-05:00,89.82,12.98,736.54,0.53,0.63,96.58,0
2020-02-25T00:15:00-05:00,90.11,12.92,737.71,-1.23,0.63,96.58,0
2020-02-25T00:16:00-05:00,90.23,12.85,737.54,-1.08,0.63,96.58,0
2020-02-25T00:17:00-05:00,90.41,12.81,737.64,0.83,0.63,96.58,0
2020-02-25T00:18:00-05:00,90.69,12.79,737.87,1.86,0.63,96.58,0
2020-02-25T00:19:00-05:00,90.58,12.75,736.2,0.09,0.63,96.58,0
2020-02-25T00:20:00-05:00,90.69,12.75,736.37,0.24,0.63,96.58,0
2020-02-25T00:21:00-05:00,91.03,12.73,736.67,-0.49,0.63,96.58,0
2020-02-25T00:22:00-05:00,90.74,12.75,737.64,0.09,0.63,96.58,0
2020-02-25T00:23:00-05:00,90.64,12.73,736.9,0.98,0.63,96.58,0
2020-02-25T00:24:00-05:00,90.69,12.73,736.7,1.86,0.63,96.58,0
2020-02-25T00:25:00-05:00,90.65,12.71,737.94,1.56,0.63,96.58,0
2020-02-25T00:26:00-05:00,90.53,12.73,737.81,0.83,0.63,96.58,0
2020-02-25T00:27:00-05:00,90.59,12.72,738.04,0.24,0.63,96.58,0
2020-02-25T00:28:00-05:00,90.7,12.76,738.21,2.89,0.63,96.58,0
2020-02-25T00:29:00-05:00,90.82,12.78,737.81,1.27,0.63,96.58,0
2020-02-25T00:30:00-05:00,90.83,12.79,738.11,-0.2,0.63,96.58,0
2020-02-25T00:31:00-05:00,90.89,12.79,736.74,1.27,0.63,96.58,0
2020-02-25T00:32:00-05:00,91.1,12.81,736.6,1.42,0.63,96.58,0
2020-02-25T00:33:00-05:00,90.97,12.83,737.84,1.71,0.63,96.58,0
2020-02-25T00:34:00-05:00,90.87,12.83,738.38,0.09,0.63,96.58,0
2020-02-25T00:35:00-05:00,90.89,12.83,737.14,2.3,0.63,96.58,0
2020-02-25T00:36:00-05:00,90.95,12.83,736.54,0.09,0.63,96.58,0
2020-02-25T00:37:00-05:00,90.95,12.85,736.9,0.09,0.63,96.58,0
2020-02-25T00:38:00-05:00,90.85,12.85,736.54,1.56,0.63,96.58,0
2020-02-25T00:39:00-05:00,90.87,12.85,736.77,-0.2,0.63,96.58,0
2020-02-25T00:40:00-05:00,90.9,12.87,738.18,2.45,0.63,96.58,0
2020-02-25T00:41:00-05:00,90.9,12.91,736.7,1.27,0.63,96.58,0
2020-02-25T00:42:00-05:00,90.93,12.93,738.28,-0.05,0.63,96.58,0
2020-02-25T00:43:00-05:00,91,12.94,738.58,0.24,0.63,96.58,0
2020-02-25T00:44:00-05:00,91.02,12.95,737.84,1.71,0.63,96.58,0
2020-02-25T00:45:00-05:00,91.05,12.97,737.14,-0.35,0.63,96.58,0
2020-02-25T00:46:00-05:00,91.03,12.96,737.34,-0.35,0.63,96.58,0
2020-02-25T00:47:00-05:00,91.21,12.97,737.14,1.56,0.63,96.58,0
2020-02-25T00:48:00-05:00,91.21,12.97,737.54,1.27,0.63,96.58,0
2020-02-25T00:49:00-05:00,91.37,12.97,738.24,-0.49,0.63,96.58,0
2020-02-25T00:50:00-05:00,91.59,12.99,737.67,0.68,0.63,96.58,0
2020-02-25T00:51:00-05:00,91.72,12.99,737.17,-0.94,0.63,96.58,0
2020-02-25T00:52:00-05:00,91.28,12.93,738.04,0.68,0.63,96.58,0
2020-02-25T00:53:00-05:00,91.13,12.93,736.97,-0.79,0.63,96.58,0
2020-02-25T00:54:00-05:00,91.37,12.92,738.34,0.09,0.63,96.58,0
2020-02-25T00:55:00-05:00,91.27,12.95,736.54,0.68,0.63,96.58,0
2020-02-25T00:56:00-05:00,91,12.92,737.44,-0.49,0.63,96.58,0
2020-02-25T00:57:00-05:00,90.88,12.91,736.8,-0.35,0.63,96.58,0
2020-02-25T00:58:00-05:00,90.81,12.92,737.81,0.24,0.63,96.58,0
2020-02-25T00:59:00-05:00,90.87,12.89,736.97,2.15,0.63,96.58,0
2020-02-25T01:00:00-05:00,90.78,12.87,737.51,2.15,0.63,96.58,0
2020-02-25T01:01:00-05:00,90.67,12.89,738.18,-0.35,0.63,96.58,0
2020-02-25T01:02:00-05:00,91.03,12.89,736.84,-0.05,0.63,96.58,0
2020-02-25T01:03:00-05:00,91.39,12.89,737.27,1.42,0.63,96.58,0
2020-02-25T01:04:00-05:00,91.52,12.93,736.74,-0.2,0.63,96.58,0
2020-02-25T01:05:00-05:00,91.48,12.89,737.67,1.71,0.63,96.58,0
2020-02-25T01:06:00-05:00,92.1,12.91,738.24,0.09,0.63,96.58,0
2020-02-25T01:07:00-05:00,92.52,12.93,736.74,-0.35,0.63,96.58,0
2020-02-25T01:08:00-05:00,92.68,12.93,737.07,-0.79,0.63,96.58,0
2020-02-25T01:09:00-05:00,92.83,12.92,737.24,1.56,0.63,96.58,0
2020-02-25T01:10:00-05:00,93.02,12.93,738.11,0.39,0.63,96.58,0
2020-02-25T01:11:00-05:00,92.89,12.91,737.47,0.09,0.63,96.58,0
2020-02-25T01:12:00-05:00,93.18,12.95,736.8,0.53,0.63,96.58,0
2020-02-25T01:13:00-05:00,93.17,12.92,738.04,-0.64,0.63,96.58,0
2020-02-25T01:14:00-05:00,93.05,12.91,737.57,0.09,0.63,96.58,0
2020-02-25T01:15:00-05:00,92.83,12.89,737.84,-1.23,0.63,96.58,0
2020-02-25T01:16:00-05:00,92.72,12.84,736.87,1.27,0.63,96.58,0
2020-02-25T01:17:00-05:00,92.78,12.83,736.97,-0.79,0.63,96.58,0
2020-02-25T01:18:00-05:00,92.92,12.81,736.84,-0.79,0.63,96.58,0
2020-02-25T01:19:00-05:00,92.98,12.79,738.44,-1.08,0.63,96.58,0
2020-02-25T01:20:00-05:00,93.17,12.79,738.01,0.98,0.63,96.58,0
2020-02-25T01:21:00-05:00,93.38,12.79,738.14,0.68,0.63,96.58,0
2020-02-25T01:22:00-05:00,93.42,12.75,737.1,-0.05,0.63,96.58,0
2020-02-25T01:23:00-05:00,93.63,12.75,738.04,-1.38,0.63,96.58,0
2020-02-25T01:24:00-05:00,93.69,12.77,737.04,0.39,0.63,96.58,0
2020-02-25T01:25:00-05:00,93.78,12.77,736.94,-0.94,0.63,96.58,0
2020-02-25T01:26:00-05:00,93.95,12.77,737.17,-0.49,0.63,96.58,0
2020-02-25T01:27:00-05:00,94.01,12.77,736.67,-1.67,0.63,96.58,0
2020-02-25T01:28:00-05:00,94.17,12.78,737.81,-1.67,0.63,96.58,0
2020-02-25T01:29:00-05:00,94.07,12.79,737.37,-0.64,0.63,96.58,0
2020-02-25T01:30:00-05:00,94.13,12.77,738.14,-0.49,0.63,96.58,0
2020-02-25T01:31:00-05:00,94.34,12.75,738.34,-0.35,0.63,96.58,0
2020-02-25T01:32:00-05:00,94.34,12.75,736.84,0.24,0.63,96.58,0
2020-02-25T01:33:00-05:00,94.26,12.75,737.74,-2.11,0.63,96.58,0
2020-02-25T01:34:00-05:00,94.38,12.73,737.71,-1.08,0.63,96.58,0
2020-02-25T01:35:00-05:00,94.32,12.75,736.8,-2.26,0.63,96.58,0
2020-02-25T01:36:00-05:00,94.3,12.74,736.37,-0.05,0.63,96.58,0
2020-02-25T01:37:00-05:00,94.25,12.74,738.01,-1.38,0.63,96.58,0
2020-02-25T01:38:00-05:00,94.3,12.73,737.74,-0.79,0.63,96.58,0
2020-02-25T01:39:00-05:00,94.4,12.73,736.43,0.53,0.63,96.58,0
2020-02-25T01:40:00-05:00,94.44,12.71,737.71,-0.35,0.63,96.58,0
2020-02-25T01:41:00-05:00,94.51,12.69,737.37,-1.23,0.63,96.58,0
2020-02-25T01:42:00-05:00,94.58,12.69,736.27,-0.35,0.63,96.58,0
2020-02-25T01:43:00-05:00,94.5,12.67,735.97,-1.23,0.63,96.58,0
2020-02-25T01:44:00-05:00,94.74,12.65,737.41,-0.79,0.63,96.58,0
2020-02-25T01:45:00-05:00,94.72,12.64,736,-0.64,0.63,96.58,0
2020-02-25T01:46:00-05:00,94.69,12.63,736,0.39,0.63,96.58,0
2020-02-25T01:47:00-05:00,94.74,12.63,736,0.83,0.63,96.58,0
2020-02-25T01:48:00-05:00,94.8,12.61,737.64,-1.08,0.63,96.58,0
2020-02-25T01:49:00-05:00,94.88,12.6,737.57,-1.08,0.63,96.58,0
2020-02-25T01:50:00-05:00,95.05,12.61,737.37,-0.64,0.63,96.58,0
2020-02-25T01:51:00-05:00,95.08,12.59,735.9,0.68,0.63,96.58,0
2020-02-25T01:52:00-05:00,94.96,12.59,736.43,-1.38,0.63,96.58,0
2020-02-25T01:53:00-05:00,95.19,12.59,735.8,0.09,0.63,96.58,0
2020-02-25T01:54:00-05:00,95.25,12.59,737.41,-0.94,0.63,96.58,0
2020-02-25T01:55:00-05:00,95.19,12.61,737.44,0.53,0.63,96.58,0
2020-02-25T01:56:00-05:00,95.06,12.59,737.44,-1.38,0.63,96.58,0
2020-02-25T01:57:00-05:00,95.14,12.59,735.8,0.83,0.63,96.58,0
2020-02-25T01:58:00-05:00,95.09,12.59,737.27,-0.35,0.63,96.58,0
2020-02-25T01:59:00-05:00,95.16,12.57,736.6,-0.49,0.63,96.58,0
2020-02-25T02:00:00-05:00,94.92,12.53,735.8,-1.23,0.63,96.58,0
2020-02-25T02:01:00-05:00,95.08,12.55,736.37,-1.08,0.63,96.58,0
2020-02-25T02:02:00-05:00,95.05,12.55,736.5,0.39,0.63,96.58,0
2020-02-25T02:03:00-05:00,95.04,12.55,737.2,-0.49,0.63,96.58,0
2020-02-25T02:04:00-05:00,94.89,12.55,737.07,-0.79,0.63,96.58,0
2020-02-25T02:05:00-05:00,95.02,12.55,735.8,-0.64,0.63,96.58,0
2020-02-25T02:06:00-05:00,95.01,12.56,735.87,-1.82,0.63,96.58,0
2020-02-25T02:07:00-05:00,94.72,12.57,736,-0.49,0.63,96.58,0
2020-02-25T02:08:00-05:00,94.48,12.54,735.73,-0.2,0.63,96.58,0
2020-02-25T02:09:00-05:00,94.48,12.51,735.5,-0.94,0.63,96.58,0
2020-02-25T02:10:00-05:00,94.22,12.53,737.07,-1.08,0.63,96.58,0
2020-02-25T02:11:00-05:00,94.11,12.51,736.8,0.83,0.63,96.58,0
2020-02-25T02:12:00-05:00,93.9,12.51,736.47,-1.23,0.63,96.58,0
2020-02-25T02:13:00-05:00,93.97,12.51,735.87,0.98,0.63,96.58,0
2020-02-25T02:14:00-05:00,94.15,12.52,735.7,-0.64,0.63,96.58,0
2020-02-25T02:15:00-05:00,94.07,12.51,737.27,-1.82,0.63,96.58,0
2020-02-25T02:16:00-05:00,94.2,12.52,735.63,-1.82,0.63,96.58,0
2020-02-25T02:17:00-05:00,94.33,12.54,737.51,-1.08,0.63,96.58,0
2020-02-25T02:18:00-05:00,94.43,12.55,735.97,1.12,0.63,96.58,0
2020-02-25T02:19:00-05:00,94.4,12.55,736.64,-1.97,0.63,96.58,0
2020-02-25T02:20:00-05:00,94.3,12.55,737.1,-0.94,0.63,96.58,0
2020-02-25T02:21:00-05:00,94.39,12.55,737.1,0.98,0.63,96.58,0
2020-02-25T02:22:00-05:00,94.34,12.53,737.07,0.98,0.63,96.58,0
2020-02-25T02:23:00-05:00,94.33,12.54,736.47,-0.2,0.63,96.58,0
2020-02-25T02:24:00-05:00,94.63,12.55,737.47,1.42,0.63,96.58,0
2020-02-25T02:25:00-05:00,94.44,12.53,735.97,-0.05,0.63,96.58,0
2020-02-25T02:26:00-05:00,94.6,12.55,735.67,-0.79,0.63,96.58,0
2020-02-25T02:27:00-05:00,94.61,12.54,735.73,-0.64,0.63,96.58,0
2020-02-25T02:28:00-05:00,94.54,12.55,737.37,-0.2,0.63,96.58,0
2020-02-25T02:29:00-05:00,94.65,12.55,735.8,-0.94,0.63,96.58,0
2020-02-25T02:30:00-05:00,94.59,12.55,737.27,-0.64,0.63,96.58,0
2020-02-25T02:31:00-05:00,94.56,12.53,735.56,-0.2,0.63,96.58,0
2020-02-25T02:32:00-05:00,94.46,12.51,737.07,-1.08,0.63,96.58,0
2020-02-25T02:33:00-05:00,94.27,12.48,735.9,-1.82,0.63,96.58,0
2020-02-25T02:34:00-05:00,94.18,12.47,735.33,0.68,0.63,96.58,0
2020-02-25T02:35:00-05:00,94.29,12.47,736.74,-1.38,0.63,96.58,0
2020-02-25T02:36:00-05:00,94.22,12.45,736.9,-1.08,0.63,96.58,0
2020-02-25T02:37:00-05:00,94.36,12.45,736.67,-0.94,0.63,96.58,0
2020-02-25T02:38:00-05:00,94.29,12.47,736.57,-0.35,0.63,96.58,0
2020-02-25T02:39:00-05:00,94.25,12.45,735.56,-1.82,0.63,96.58,0
2020-02-25T02:40:00-05:00,94.05,12.46,735.23,-2.41,0.63,96.58,0
2020-02-25T02:41:00-05:00,94.03,12.47,736.94,-2.11,0.63,96.58,0
2020-02-25T02:42:00-05:00,94.05,12.44,736.7,-1.97,0.63,96.58,0
2020-02-25T02:43:00-05:00,94.01,12.44,735.9,-0.05,0.63,96.58,0
2020-02-25T02:44:00-05:00,94.05,12.47,736.67,-0.79,0.63,96.58,0
2020-02-25T02:45:00-05:00,94.03,12.47,736.97,-2.11,0.63,96.58,0
2020-02-25T02:46:00-05:00,93.95,12.45,736.47,-1.67,0.63,96.58,0
2020-02-25T02:47:00-05:00,94.08,12.47,735.73,-1.97,0.63,96.58,0
2020-02-25T02:48:00-05:00,93.83,12.46,735.46,0.53,0.63,96.58,0
2020-02-25T02:49:00-05:00,94.01,12.46,735.43,-1.08,0.63,96.58,0
2020-02-25T02:50:00-05:00,94.05,12.46,736.87,-1.97,0.63,96.58,0
2020-02-25T02:51:00-05:00,93.93,12.46,735.1,0.68,0.63,96.58,0
2020-02-25T02:52:00-05:00,93.94,12.47,736.43,-0.94,0.63,96.58,0
2020-02-25T02:53:00-05:00,94.13,12.45,736.43,-1.97,0.63,96.58,0
2020-02-25T02:54:00-05:00,94.1,12.45,736.7,-0.05,0.63,96.58,0
2020-02-25T02:55:00-05:00,93.93,12.44,735.06,-1.67,0.63,96.58,0
2020-02-25T02:56:00-05:00,93.8,12.44,735.5,0.68,0.63,96.58,0
2020-02-25T02:57:00-05:00,93.82,12.43,735.13,-0.2,0.63,96.58,0
2020-02-25T02:58:00-05:00,93.77,12.42,735.16,-1.82,0.63,96.58,0
2020-02-25T02:59:00-05:00,93.87,12.4,735.97,0.39,0.63,96.58,0
2020-02-25T03:00:00-05:00,93.91,12.37,736.07,-0.79,0.63,96.58,0
2020-02-25T03:01:00-05:00,93.89,12.36,735,-0.2,0.63,96.58,0
2020-02-25T03:02:00-05:00,94.27,12.35,735.83,0.53,0.63,96.58,0
2020-02-25T03:03:00-05:00,94.36,12.39,735.3,-1.97,0.63,96.58,0
2020-02-25T03:04:00-05:00,94.32,12.35,736.43,0.53,0.63,96.58,0
2020-02-25T03:05:00-05:00,94.27,12.35,736.37,-0.35,0.63,96.58,0
2020-02-25T03:06:00-05:00,94.26,12.37,736.33,0.83,0.63,96.58,0
2020-02-25T03:07:00-05:00,94.23,12.34,735.46,-1.38,0.63,96.58,0
2020-02-25T03:08:00-05:00,93.87,12.32,735.43,-1.52,0.63,96.58,0
2020-02-25T03:09:00-05:00,93.82,12.29,734.56,-0.49,0.63,96.58,0
2020-02-25T03:10:00-05:00,93.79,12.29,735.93,-1.38,0.63,96.58,0
2020-02-25T03:11:00-05:00,93.75,12.31,735.77,-1.97,0.63,96.58,0
2020-02-25T03:12:00-05:00,93.78,12.31,734.69,-2.11,0.63,96.58,0
2020-02-25T03:13:00-05:00,93.95,12.31,735.73,-1.23,0.63,96.58,0
2020-02-25T03:14:00-05:00,94.03,12.31,734.76,-1.82,0.63,96.58,0
2020-02-25T03:15:00-05:00,93.82,12.29,735.36,-0.2,0.63,96.58,0
2020-02-25T03:16:00-05:00,94.07,12.29,735,-2.99,0.63,96.58,0
2020-02-25T03:17:00-05:00,93.61,12.27,734.76,-2.26,0.63,96.58,0
2020-02-25T03:18:00-05:00,93.62,12.25,734.66,-0.94,0.63,96.58,0
2020-02-25T03:19:00-05:00,93.53,12.24,734.73,-2.99,0.63,96.58,0
2020-02-25T03:20:00-05:00,93.35,12.23,734.53,-2.7,0.63,96.58,0
2020-02-25T03:21:00-05:00,93.43,12.21,734.83,-2.55,0.63,96.58,0
2020-02-25T03:22:00-05:00,93.37,12.22,734.06,-2.11,0.63,96.58,0
2020-02-25T03:23:00-05:00,93.3,12.21,735.43,-2.41,0.63,96.58,0
2020-02-25T03:24:00-05:00,93.11,12.19,734.19,-1.38,0.63,96.58,0
2020-02-25T03:25:00-05:00,93.02,12.17,734.86,-1.52,0.63,96.58,0
2020-02-25T03:26:00-05:00,93,12.18,734.73,-1.67,0.63,96.58,0
2020-02-25T03:27:00-05:00,93.03,12.15,735.06,-1.38,0.63,96.58,0
2020-02-25T03:28:00-05:00,93,12.14,733.96,-3.14,0.63,96.58,0
2020-02-25T03:29:00-05:00,92.31,12.09,734.23,-3.29,0.63,96.58,0
2020-02-25T03:30:00-05:00,92.2,12.07,733.19,-3.88,0.63,96.58,0
2020-02-25T03:31:00-05:00,92.48,12.09,734.59,-3.73,0.63,96.58,0
2020-02-25T03:32:00-05:00,92.17,12.07,733.05,-1.52,0.63,96.58,0
2020-02-25T03:33:00-05:00,92.15,12.05,734.36,-2.7,0.63,96.58,0
2020-02-25T03:34:00-05:00,91.91,12.04,732.89,-1.97,0.63,96.58,0
2020-02-25T03:35:00-05:00,92.06,12.03,732.89,-0.49,0.63,96.58,0
2020-02-25T03:36:00-05:00,92.08,12,733.82,-1.82,0.63,96.58,0
2020-02-25T03:37:00-05:00,92.04,12,732.62,-1.97,0.63,96.58,0
2020-02-25T03:38:00-05:00,92.24,11.99,733.72,-2.99,0.63,96.58,0
2020-02-25T03:39:00-05:00,92.28,11.98,733.99,-1.97,0.63,96.58,0
2020-02-25T03:40:00-05:00,92.43,11.97,732.15,-1.38,0.63,96.58,0
2020-02-25T03:41:00-05:00,92.72,11.95,732.32,-2.26,0.63,96.58,0
2020-02-25T03:42:00-05:00,92.9,11.92,732.22,-0.49,0.63,96.58,0
2020-02-25T03:43:00-05:00,92.89,11.92,733.62,-2.26,0.63,96.58,0
2020-02-25T03:44:00-05:00,93.02,11.9,733.09,-0.49,0.63,96.58,0
2020-02-25T03:45:00-05:00,93.27,11.87,732.05,-1.82,0.63,96.58,0
2020-02-25T03:46:00-05:00,93.31,11.87,732.48,-1.23,0.63,96.58,0
2020-02-25T03:47:00-05:00,93.47,11.87,733.52,-1.67,0.63,96.58,0
2020-02-25T03:48:00-05:00,93.57,11.85,732.18,-2.11,0.63,96.58,0
2020-02-25T03:49:00-05:00,93.61,11.86,732.08,-1.38,0.63,96.58,0
2020-02-25T03:50:00-05:00,93.77,11.85,733.22,-1.38,0.63,96.58,0
2020-02-25T03:51:00-05:00,93.67,11.83,732.75,-2.85,0.63,96.58,0
2020-02-25T03:52:00-05:00,93.63,11.81,731.72,-3.88,0.63,96.58,0
2020-02-25T03:53:00-05:00,93.73,11.79,731.98,-2.99,0.63,96.58,0
2020-02-25T03:54:00-05:00,93.73,11.79,731.78,-2.55,0.63,96.58,0
2020-02-25T03:55:00-05:00,93.73,11.79,733.22,-1.82,0.63,96.58,0
2020-02-25T03:56:00-05:00,93.7,11.75,732.79,-3.58,0.63,96.58,0
2020-02-25T03:57:00-05:00,93.74,11.76,732.18,-2.7,0.63,96.58,0
2020-02-25T03:58:00-05:00,93.71,11.77,731.18,-4.46,0.63,96.58,0
2020-02-25T03:59:00-05:00,93.72,11.76,731.82,-1.82,0.63,96.58,0
2020-02-25T04:00:00-05:00,93.63,11.75,731.72,-4.32,0.63,96.58,0
2020-02-25T04:01:00-05:00,93.4,11.72,734.06,-3.44,0.63,96.58,0
2020-02-25T04:02:00-05:00,92.48,11.69,734.09,-3.29,0.63,96.58,0
2020-02-25T04:03:00-05:00,91.41,11.69,734.09,-3.44,0.63,96.58,0
2020-02-25T04:04:00-05:00,91.24,11.69,732.32,-3.14,0.63,96.58,0
2020-02-25T04:05:00-05:00,91.75,11.73,733.79,-3.44,0.63,96.58,0
2020-02-25T04:06:00-05:00,91.8,11.75,732.35,-4.76,0.63,96.58,0
2020-02-25T04:07:00-05:00,91.86,11.73,733.62,-4.76,0.63,96.58,0
2020-02-25T04:08:00-05:00,91.64,11.68,732.59,-2.41,0.63,96.58,0
2020-02-25T04:09:00-05:00,91.71,11.67,733.69,-2.55,0.63,96.58,0
2020-02-25T04:10:00-05:00,91.32,11.67,733.69,-3.44,0.63,96.58,0
2020-02-25T04:11:00-05:00,91.25,11.64,731.98,-4.76,0.63,96.58,0
2020-02-25T04:12:00-05:00,91.41,11.63,732.48,-3.44,0.63,96.58,0
2020-02-25T04:13:00-05:00,91.43,11.63,731.48,-3.14,0.63,96.58,0
2020-02-25T04:14:00-05:00,91.54,11.61,732.28,-3.29,0.63,96.58,0
2020-02-25T04:15:00-05:00,91.2,11.58,733.32,-4.91,0.63,96.58,0
2020-02-25T04:16:00-05:00,91.15,11.56,731.68,-3.29,0.63,96.58,0
2020-02-25T04:17:00-05:00,90.79,11.56,732.72,-5.2,0.63,96.58,0
2020-02-25T04:18:00-05:00,90.8,11.54,732.82,-4.32,0.63,96.58,0
2020-02-25T04:19:00-05:00,90.8,11.53,732.48,-2.85,0.63,96.58,0
2020-02-25T04:20:00-05:00,90.83,11.48,732.92,-5.2,0.63,96.58,0
2020-02-25T04:21:00-05:00,91.11,11.44,732.69,-2.7,0.63,96.58,0
2020-02-25T04:22:00-05:00,91.34,11.42,732.79,-4.02,0.63,96.58,0
2020-02-25T04:23:00-05:00,91.37,11.42,732.99,-4.46,0.63,96.58,0
2020-02-25T04:24:00-05:00,91.54,11.42,732.69,-4.32,0.63,96.58,0
2020-02-25T04:25:00-05:00,91.36,11.46,733.15,-3.73,0.63,96.58,0
2020-02-25T04:26:00-05:00,91.05,11.47,734.59,-3.44,0.63,96.58,0
2020-02-25T04:27:00-05:00,90.93,11.49,733.39,-2.11,0.63,96.58,0
2020-02-25T04:28:00-05:00,90.67,11.49,733.56,-3.14,0.63,96.58,0
2020-02-25T04:29:00-05:00,89.74,11.57,733.89,-2.85,0.63,96.58,0
2020-02-25T04:30:00-05:00,89.08,11.64,734.43,-2.41,0.63,96.58,0
2020-02-25T04:31:00-05:00,88.74,11.71,733.99,-3.73,0.63,96.58,0
2020-02-25T04:32:00-05:00,88.96,11.68,733.05,-1.97,0.63,96.58,0
2020-02-25T04:33:00-05:00,89.06,11.69,733.49,-5.35,0.63,96.58,0
2020-02-25T04:34:00-05:00,89.5,11.63,734.23,-4.61,0.63,96.58,0
2020-02-25T04:35:00-05:00,89.71,11.6,732.52,-2.99,0.63,96.58,0
2020-02-25T04:36:00-05:00,89.22,11.58,732.99,-4.76,0.63,96.58,0
2020-02-25T04:37:00-05:00,89.16,11.57,734.16,-5.05,0.63,96.58,0
2020-02-25T04:38:00-05:00,89.13,11.57,732.72,-4.32,0.63,96.58,0
2020-02-25T04:39:00-05:00,89.13,11.55,734.13,-3.14,0.63,96.58,0
2020-02-25T04:40:00-05:00,89.07,11.52,732.48,-2.85,0.63,96.58,0
2020-02-25T04:41:00-05:00,89.24,11.49,732.62,-4.91,0.63,96.58,0
2020-02-25T04:42:00-05:00,89.6,11.47,733.79,-3.73,0.63,96.58,0
2020-02-25T04:43:00-05:00,89.73,11.46,733.62,-2.26,0.63,96.58,0
2020-02-25T04:44:00-05:00,89.72,11.46,732.95,-2.55,0.63,96.58,0
2020-02-25T04:45:00-05:00,89.5,11.47,732.45,-3.14,0.63,96.58,0
2020-02-25T04:46:00-05:00,89.72,11.48,733.02,-1.82,0.63,96.58,0
2020-02-25T04:47:00-05:00,89.72,11.48,732.48,-3.14,0.63,96.58,0
2020-02-25T04:48:00-05:00,89.94,11.45,733.59,-4.02,0.63,96.58,0
2020-02-25T04:49:00-05:00,90.12,11.43,733.59,-3.44,0.63,96.58,0
2020-02-25T04:50:00-05:00,89.96,11.44,732.45,-4.17,0.63,96.58,0
2020-02-25T04:51:00-05:00,90.3,11.39,733.56,-4.46,0.63,96.58,0
2020-02-25T04:52:00-05:00,90.37,11.37,732.45,-3.44,0.63,96.58,0
2020-02-25T04:53:00-05:00,90.29,11.34,733.72,-4.76,0.63,96.58,0
2020-02-25T04:54:00-05:00,90.46,11.34,733.92,-1.97,0.63,96.58,0
2020-02-25T04:55:00-05:00,90.44,11.33,733.79,-4.46,0.63,96.58,0
2020-02-25T04:56:00-05:00,90.83,11.28,732.35,-2.41,0.63,96.58,0
2020-02-25T04:57:00-05:00,91.04,11.27,732.12,-3.14,0.63,96.58,0
2020-02-25T04:58:00-05:00,91.17,11.26,732.22,-2.85,0.63,96.58,0
2020-02-25T04:59:00-05:00,91.25,11.22,733.46,-4.46,0.63,96.58,0
2020-02-25T05:00:00-05:00,91.27,11.19,732.05,-4.46,0.63,96.58,0
2020-02-25T05:01:00-05:00,91.48,11.16,732.15,-2.26,0.63,96.58,0
2020-02-25T05:02:00-05:00,91.52,11.14,732.85,-2.7,0.63,96.58,0
2020-02-25T05:03:00-05:00,91.64,11.16,732.28,-2.7,0.63,96.58,0
2020-02-25T05:04:00-05:00,91.64,11.18,733.66,-3.58,0.63,96.58,0
2020-02-25T05:05:00-05:00,91.39,11.16,732.05,-3.58,0.63,96.58,0
2020-02-25T05:06:00-05:00,91.63,11.18,733.62,-4.32,0.63,96.58,0
2020-02-25T05:07:00-05:00,91.27,11.21,732.95,-3.29,0.63,96.58,0
2020-02-25T05:08:00-05:00,90.95,11.21,732.08,-3.14,0.63,96.58,0
2020-02-25T05:09:00-05:00,90.41,11.21,731.98,-4.17,0.63,96.58,0
2020-02-25T05:10:00-05:00,90.4,11.23,732.65,-1.52,0.63,96.58,0
2020-02-25T05:11:00-05:00,90.29,11.26,733.42,-1.67,0.63,96.58,0
2020-02-25T05:12:00-05:00,90.41,11.29,732.45,-3.14,0.63,96.58,0
2020-02-25T05:13:00-05:00,90.5,11.33,733.92,-2.7,0.63,96.58,0
2020-02-25T05:14:00-05:00,90.32,11.36,732.62,-2.41,0.63,96.58,0
2020-02-25T05:15:00-05:00,90.1,11.4,733.66,-0.35,0.63,96.58,0
2020-02-25T05:16:00-05:00,89.96,11.46,734.73,-1.67,0.63,96.58,0
2020-02-25T05:17:00-05:00,90.15,11.51,733.96,-1.52,0.63,96.58,0
2020-02-25T05:18:00-05:00,90.33,11.57,733.42,1.12,0.63,96.58,0
2020-02-25T05:19:00-05:00,90.15,11.64,734.06,0.39,0.63,96.58,0
2020-02-25T05:20:00-05:00,89.7,11.67,734.66,-0.94,0.63,96.58,0
2020-02-25T05:21:00-05:00,89.76,11.69,734.46,1.27,0.63,96.58,0
2020-02-25T05:22:00-05:00,89.74,11.69,734.19,1.42,0.63,96.58,0
2020-02-25T05:23:00-05:00,90.02,11.71,734.59,-0.49,0.63,96.58,0
2020-02-25T05:24:00-05:00,89.98,11.74,734.73,-0.64,0.63,96.58,0
2020-02-25T05:25:00-05:00,89.87,11.74,736.43,1.71,0.63,96.58,0
2020-02-25T05:26:00-05:00,89.91,11.76,735.36,-0.64,0.63,96.58,0
2020-02-25T05:27:00-05:00,87.77,11.85,735.7,2.89,0.63,96.58,0
2020-02-25T05:28:00-05:00,86.03,11.97,737.1,2,0.63,96.58,0
2020-02-25T05:29:00-05:00,85.89,12.04,737.2,1.56,0.63,96.58,0
2020-02-25T05:30:00-05:00,85.56,12.08,736.3,0.39,0.63,96.58,0
2020-02-25T05:31:00-05:00,85.15,12.1,736.17,1.12,0.63,96.58,0
2020-02-25T05:32:00-05:00,84.67,12.15,737.71,0.53,0.63,96.58,0
2020-02-25T05:33:00-05:00,84.16,12.21,736.43,0.39,0.63,96.58,0
2020-02-25T05:34:00-05:00,84.8,12.23,736.97,1.27,0.63,96.58,0
2020-02-25T05:35:00-05:00,85.07,12.23,738.38,1.71,0.63,96.58,0
2020-02-25T05:36:00-05:00,85.47,12.23,737.04,0.09,0.63,96.58,0
2020-02-25T05:37:00-05:00,85.62,12.21,738.64,-0.05,0.63,96.58,0
2020-02-25T05:38:00-05:00,85.23,12.21,737.47,2.3,0.63,96.58,0
2020-02-25T05:39:00-05:00,85.27,12.23,737.14,3.03,0.63,96.58,0
2020-02-25T05:40:00-05:00,85.25,12.23,738.41,2.89,0.63,96.58,0
2020-02-25T05:41:00-05:00,85.55,12.23,738.14,0.24,0.63,96.58,0
2020-02-25T05:42:00-05:00,85.63,12.21,737.57,1.56,0.63,96.58,0
2020-02-25T05:43:00-05:00,85.45,12.23,738.64,2.59,0.63,96.58,0
2020-02-25T05:44:00-05:00,85.96,12.22,738.78,1.86,0.63,96.58,0
2020-02-25T05:45:00-05:00,86.49,12.17,737.44,1.42,0.63,96.58,0
2020-02-25T05:46:00-05:00,87.14,12.12,737.51,-0.05,0.63,96.58,0
2020-02-25T05:47:00-05:00,87.63,12.07,737.61,-0.64,0.63,96.58,0
2020-02-25T05:48:00-05:00,87.71,12.02,738.44,1.42,0.63,96.58,0
2020-02-25T05:49:00-05:00,87.59,11.95,738.24,-0.79,0.63,96.58,0
2020-02-25T05:50:00-05:00,87.87,11.91,737.2,1.12,0.63,96.58,0
2020-02-25T05:51:00-05:00,88.05,11.89,738.01,-0.49,0.63,96.58,0
2020-02-25T05:52:00-05:00,88.25,11.89,738.18,1.56,0.63,96.58,0
2020-02-25T05:53:00-05:00,88.58,11.87,738.78,0.24,0.63,96.58,0
2020-02-25T05:54:00-05:00,88.16,11.89,737.2,1.12,0.63,96.58,0
2020-02-25T05:55:00-05:00,88.01,11.93,738.28,0.98,0.63,96.58,0
2020-02-25T05:56:00-05:00,87.97,11.95,738.88,0.09,0.63,96.58,0
2020-02-25T05:57:00-05:00,87.83,11.96,737.34,-0.2,0.63,96.58,0
2020-02-25T05:58:00-05:00,88.25,11.95,738.48,0.39,0.63,96.58,0
2020-02-25T05:59:00-05:00,88.3,11.97,738.71,0.53,0.63,96.58,0
2020-02-25T06:00:00-05:00,87.89,12.01,738.51,0.83,0.63,96.58,0
2020-02-25T06:01:00-05:00,88.17,12.04,738.95,1.27,0.63,96.58,0
2020-02-25T06:02:00-05:00,88.39,12.03,737.81,-0.05,0.63,96.58,0
2020-02-25T06:03:00-05:00,88.82,12.05,738.91,1.71,0.63,96.58,0
2020-02-25T06:04:00-05:00,88.45,12.03,738.48,1.86,0.63,96.58,0
2020-02-25T06:05:00-05:00,88.77,12.01,737.61,0.83,0.63,96.58,0
2020-02-25T06:06:00-05:00,88.53,12.03,739.05,1.86,0.63,96.58,0
2020-02-25T06:07:00-05:00,88.43,12.03,738.98,-0.2,0.63,96.58,0
2020-02-25T06:08:00-05:00,88.97,12,738.28,1.71,0.63,96.58,0
2020-02-25T06:09:00-05:00,89.34,11.98,737.34,0.39,0.63,96.58,0
2020-02-25T06:10:00-05:00,89.47,11.94,737.34,0.39,0.63,96.58,0
2020-02-25T06:11:00-05:00,89.48,11.92,738.88,-0.2,0.63,96.58,0
2020-02-25T06:12:00-05:00,89.86,11.86,738.34,2.89,0.63,96.58,0
2020-02-25T06:13:00-05:00,89.76,11.9,738.48,0.39,0.63,96.58,0
2020-02-25T06:14:00-05:00,90.11,11.88,737.97,2.45,0.63,96.58,0
2020-02-25T06:15:00-05:00,90.45,11.89,738.24,0.83,0.63,96.58,0
2020-02-25T06:16:00-05:00,90.57,11.87,736.94,1.27,0.63,96.58,0
2020-02-25T06:17:00-05:00,91.03,11.86,737.37,0.98,0.63,96.58,0
2020-02-25T06:18:00-05:00,90.81,11.83,738.21,3.62,0.63,96.58,0
2020-02-25T06:19:00-05:00,90.94,11.85,738.28,4.5,0.63,96.58,0
2020-02-25T06:20:00-05:00,90.99,11.85,738.41,4.65,0.63,96.58,0
2020-02-25T06:21:00-05:00,90.95,11.87,737.41,3.47,0.63,96.58,0
2020-02-25T06:22:00-05:00,91.17,11.86,738.88,4.06,0.63,96.58,0
2020-02-25T06:23:00-05:00,90.99,11.86,738.71,3.03,0.63,96.58,0
2020-02-25T06:24:00-05:00,90.95,11.88,738.34,3.33,0.63,96.58,0
2020-02-25T06:25:00-05:00,90.87,11.87,737.34,3.03,0.63,96.58,0
2020-02-25T06:26:00-05:00,90.99,11.91,738.68,5.83,0.63,96.58,0
2020-02-25T06:27:00-05:00,90.88,11.92,737.94,3.18,0.63,96.58,0
2020-02-25T06:28:00-05:00,90.91,11.91,738.68,4.21,0.63,96.58,0
2020-02-25T06:29:00-05:00,90.85,11.91,738.85,6.71,0.63,96.58,0
2020-02-25T06:30:00-05:00,90.98,11.93,737.81,6.86,0.63,96.58,0
2020-02-25T06:31:00-05:00,90.97,11.95,738.68,7.15,0.63,96.58,0
2020-02-25T06:32:00-05:00,91.08,11.95,738.68,8.62,0.63,96.58,0
2020-02-25T06:33:00-05:00,91.09,11.97,738.08,10.24,0.63,96.58,0
2020-02-25T06:34:00-05:00,91.17,11.97,737.67,10.24,0.63,96.58,0
2020-02-25T06:35:00-05:00,91.15,11.95,738.68,12,0.63,96.58,0
2020-02-25T06:36:00-05:00,90.97,11.99,738.95,14.21,0.63,96.58,0
2020-02-25T06:37:00-05:00,91.23,11.98,738.88,12,0.63,96.58,0
2020-02-25T06:38:00-05:00,91.39,11.99,737.37,13.33,0.63,96.58,0
2020-02-25T06:39:00-05:00,91.29,11.96,738.01,13.03,0.63,96.58,0
2020-02-25T06:40:00-05:00,91.39,11.99,738.58,15.38,0.63,96.58,0
2020-02-25T06:41:00-05:00,91.64,11.99,738.98,14.65,0.63,96.58,0
2020-02-25T06:42:00-05:00,91.86,11.99,738.61,13.62,0.63,96.58,0
2020-02-25T06:43:00-05:00,91.78,11.98,737.34,13.47,0.63,96.58,0
2020-02-25T06:44:00-05:00,91.99,11.99,738.74,14.8,0.63,96.58,0
2020-02-25T06:45:00-05:00,91.92,11.99,737.37,14.8,0.63,96.58,0
2020-02-25T06:46:00-05:00,92.08,11.99,738.61,16.27,0.63,96.58,0
2020-02-25T06:47:00-05:00,92.1,11.99,738.58,17.29,0.63,96.58,0
2020-02-25T06:48:00-05:00,92.47,11.99,737.74,19.65,0.63,96.58,0
2020-02-25T06:49:00-05:00,92.66,12,738.95,20.09,0.63,96.58,0
2020-02-25T06:50:00-05:00,93.14,12.03,739.05,24.94,0.63,96.58,0
2020-02-25T06:51:00-05:00,93.41,12.03,737.97,23.62,0.63,96.58,0
2020-02-25T06:52:00-05:00,93.59,12.06,739.65,25.09,0.63,96.58,0
2020-02-25T06:53:00-05:00,93.54,12.07,739.51,25.23,0.63,96.58,0
2020-02-25T06:54:00-05:00,93.68,12.09,738.04,26.56,0.63,96.58,0
2020-02-25T06:55:00-05:00,93.51,12.09,738.34,27.88,0.63,96.58,0
2020-02-25T06:56:00-05:00,93.61,12.11,738.98,32.14,0.63,96.58,0
2020-02-25T06:57:00-05:00,93.63,12.13,739.45,32.59,0.63,96.58,0
2020-02-25T06:58:00-05:00,93.81,12.13,738.41,36.41,0.63,96.58,0
2020-02-25T06:59:00-05:00,93.74,12.12,738.64,40.67,0.63,96.58,0
2020-02-25T07:00:00-05:00,94.03,12.11,739.72,48.17,0.63,96.58,0
2020-02-25T07:01:00-05:00,94.06,12.11,740.08,52.43,0.63,96.58,0
2020-02-25T07:02:00-05:00,94.13,12.14,740.15,58.46,0.63,96.58,0
2020-02-25T07:03:00-05:00,94.16,12.13,738.58,64.2,0.63,96.58,0
2020-02-25T07:04:00-05:00,93.85,12.13,736.8,67.87,0.63,96.58,0
2020-02-25T07:05:00-05:00,93.87,12.15,737.61,70.66,0.63,96.58,0
2020-02-25T07:06:00-05:00,93.12,12.11,737.54,74.49,0.63,96.58,0
2020-02-25T07:07:00-05:00,92.55,12.12,736.6,75.66,0.63,96.58,0
2020-02-25T07:08:00-05:00,92.7,12.17,737.44,75.08,0.63,96.58,0
2020-02-25T07:09:00-05:00,92.42,12.23,736.13,75.96,0.63,96.58,0
2020-02-25T07:10:00-05:00,92.42,12.25,736.47,76.1,0.63,96.58,0
2020-02-25T07:11:00-05:00,91.74,12.27,736.7,77.87,0.63,96.58,0
2020-02-25T07:12:00-05:00,91.21,12.29,736.1,77.87,0.63,96.58,0
2020-02-25T07:13:00-05:00,91.52,12.34,737.84,78.75,0.63,96.58,0
2020-02-25T07:14:00-05:00,92,12.41,736.23,81.84,0.63,96.58,0
2020-02-25T07:15:00-05:00,90.89,12.45,737.64,82.43,0.63,96.58,0
2020-02-25T07:16:00-05:00,90.21,12.45,738.08,84.78,0.63,96.58,0
2020-02-25T07:17:00-05:00,90.85,12.51,737.67,81.69,0.63,96.58,0
2020-02-25T07:18:00-05:00,90.15,12.55,737.41,82.57,0.63,96.58,0
2020-02-25T07:19:00-05:00,89.84,12.6,737.54,84.48,0.63,96.58,0
2020-02-25T07:20:00-05:00,89.82,12.64,737.37,89.63,0.63,96.58,0
2020-02-25T07:21:00-05:00,89.66,12.68,736.5,93.6,0.63,96.58,0
2020-02-25T07:22:00-05:00,90.17,12.7,736.47,98.3,0.63,96.58,0
2020-02-25T07:23:00-05:00,90.3,12.75,736.54,100.8,0.63,96.58,0
2020-02-25T07:24:00-05:00,90.26,12.79,737.07,105.36,0.63,96.58,0
2020-02-25T07:25:00-05:00,90.56,12.81,736.37,110.21,0.63,96.58,0
2020-02-25T07:26:00-05:00,90.32,12.84,736.4,116.39,0.63,96.58,0
2020-02-25T07:27:00-05:00,90.17,12.87,736.54,121.39,0.63,96.58,0
2020-02-25T07:28:00-05:00,89.92,12.89,736.74,124.03,0.63,96.58,0
2020-02-25T07:29:00-05:00,89.75,12.93,736.6,125.36,0.63,96.58,0
2020-02-25T07:30:00-05:00,89.92,12.97,738.18,125.21,0.63,96.58,0
2020-02-25T07:31:00-05:00,89.62,13.01,738.08,125.06,0.63,96.58,0
2020-02-25T07:32:00-05:00,89.32,13.04,737.71,124.47,0.63,96.58,0
2020-02-25T07:33:00-05:00,89.35,13.07,738.48,120.36,0.63,96.58,0
2020-02-25T07:34:00-05:00,89.33,13.1,738.21,121.09,0.63,96.58,0
2020-02-25T07:35:00-05:00,89.01,13.16,737.14,120.95,0.63,96.58,0
2020-02-25T07:36:00-05:00,89.14,13.22,736.97,119.18,0.63,96.58,0
2020-02-25T07:37:00-05:00,88.16,13.23,738.08,119.04,0.63,96.58,0
2020-02-25T07:38:00-05:00,87.83,13.28,737.77,122.56,0.63,96.58,0
2020-02-25T07:39:00-05:00,87.08,13.28,737.14,124.03,0.63,96.58,0
2020-02-25T07:40:00-05:00,87.41,13.32,738.24,125.95,0.63,96.58,0
2020-02-25T07:41:00-05:00,87.41,13.35,738.61,127.27,0.63,96.58,0
2020-02-25T07:42:00-05:00,87.39,13.38,737.07,130.21,0.63,96.58,0
2020-02-25T07:43:00-05:00,87.35,13.39,739.01,134.62,0.63,96.58,0
2020-02-25T07:44:00-05:00,88,13.42,738.14,135.35,0.63,96.58,0
2020-02-25T07:45:00-05:00,87.5,13.45,737.74,137.85,0.63,96.58,0
2020-02-25T07:46:00-05:00,86.62,13.46,739.38,136.82,0.63,96.58,0
2020-02-25T07:47:00-05:00,86.37,13.47,738.68,136.24,0.63,96.58,0
2020-02-25T07:48:00-05:00,86.27,13.48,738.38,134.91,0.63,96.58,0
2020-02-25T07:49:00-05:00,86.35,13.51,739.65,130.5,0.63,96.58,0
2020-02-25T07:50:00-05:00,86.86,13.54,739.45,128.59,0.63,96.58,0
2020-02-25T07:51:00-05:00,86.23,13.53,739.48,127.42,0.63,96.58,0
2020-02-25T07:52:00-05:00,86.43,13.55,738.71,126.53,0.63,96.58,0
2020-02-25T07:53:00-05:00,86.98,13.57,739.08,125.36,0.63,96.58,0
2020-02-25T07:54:00-05:00,87.36,13.59,740.05,126.53,0.63,96.58,0
2020-02-25T07:55:00-05:00,87.49,13.64,739.75,123.89,0.63,96.58,0
2020-02-25T07:56:00-05:00,87.61,13.66,738.48,126.09,0.63,96.58,0
2020-02-25T07:57:00-05:00,87.82,13.71,738.38,125.36,0.63,96.58,0
2020-02-25T07:58:00-05:00,87.82,13.73,739.75,127.71,0.63,96.58,0
2020-02-25T07:59:00-05:00,87.52,13.77,739.11,129.62,0.63,96.58,0
2020-02-25T08:00:00-05:00,87.17,13.78,739.98,135.65,0.63,96.58,0
2020-02-25T08:01:00-05:00,86.42,13.78,738.54,143.44,0.63,96.58,0
2020-02-25T08:02:00-05:00,86.89,13.81,740.05,152.7,0.63,96.58,0
2020-02-25T08:03:00-05:00,87.43,13.84,739.18,155.2,0.63,96.58,0
2020-02-25T08:04:00-05:00,87.32,13.86,739.92,159.32,0.63,96.58,0
2020-02-25T08:05:00-05:00,87.11,13.91,739.05,171.23,0.63,96.58,0
2020-02-25T08:06:00-05:00,86.74,13.94,739.38,191.52,0.63,96.58,0
2020-02-25T08:07:00-05:00,85.4,13.95,737.97,200.19,0.63,96.58,0
2020-02-25T08:08:00-05:00,84.66,13.95,739.51,207.69,0.63,96.58,0
2020-02-25T08:09:00-05:00,85.41,14,739.28,225.77,0.63,96.58,0
2020-02-25T08:10:00-05:00,86.43,14.06,739.05,237.54,0.63,96.58,0
2020-02-25T08:11:00-05:00,86.04,14.16,739.72,238.86,0.63,96.58,0
2020-02-25T08:12:00-05:00,85.77,14.21,739.08,233.57,0.63,96.58,0
2020-02-25T08:13:00-05:00,84.16,14.26,738.08,240.04,0.63,96.58,0
2020-02-25T08:14:00-05:00,83.01,14.32,739.65,254.88,0.63,96.58,0
2020-02-25T08:15:00-05:00,82.49,14.34,739.48,280.91,0.63,96.58,0
2020-02-25T08:16:00-05:00,83.16,14.4,737.81,296.05,0.63,96.58,0
2020-02-25T08:17:00-05:00,83.61,14.45,737.91,292.23,0.63,96.58,0
2020-02-25T08:18:00-05:00,None,None,None,None,None,None,None
2020-02-25T08:19:00-05:00,None,None,None,None,None,None,None
2020-02-25T08:20:00-05:00,None,None,None,None,None,None,None
2020-02-25T08:21:00-05:00,None,None,None,None,None,None,None
2020-02-25T08:22:00-05:00,None,None,None,None,None,None,None
2020-02-25T08:23:00-05:00,None,None,None,None,None,None,None
2020-02-25T08:24:00-05:00,None,None,None,None,None,None,None
2020-02-25T08:25:00-05:00,None,None,None,None,None,None,None
2020-02-25T08:26:00-05:00,None,None,None,None,None,None,None
2020-02-25T08:27:00-05:00,None,None,None,None,None,None,None
2020-02-25T08:28:00-05:00,None,None,None,None,None,None,None
2020-02-25T08:29:00-05:00,None,None,None,None,None,None,None
2020-02-25T08:30:00-05:00,None,None,None,None,None,None,None
2020-02-25T08:31:00-05:00,None,None,None,None,None,None,None
2020-02-25T08:32:00-05:00,None,None,None,None,None,None,None
2020-02-25T08:33:00-05:00,None,None,None,None,None,None,None
2020-02-25T08:34:00-05:00,None,None,None,None,None,None,None
2020-02-25T08:35:00-05:00,None,None,None,None,None,None,None
2020-02-25T08:36:00-05:00,None,None,None,None,None,None,None
2020-02-25T08:37:00-05:00,None,None,None,None,None,None,None
2020-02-25T08:38:00-05:00,None,None,None,None,None,None,None
2020-02-25T08:39:00-05:00,None,None,None,None,None,None,None
2020-02-25T08:40:00-05:00,None,None,None,None,None,None,None
2020-02-25T08:41:00-05:00,None,None,None,None,None,None,None
2020-02-25T08:42:00-05:00,None,None,None,None,None,None,None
2020-02-25T08:43:00-05:00,None,None,None,None,None,None,None
2020-02-25T08:44:00-05:00,None,None,None,None,None,None,None
2020-02-25T08:45:00-05:00,None,None,None,None,None,None,None
2020-02-25T08:46:00-05:00,None,None,None,None,None,None,None
2020-02-25T08:47:00-05:00,None,None,None,None,None,None,None
2020-02-25T08:48:00-05:00,None,None,None,None,None,None,None
2020-02-25T08:49:00-05:00,None,None,None,None,None,None,None
2020-02-25T08:50:00-05:00,None,None,None,None,None,None,None
2020-02-25T08:51:00-05:00,None,None,None,None,None,None,None
2020-02-25T08:52:00-05:00,None,None,None,None,None,None,None
2020-02-25T08:53:00-05:00,None,None,None,None,None,None,None
2020-02-25T08:54:00-05:00,None,None,None,None,None,None,None
2020-02-25T08:55:00-05:00,None,None,None,None,None,None,None
2020-02-25T08:56:00-05:00,None,None,None,None,None,None,None
2020-02-25T08:57:00-05:00,None,None,None,None,None,None,None
2020-02-25T08:58:00-05:00,None,None,None,None,None,None,None
2020-02-25T08:59:00-05:00,None,None,None,None,None,None,None
2020-02-25T09:00:00-05:00,None,None,None,None,None,None,None
2020-02-25T09:01:00-05:00,None,None,None,None,None,None,None
2020-02-25T09:02:00-05:00,None,None,None,None,None,None,None
2020-02-25T09:03:00-05:00,None,None,None,None,None,None,None
2020-02-25T09:04:00-05:00,None,None,None,None,None,None,None
2020-02-25T09:05:00-05:00,None,None,None,None,None,None,None
2020-02-25T09:06:00-05:00,None,None,None,None,None,None,None
2020-02-25T09:07:00-05:00,None,None,None,None,None,None,None
2020-02-25T09:08:00-05:00,None,None,None,None,None,None,None
2020-02-25T09:09:00-05:00,None,None,None,None,None,None,None
2020-02-25T09:10:00-05:00,None,None,None,None,None,None,None
2020-02-25T09:11:00-05:00,None,None,None,None,None,None,None
2020-02-25T09:12:00-05:00,None,None,None,None,None,None,None
2020-02-25T09:13:00-05:00,None,None,None,None,None,None,None
2020-02-25T09:14:00-05:00,None,None,None,None,None,None,None
2020-02-25T09:15:00-05:00,None,None,None,None,None,None,None
2020-02-25T09:16:00-05:00,None,None,None,None,None,None,None
2020-02-25T09:17:00-05:00,None,None,None,None,None,None,None
2020-02-25T09:18:00-05:00,None,None,None,None,None,None,None
2020-02-25T09:19:00-05:00,None,None,None,None,None,None,None
2020-02-25T09:20:00-05:00,None,None,None,None,None,None,None
2020-02-25T09:21:00-05:00,None,None,None,None,None,None,None
2020-02-25T09:22:00-05:00,None,None,None,None,None,None,None
2020-02-25T09:23:00-05:00,None,None,None,None,None,None,None
2020-02-25T09:24:00-05:00,None,None,None,None,None,None,None
2020-02-25T09:25:00-05:00,None,None,None,None,None,None,None
2020-02-25T09:26:00-05:00,None,None,None,None,None,None,None
2020-02-25T09:27:00-05:00,None,None,None,None,None,None,None
2020-02-25T09:28:00-05:00,74.02,16.72,737,838.86,0.59,22.65,0
2020-02-25T09:29:00-05:00,73.91,16.81,736.23,819.9,0.54,224.91,0
2020-02-25T09:30:00-05:00,74.07,16.96,736.9,816.07,0.25,262.68,0
2020-02-25T09:31:00-05:00,None,None,None,None,None,None,None
2020-02-25T09:32:00-05:00,None,None,None,None,None,None,None
2020-02-25T09:33:00-05:00,None,None,None,None,None,None,None
2020-02-25T09:34:00-05:00,None,None,None,None,None,None,None
2020-02-25T09:35:00-05:00,71.87,17.21,736.03,196.08,1.71,15.83,0
2020-02-25T09:36:00-05:00,72.38,17.18,739.01,177.7,1.17,356.42,0
2020-02-25T09:37:00-05:00,71.49,17.15,738.28,164.47,0.85,292.03,0
2020-02-25T09:38:00-05:00,71.05,17.04,736.6,158.58,2.29,33.09,1.2
2020-02-25T09:39:00-05:00,72.01,16.87,738.85,159.61,1.23,17.29,0
2020-02-25T09:40:00-05:00,71.67,16.72,737.44,165.64,0.68,10.7,0
2020-02-25T09:41:00-05:00,73.48,16.64,736.43,171.23,0.46,319.57,0
2020-02-25T09:42:00-05:00,74.03,16.64,736.74,173.73,1.46,33.77,0
2020-02-25T09:43:00-05:00,73.98,16.6,738.44,181.23,0.46,257.76,0
2020-02-25T09:44:00-05:00,74.54,16.6,737.91,187.99,0.62,48.03,0
2020-02-25T09:45:00-05:00,74.07,16.5,737.41,194.61,0.58,9.54,0
2020-02-25T09:46:00-05:00,75.06,16.5,736.47,204.9,0.78,83.53,0
2020-02-25T09:47:00-05:00,75.62,16.46,736.17,214.6,0.58,29.44,0
2020-02-25T09:48:00-05:00,75.03,16.44,736.54,225.19,0.74,28.97,0
2020-02-25T09:49:00-05:00,74.1,16.44,736.6,234.89,0.79,55.06,0
2020-02-25T09:50:00-05:00,73.63,16.35,736.23,246.06,0.67,21.41,0
2020-02-25T09:51:00-05:00,74.52,16.28,737.87,258.27,0.63,40.22,0
2020-02-25T09:52:00-05:00,74.49,16.26,736.7,259.44,0.74,30.32,0
2020-02-25T09:53:00-05:00,75.28,16.22,737.54,260.32,0.82,17.79,0
2020-02-25T09:54:00-05:00,74.01,16.2,737.07,265.03,0.4,76.8,0
2020-02-25T09:55:00-05:00,78.12,16.3,738.11,267.97,0.55,100.42,0
2020-02-25T09:56:00-05:00,75.46,16.33,737.27,267.38,1.19,355.8,0
2020-02-25T09:57:00-05:00,73.95,16.35,737.34,271.06,0.66,45,0
2020-02-25T09:58:00-05:00,74.49,16.38,737.91,269.44,0.82,37.19,0
2020-02-25T09:59:00-05:00,74.06,16.37,737.97,269.44,0.69,53.72,0
2020-02-25T10:00:00-05:00,72.52,16.32,737.54,271.35,0.72,56.91,0
2020-02-25T10:01:00-05:00,73.61,16.36,737.87,275.32,0.6,17.44,0
2020-02-25T10:02:00-05:00,71.58,16.32,738.01,279.44,0.57,46.7,0
2020-02-25T10:03:00-05:00,71.8,16.3,737.81,279.73,0.68,48.68,0
2020-02-25T10:04:00-05:00,72.85,16.31,737.34,281.64,0.58,27.96,0
2020-02-25T10:05:00-05:00,71.76,16.34,737.87,284.88,0.11,292.7,0
2020-02-25T10:06:00-05:00,73.71,16.4,737,305.17,0.62,20.89,0
2020-02-25T10:07:00-05:00,73.81,16.52,738.21,428.96,0.06,81.61,0
2020-02-25T10:08:00-05:00,73.91,16.66,737.91,593.48,0.71,343.53,0
2020-02-25T10:09:00-05:00,74.73,16.85,737.57,770.94,0.44,37.49,0.1
2020-02-25T10:10:00-05:00,71.13,17.02,737.31,442.63,0.6,83.57,0
2020-02-25T10:11:00-05:00,68.27,17.07,738.21,334.57,0.28,36.42,0
2020-02-25T10:12:00-05:00,67.49,17.13,737.57,355.74,0.57,13.93,0
2020-02-25T10:13:00-05:00,67.18,17.11,736.54,417.05,0.59,20.49,0
2020-02-25T10:14:00-05:00,69.36,17.15,736.57,441.6,0.32,63.55,0
2020-02-25T10:15:00-05:00,68.35,17.23,737.17,428.81,0.59,15.4,0
2020-02-25T10:16:00-05:00,68.82,17.25,736.84,426.02,0.87,12.32,0
2020-02-25T10:17:00-05:00,70.54,17.29,736.64,440.72,0.89,21,0
2020-02-25T10:18:00-05:00,70.91,17.34,737,550.7,1.36,55.92,0
2020-02-25T10:19:00-05:00,67.06,17.33,737.24,945.45,0.61,36.75,0
2020-02-25T10:20:00-05:00,67.92,17.36,737.41,1075.72,0.57,63.08,0
2020-02-25T10:21:00-05:00,68.04,17.44,736.7,1229.94,0.56,137.33,0
2020-02-25T10:22:00-05:00,68.03,17.6,737.44,1213.77,0.98,41.05,0
2020-02-25T10:23:00-05:00,66.92,17.69,736.8,1217.15,1.26,1.33,0
2020-02-25T10:24:00-05:00,65.16,17.81,736.4,1180.69,0.62,15.54,0
2020-02-25T10:25:00-05:00,65.23,17.88,737.54,405.88,0.56,123.18,0
2020-02-25T10:26:00-05:00,63.93,17.95,736.57,341.19,0.71,38.08,0
2020-02-25T10:27:00-05:00,64.62,17.95,736.74,302.67,0.87,27.32,0
2020-02-25T10:28:00-05:00,65.28,18.02,737.81,304.28,0.71,55.02,0
2020-02-25T10:29:00-05:00,64.26,18.02,736.5,287.08,0.65,51.73,0
2020-02-25T10:30:00-05:00,64.84,18.03,737.64,262.09,0.82,37.39,0
2020-02-25T10:31:00-05:00,65.54,17.99,737.27,250.33,1.7,30.26,0
2020-02-25T10:32:00-05:00,66.01,17.93,736.87,241.36,0.74,62.4,0
2020-02-25T10:33:00-05:00,65.8,17.94,736.54,242.83,1,30.73,0
2020-02-25T10:34:00-05:00,64.43,17.93,737.41,253.12,1.57,40.29,0
2020-02-25T10:35:00-05:00,64.3,17.76,736.4,270.03,0.56,5.74,0
2020-02-25T10:36:00-05:00,66.06,17.72,736.54,287.67,0.61,38.52,0
2020-02-25T10:37:00-05:00,64.48,17.73,737.87,313.11,0.7,34.09,0
2020-02-25T10:38:00-05:00,64.1,17.75,736.57,340.6,0.44,311.6,0
2020-02-25T10:39:00-05:00,65.37,17.79,737.2,1149.67,0.56,19.15,0
2020-02-25T10:40:00-05:00,66.85,17.93,736.84,368.68,0.53,323.52,0
2020-02-25T10:41:00-05:00,67.34,18.07,737.41,367.95,0.48,1.75,0
2020-02-25T10:42:00-05:00,66.43,18.2,736.64,867.83,0.12,38.82,0
2020-02-25T10:43:00-05:00,66.74,18.38,737.64,1206.13,0.57,91.77,0
2020-02-25T10:44:00-05:00,62.87,18.51,736.27,359.86,0.59,4.77,0
2020-02-25T10:45:00-05:00,63.37,18.56,737.67,331.48,0.5,238.1,0
2020-02-25T10:46:00-05:00,63.29,18.6,736.8,422.05,0.55,189.02,0
2020-02-25T10:47:00-05:00,63.76,18.68,737.2,396.62,0.63,301.02,0
2020-02-25T10:48:00-05:00,65.26,18.67,737.1,300.02,0.92,89.71,0
2020-02-25T10:49:00-05:00,64.18,18.66,736.13,290.17,0.6,57.19,0
2020-02-25T10:50:00-05:00,63.91,18.58,737.71,298.4,0.4,15.41,0
2020-02-25T10:51:00-05:00,62.63,18.52,737.54,326.78,2.3,71.56,0
2020-02-25T10:52:00-05:00,62.54,18.36,736.1,359.86,1.41,66.53,0
2020-02-25T10:53:00-05:00,62.51,18.22,737.07,369.42,2.12,62.78,0
2020-02-25T10:54:00-05:00,63.25,18.02,737.14,366.77,1.74,36.54,0
2020-02-25T10:55:00-05:00,65.42,17.97,736.7,370,0.91,81.26,0
2020-02-25T10:56:00-05:00,63.53,17.94,737.74,381.03,0.93,77.53,0
2020-02-25T10:57:00-05:00,63.53,17.85,736.47,392.2,1.78,57.31,0
2020-02-25T10:58:00-05:00,63.51,17.82,737.54,400.44,0.6,30.37,0
2020-02-25T10:59:00-05:00,62.2,17.75,736.1,406.61,1.99,67.38,0
2020-02-25T11:00:00-05:00,62.86,17.68,736.23,410.14,0.71,76.5,0
2020-02-25T11:01:00-05:00,64.29,17.73,737.71,420.14,0.6,73.4,0
2020-02-25T11:02:00-05:00,63.07,17.75,736.8,430.14,0.66,67.25,0
2020-02-25T11:03:00-05:00,63.91,17.79,736.07,442.49,1.23,55.2,0
2020-02-25T11:04:00-05:00,63.62,17.8,737.77,456.16,1.23,30.61,0
2020-02-25T11:05:00-05:00,62.91,17.85,736.27,463.66,0.77,29.7,0
2020-02-25T11:06:00-05:00,63.82,17.97,736.27,467.92,0.58,1.2,0
2020-02-25T11:07:00-05:00,63.36,18.09,736.8,470.13,0.6,58.46,0
2020-02-25T11:08:00-05:00,61.66,18.17,736.17,484.39,0.89,56.84,0
2020-02-25T11:09:00-05:00,60.68,18.17,736.6,496.89,0.64,122.2,0
2020-02-25T11:10:00-05:00,60.47,18.21,736.17,516.44,0.99,27.23,0
2020-02-25T11:11:00-05:00,60.31,18.16,737.71,522.61,0.67,32.47,0
2020-02-25T11:12:00-05:00,62.49,18.22,736.84,491.3,0.52,28.13,0
2020-02-25T11:13:00-05:00,59.2,18.32,735.9,463.07,0.47,46.72,0
2020-02-25T11:14:00-05:00,59.53,18.37,735.87,445.72,0.52,54.01,0
2020-02-25T11:15:00-05:00,60.43,18.5,737.27,437.05,0.31,354.43,0
2020-02-25T11:16:00-05:00,59.02,18.58,736.2,545.7,0.57,62.8,0
2020-02-25T11:17:00-05:00,59.31,18.63,736.3,437.19,0.21,189,0
2020-02-25T11:18:00-05:00,59.74,18.74,736.74,435.58,0.66,69.99,0
2020-02-25T11:19:00-05:00,60.69,18.84,735.97,439.55,0.22,335.1,0
2020-02-25T11:20:00-05:00,59.79,18.94,735.97,454.84,1.21,67.47,0
2020-02-25T11:21:00-05:00,57.83,18.88,737.07,487.48,0.71,52.62,0
2020-02-25T11:22:00-05:00,58.91,18.83,736.47,1163.05,0.56,336.52,0
2020-02-25T11:23:00-05:00,59.3,18.9,735.93,991.62,1.83,24.84,0
2020-02-25T11:24:00-05:00,59.44,18.92,737.41,658.17,0.62,31.25,0
2020-02-25T11:25:00-05:00,58.32,19,737.51,973.68,0.96,56.85,0
2020-02-25T11:26:00-05:00,59.72,19.1,737.2,514.53,0.87,24.69,0
2020-02-25T11:27:00-05:00,58.09,19.19,737.64,490.71,1.12,313.87,0
2020-02-25T11:28:00-05:00,55.69,19.25,737.17,415.43,0.57,174.12,0
2020-02-25T11:29:00-05:00,57,19.3,737.2,429.99,0.52,209.94,0
2020-02-25T11:30:00-05:00,56.07,19.24,736.57,647.88,0.22,137.6,0
2020-02-25T11:31:00-05:00,58.52,19.3,736.37,659.2,0.16,70.63,0
2020-02-25T11:32:00-05:00,57.24,19.37,736.03,1187.75,0.61,192.91,0
2020-02-25T11:33:00-05:00,60.9,19.48,737.07,1163.93,0.2,167.11,0
2020-02-25T11:34:00-05:00,61.78,19.68,736.2,1149.08,0.56,272.65,0
2020-02-25T11:35:00-05:00,60.04,19.89,735.77,1162.61,0.75,172.1,0
2020-02-25T11:36:00-05:00,58.09,20.01,736.97,1164.81,0.51,245.81,0
2020-02-25T11:37:00-05:00,62.1,20.16,735.8,1157.9,1.18,292.67,0
2020-02-25T11:38:00-05:00,56.96,20.33,735.63,1155.26,0.42,128.54,0
2020-02-25T11:39:00-05:00,60.1,20.53,735.7,1158.64,0.55,265.77,0
2020-02-25T11:40:00-05:00,55.37,20.65,736.87,1174.22,0.58,322.88,0
2020-02-25T11:41:00-05:00,57.2,20.78,736.54,1177.02,0.35,307.64,0
2020-02-25T11:42:00-05:00,56.82,20.91,735.73,1192.75,0.58,341.9,0
2020-02-25T11:43:00-05:00,52.64,20.99,736.7,1176.13,0.98,346.45,0
2020-02-25T11:44:00-05:00,53.03,20.99,736.87,1160.7,0.97,221.21,0
2020-02-25T11:45:00-05:00,54.82,20.98,736.87,1168.49,2.38,0.8,0
2020-02-25T11:46:00-05:00,53.99,20.99,735.9,1180.25,1.79,22.96,0
2020-02-25T11:47:00-05:00,52.26,20.97,735.7,1200.69,0.97,36.2,0
2020-02-25T11:48:00-05:00,53.82,20.97,736.87,1218.18,1.1,45.82,0
2020-02-25T11:49:00-05:00,54.31,21.04,737,1227.89,0.43,91.13,0
2020-02-25T11:50:00-05:00,53.98,21.17,736.23,548.64,0.62,5.45,0
2020-02-25T11:51:00-05:00,51.65,21.1,736.43,488.21,0.88,101.57,0
2020-02-25T11:52:00-05:00,52.08,21.03,735.77,423.96,0.66,65.42,0
2020-02-25T11:53:00-05:00,52.08,21.03,737,432.93,0.37,317.61,0
2020-02-25T11:54:00-05:00,52.37,21.04,735.46,435.28,0.57,85.79,0
2020-02-25T11:55:00-05:00,54.67,21.04,737.14,434.99,0.53,2.07,0
2020-02-25T11:56:00-05:00,54.83,21.08,735.63,428.81,0.59,190.01,0
2020-02-25T11:57:00-05:00,56.81,21.11,737.07,425.43,0.79,61.39,0
2020-02-25T11:58:00-05:00,53.15,21.1,736.43,429.99,0.08,202.9,0
2020-02-25T11:59:00-05:00,55.55,21.15,736.97,426.76,0.93,8.63,0
2020-02-25T12:00:00-05:00,55.5,21.19,735.63,480.42,1.87,61.01,0
2020-02-25T12:01:00-05:00,54.76,21.14,737,1038.81,0.65,37.32,0
2020-02-25T12:02:00-05:00,51.97,21.15,736.33,1000,0.83,73.72,0
2020-02-25T12:03:00-05:00,55.01,21.1,737.64,695.96,0.98,67.44,0
2020-02-25T12:04:00-05:00,55.18,21.1,735.4,1048.66,0.74,45.92,0
2020-02-25T12:05:00-05:00,53.04,21.11,736.8,659.49,0.98,78.4,0
2020-02-25T12:06:00-05:00,51.65,21.02,736.6,907.08,1.02,26.97,0
2020-02-25T12:07:00-05:00,52.57,20.97,736.17,732.12,0.51,354.49,0
2020-02-25T12:08:00-05:00,51.76,20.99,736.07,713.01,2.07,355.45,0
2020-02-25T12:09:00-05:00,52.44,20.87,737.1,594.07,0.75,126.14,0
2020-02-25T12:10:00-05:00,52.59,20.84,735.43,1014.7,1.58,42.44,0
2020-02-25T12:11:00-05:00,51.45,20.62,736.03,570.99,1.11,42.5,0
2020-02-25T12:12:00-05:00,52.05,20.47,735.46,1022.05,0.07,24.77,0
2020-02-25T12:13:00-05:00,53,20.52,736.84,384.12,0.61,155.45,0
2020-02-25T12:14:00-05:00,53.84,20.61,736.8,336.34,0.61,183.35,0
2020-02-25T12:15:00-05:00,53.06,20.57,737,304.43,0.66,272.64,0
2020-02-25T12:16:00-05:00,54.01,20.48,735.46,309.43,0.7,263.08,0
2020-02-25T12:17:00-05:00,54.85,20.43,737.2,346.19,0.44,207.97,0
2020-02-25T12:18:00-05:00,56.06,20.39,736.7,308.55,0.9,167.46,0
2020-02-25T12:19:00-05:00,54,20.28,735.77,394.56,0.59,132.21,0
2020-02-25T12:20:00-05:00,55.82,20.3,735.46,1074.98,0.66,116.43,0
2020-02-25T12:21:00-05:00,54,20.35,735.26,1043.81,0.11,239.85,0
2020-02-25T12:22:00-05:00,53.94,20.48,736.64,1134.23,0.52,7.83,0
2020-02-25T12:23:00-05:00,59.71,20.71,737.37,347.51,0.58,240.82,0
2020-02-25T12:24:00-05:00,59.68,20.88,736.2,333.1,0.52,223.9,0
2020-02-25T12:25:00-05:00,57.53,21,736.6,310.9,0.58,183.02,0
2020-02-25T12:26:00-05:00,58.72,21.07,737.24,301.79,0.54,192.95,0
2020-02-25T12:27:00-05:00,55.65,21.08,736.4,301.93,0.44,212.86,0
2020-02-25T12:28:00-05:00,57.65,21.09,736.9,324.87,0.39,266.77,0
2020-02-25T12:29:00-05:00,56.86,21.12,735.5,368.53,0.53,249.15,0
2020-02-25T12:30:00-05:00,55.57,21.14,736.03,816.96,0.51,205.03,0
2020-02-25T12:31:00-05:00,53.83,21.16,736.84,1069.98,0.8,218.27,0
2020-02-25T12:32:00-05:00,53.5,21.13,735.9,715.66,0.8,251.74,0
2020-02-25T12:33:00-05:00,50.6,21.09,736.8,1148.93,0.24,227.22,0
2020-02-25T12:34:00-05:00,50.84,21.09,736.77,1097.77,0.22,105.6,0
2020-02-25T12:35:00-05:00,53.22,21.21,736.6,1081.3,0.99,37.26,0
2020-02-25T12:36:00-05:00,52.99,21.31,735.3,1086.45,2.47,32.53,0
2020-02-25T12:37:00-05:00,53.22,21.17,736.67,1099.68,2.1,12.9,0
2020-02-25T12:38:00-05:00,51.61,21.07,736.74,1103.36,2.39,43.21,0
2020-02-25T12:39:00-05:00,51.97,20.93,735.3,1126.29,1.16,10.07,0
2020-02-25T12:40:00-05:00,52.7,20.89,735.13,1118.21,0.83,304.59,0
2020-02-25T12:41:00-05:00,55.09,21.05,736.33,1131.29,2.06,61.74,0
2020-02-25T12:42:00-05:00,53.72,21.08,735.06,1118.06,0.56,322.52,0
2020-02-25T12:43:00-05:00,54.53,21.26,734.93,710.95,0.09,228.79,0
2020-02-25T12:44:00-05:00,51.04,21.41,736.4,1157.02,2.03,36.98,0
2020-02-25T12:45:00-05:00,53.76,21.41,735.36,1128.94,2.01,17.71,0
2020-02-25T12:46:00-05:00,52.23,21.46,735.13,370.3,1.47,5.98,0
2020-02-25T12:47:00-05:00,51.66,21.47,735.1,643.17,0.86,352.79,0
2020-02-25T12:48:00-05:00,53.14,21.52,736.17,993.97,1.44,30.69,0
2020-02-25T12:49:00-05:00,53.72,21.66,734.9,979.27,0.53,266.75,0
2020-02-25T12:50:00-05:00,54.58,21.86,735.4,1085.42,0.93,33.8,0
2020-02-25T12:51:00-05:00,51.94,21.92,736.8,610.39,0.61,24.78,0
2020-02-25T12:52:00-05:00,53.41,21.99,735.23,1055.43,0.35,91.24,0
2020-02-25T12:53:00-05:00,56.36,22.2,736.2,1072.78,0.63,28.79,0
2020-02-25T12:54:00-05:00,50.19,22.3,736.27,1087.18,2.24,40.65,0
2020-02-25T12:55:00-05:00,48.59,22.03,734.86,314.14,0.6,357.41,0
2020-02-25T12:56:00-05:00,51.07,21.99,735.03,357.07,1.74,354.47,0
2020-02-25T12:57:00-05:00,50.24,21.93,736.3,443.52,0.64,42.49,0
2020-02-25T12:58:00-05:00,49.38,22.01,734.86,1168.05,0.26,81.78,0
2020-02-25T12:59:00-05:00,50.03,22.06,735.8,1150.26,0.2,103.19,0
2020-02-25T13:00:00-05:00,49.83,22.24,734.83,851.51,0.73,163.19,0
2020-02-25T13:01:00-05:00,50.18,22.36,735.5,332.22,1.56,203.9,0
2020-02-25T13:02:00-05:00,52.96,22.3,736.3,264.74,0.64,231.86,0
2020-02-25T13:03:00-05:00,52.64,22.26,734.53,243.71,0.37,169.48,0
2020-02-25T13:04:00-05:00,56.24,22.2,735.93,209.75,0.71,220.83,0
2020-02-25T13:05:00-05:00,56.3,22.09,735.53,185.05,0.47,246.09,0
2020-02-25T13:06:00-05:00,56.18,22,735.9,193.28,0.96,195.89,0
2020-02-25T13:07:00-05:00,57.6,21.86,735.4,167.55,0.61,239.21,0
2020-02-25T13:08:00-05:00,56.62,21.66,735.97,147.12,0.53,288.61,0
2020-02-25T13:09:00-05:00,58.21,21.46,735.46,122.86,0.67,208.28,0
2020-02-25T13:10:00-05:00,60.62,21.26,734.79,105.95,0.59,202.93,0
2020-02-25T13:11:00-05:00,61.83,21.12,734.53,94.92,0.75,210.91,0
2020-02-25T13:12:00-05:00,62.54,20.95,736.23,89.48,0.71,183,0
2020-02-25T13:13:00-05:00,59.8,20.79,736.23,86.84,0.44,214,0
2020-02-25T13:14:00-05:00,62.83,20.67,735.26,82.87,0.28,206,0
2020-02-25T13:15:00-05:00,63.13,20.59,736.07,79.63,0.32,213.94,0
2020-02-25T13:16:00-05:00,61.84,20.47,734.33,79.78,0.6,200.94,0
2020-02-25T13:17:00-05:00,65.2,20.37,734.73,81.4,0.55,228.82,0
2020-02-25T13:18:00-05:00,64.43,20.2,734.66,82.87,0.35,230.88,0
2020-02-25T13:19:00-05:00,63.29,20.12,734.69,83.9,0.47,274.74,0
2020-02-25T13:20:00-05:00,63.39,20.04,735.73,88.31,0.26,310.94,0
2020-02-25T13:21:00-05:00,64.48,20.03,734.76,92.42,0.41,163.45,0
2020-02-25T13:22:00-05:00,65.49,19.93,736.07,90.81,0.62,190.37,0
2020-02-25T13:23:00-05:00,66.25,19.74,734.09,86.4,1.09,183.99,0
2020-02-25T13:24:00-05:00,68.15,19.58,734.66,83.01,0.58,208.33,0
2020-02-25T13:25:00-05:00,66.22,19.46,734.69,80.22,0.65,168.09,0
2020-02-25T13:26:00-05:00,67.16,19.34,734.43,72.72,0.53,184.35,0
2020-02-25T13:27:00-05:00,69.97,19.24,736.4,66.84,0.63,233.83,0
2020-02-25T13:28:00-05:00,66.8,19.12,734.59,66.99,0.89,197,0
2020-02-25T13:29:00-05:00,68.65,18.98,735.2,66.69,0.75,206.01,0
2020-02-25T13:30:00-05:00,67.29,18.84,735.83,65.67,0.57,179.13,0
2020-02-25T13:31:00-05:00,68.06,18.8,735.93,66.11,0.56,197.02,0
2020-02-25T13:32:00-05:00,67.96,18.71,736.3,62.14,0.7,221.93,0
2020-02-25T13:33:00-05:00,67.82,18.65,734.86,55.52,0.79,169.04,0
2020-02-25T13:34:00-05:00,69.62,18.61,734.66,53.17,0.54,198.01,0
2020-02-25T13:35:00-05:00,68.49,18.54,734.56,51.4,0.78,170.09,0
2020-02-25T13:36:00-05:00,70.64,18.49,734.09,54.49,0.66,191.99,0
2020-02-25T13:37:00-05:00,72.64,18.43,735.9,54.49,0.76,196.29,0
2020-02-25T13:38:00-05:00,68.63,18.34,735.13,54.79,2.26,229.79,0
2020-02-25T13:39:00-05:00,68.31,18.29,736.07,59.05,1.07,211.29,0
2020-02-25T13:40:00-05:00,70.46,18.28,735.2,60.08,0.63,270.69,0
2020-02-25T13:41:00-05:00,71.16,18.24,734.23,59.64,0.7,218.26,0
2020-02-25T13:42:00-05:00,71.21,18.19,735.6,55.37,0.46,275.7,0
2020-02-25T13:43:00-05:00,71.75,18.15,734.19,47.43,1.57,189.41,0
2020-02-25T13:44:00-05:00,70.14,18.09,735.23,42.73,0.97,207.96,0
2020-02-25T13:45:00-05:00,70.83,18.04,735.6,45.82,0.58,209.19,0
2020-02-25T13:46:00-05:00,71.48,18.01,734.36,48.02,0.56,154.22,0
2020-02-25T13:47:00-05:00,71.78,17.95,735.8,51.11,0.69,317.61,0
2020-02-25T13:48:00-05:00,71.93,17.91,734.46,55.52,1.1,189.03,0
2020-02-25T13:49:00-05:00,70.66,17.83,735.63,59.93,0.86,269.7,0
2020-02-25T13:50:00-05:00,72.72,17.8,735.9,60.81,0.68,198.97,0
2020-02-25T13:51:00-05:00,74.07,17.75,733.92,61.55,0.6,170.08,0
2020-02-25T13:52:00-05:00,71.79,17.69,735.63,59.64,0.81,166.11,0
2020-02-25T13:53:00-05:00,73.35,17.64,735.63,49.79,0.57,265.78,0
2020-02-25T13:54:00-05:00,74.29,17.64,735.03,31.56,0.57,160.42,0
2020-02-25T13:55:00-05:00,75.33,17.61,734.36,40.67,0.6,234.09,0
2020-02-25T13:56:00-05:00,75.12,17.55,735.6,32.88,0.56,222.27,0
2020-02-25T13:57:00-05:00,75.6,17.49,736.2,27.59,0.75,210.94,0
2020-02-25T13:58:00-05:00,76.01,17.34,734.53,23.47,0.65,201.31,0
2020-02-25T13:59:00-05:00,77.55,17.24,735.2,22.88,0.57,181.06,0.1
2020-02-25T14:00:00-05:00,80.08,17.14,736.13,20.97,1.22,132.59,0.4
2020-02-25T14:01:00-05:00,81.62,16.96,734.33,15.97,1.06,81.44,0.5
2020-02-25T14:02:00-05:00,82.19,16.73,734.49,14.35,2.3,22.2,0.3
2020-02-25T14:03:00-05:00,83.45,16.54,735.6,11.27,0.66,193.96,0.4
2020-02-25T14:04:00-05:00,83.85,16.34,735.03,11.86,0.61,202.18,0.3
2020-02-25T14:05:00-05:00,83.62,16.14,734.23,10.24,0.86,116.88,0.3
2020-02-25T14:06:00-05:00,83.93,15.99,735.83,7.59,0.66,165.16,0.2
2020-02-25T14:07:00-05:00,83.26,15.87,735.36,9.8,1.19,126.2,0.2
2020-02-25T14:08:00-05:00,85.89,15.74,734.79,8.91,2.44,65.34,0.2
2020-02-25T14:09:00-05:00,84.08,15.55,735.26,11.27,1.89,127.15,0.1
2020-02-25T14:10:00-05:00,84.5,15.38,734.46,8.77,2.42,23.76,0.1
2020-02-25T14:11:00-05:00,85.12,15.22,734.09,9.5,1.03,51.17,0.1
2020-02-25T14:12:00-05:00,86.54,15.11,734.46,8.33,0.63,142.21,0
2020-02-25T14:13:00-05:00,86.28,14.97,734.33,10.53,2.46,52.88,0
2020-02-25T14:14:00-05:00,86.85,14.89,735.67,9.8,0.61,347.46,0.1
2020-02-25T14:15:00-05:00,86.66,14.8,734.29,8.91,0.83,14.7,0
2020-02-25T14:16:00-05:00,87.42,14.75,734.33,12,1.24,47.39,0
2020-02-25T14:17:00-05:00,87.72,14.69,735.67,11.71,2.44,13.34,0.1
2020-02-25T14:18:00-05:00,87.47,14.63,735.87,10.09,0.93,0.72,0
2020-02-25T14:19:00-05:00,88.6,14.65,733.96,9.5,1.04,145.37,0.7
2020-02-25T14:20:00-05:00,88.94,14.58,735.97,9.36,0.61,100.69,0.7
2020-02-25T14:21:00-05:00,88.72,14.49,735.83,9.06,3.2,93.85,0.9
2020-02-25T14:22:00-05:00,87.27,14.34,735.4,9.36,3,55.84,0.8
2020-02-25T14:23:00-05:00,86.6,14.32,735.26,10.24,0.28,149.54,0.6
2020-02-25T14:24:00-05:00,87.36,14.24,734.02,9.65,1.16,60.91,0.8
2020-02-25T14:25:00-05:00,88.61,14.1,734.69,11.86,2.74,112.4,1.5
2020-02-25T14:26:00-05:00,89.88,13.96,734.06,9.36,4.57,59.37,0.9
2020-02-25T14:27:00-05:00,90.79,13.88,733.96,10.24,2.78,57.52,0.6
2020-02-25T14:28:00-05:00,91.52,13.86,735.4,12.15,3.1,123.78,0.5
2020-02-25T14:29:00-05:00,91.58,13.78,735.26,10.97,1.65,90.59,0.6
2020-02-25T14:30:00-05:00,91.99,13.74,733.92,14.06,2.53,86.19,0.1
2020-02-25T14:31:00-05:00,92.34,13.72,733.86,15.53,2.3,46.48,0.1
2020-02-25T14:32:00-05:00,92.51,13.68,735.36,20.24,1.57,43.99,0.1
2020-02-25T14:33:00-05:00,93.05,13.67,733.72,17.29,3.45,50.2,0
2020-02-25T14:34:00-05:00,93.41,13.69,735,17.29,3.83,46.83,0.1
2020-02-25T14:35:00-05:00,93.13,13.69,734.29,19.06,4.46,63.39,0
2020-02-25T14:36:00-05:00,93.11,13.7,735.16,19.65,3.49,66.63,0.1
2020-02-25T14:37:00-05:00,92.14,13.73,735.63,15.97,2.61,44.85,0
2020-02-25T14:38:00-05:00,91.5,13.78,735.36,18.47,1.56,78.11,0
2020-02-25T14:39:00-05:00,91.54,13.83,733.96,19.79,2.66,30.41,0
2020-02-25T14:40:00-05:00,91.32,13.88,735.6,24.79,1.7,30.59,0.1
2020-02-25T14:41:00-05:00,91.5,13.88,734.13,26.85,0.62,59.96,0
2020-02-25T14:42:00-05:00,92.34,13.88,734.66,28.17,0.56,187.33,0
2020-02-25T14:43:00-05:00,92.51,13.86,735.73,30.67,0.73,63.9,0
2020-02-25T14:44:00-05:00,93.03,13.87,735.13,34.2,1.09,76.37,0.1
2020-02-25T14:45:00-05:00,92.88,13.88,734.06,36.85,2.23,52.7,0.2
2020-02-25T14:46:00-05:00,93.39,13.89,735.7,35.97,0.96,238.88,0
2020-02-25T14:47:00-05:00,93.03,13.88,734.39,32.14,0.35,251.79,0.1
2020-02-25T14:48:00-05:00,93.59,13.86,734.93,31.85,0.56,177.06,0.2
2020-02-25T14:49:00-05:00,93.34,13.84,735.36,31.41,0.64,109.17,0.1
2020-02-25T14:50:00-05:00,93.83,13.83,734.93,27.44,1.52,181.09,0.2
2020-02-25T14:51:00-05:00,94.05,13.81,733.99,22,1.05,146.27,0.1
2020-02-25T14:52:00-05:00,94.26,13.8,735.77,24.2,0.59,150.2,0.1
2020-02-25T14:53:00-05:00,94.32,13.8,734.63,27.59,0.82,54.89,0.1
2020-02-25T14:54:00-05:00,94.82,13.81,735.53,28.91,0.52,96.6,0.1
2020-02-25T14:55:00-05:00,94.78,13.83,735.26,31.85,1.11,135.52,0.1
2020-02-25T14:56:00-05:00,94.79,13.81,735.03,36.41,0.28,248.79,0.1
2020-02-25T14:57:00-05:00,95.05,13.8,735.2,42.58,0.63,193.33,0
2020-02-25T14:58:00-05:00,94.87,13.79,734.23,51.11,0.66,132.63,0
2020-02-25T14:59:00-05:00,95.16,13.81,735.3,58.9,0.64,234.24,0.1
2020-02-25T15:00:00-05:00,95.25,13.8,735.5,69.93,0.75,279.66,0
2020-02-25T15:01:00-05:00,95.59,13.84,735.53,79.93,0.58,92.09,0
2020-02-25T15:02:00-05:00,95.57,13.85,735.6,84.19,0.58,208.24,0.1
2020-02-25T15:03:00-05:00,95.6,13.87,734.26,86.4,0.58,138.32,0
2020-02-25T15:04:00-05:00,95.65,13.88,735.93,88.75,0.37,165.15,0
2020-02-25T15:05:00-05:00,95.73,13.9,734.96,90.95,0.6,183.06,0
2020-02-25T15:06:00-05:00,95.83,13.94,734.02,85.95,1.4,36.25,0
2020-02-25T15:07:00-05:00,95.82,13.96,735.83,78.02,1.17,45.8,0.1
2020-02-25T15:08:00-05:00,95.63,13.94,735.83,72.43,0.6,87.2,0
2020-02-25T15:09:00-05:00,95.7,13.97,735.6,65.96,0.96,65.11,0
2020-02-25T15:10:00-05:00,95.75,13.98,734.36,61.25,0.6,111.65,0
2020-02-25T15:11:00-05:00,95.38,14.01,735.87,62.58,1.82,48.88,0
2020-02-25T15:12:00-05:00,95.42,14.03,735.3,66.84,0.96,46.19,0
2020-02-25T15:13:00-05:00,95,14.02,735,70.66,0.29,330.56,0
2020-02-25T15:14:00-05:00,94.82,14.03,736.3,78.75,0.72,60.24,0
2020-02-25T15:15:00-05:00,94.58,14.01,735.67,83.75,1.59,52.13,0
2020-02-25T15:16:00-05:00,94.37,14.02,734.29,93.75,0.64,291.02,0.1
2020-02-25T15:17:00-05:00,94.24,14.05,736,106.83,0.18,17.24,0
2020-02-25T15:18:00-05:00,94.16,14.06,735.97,119.48,0.8,48.67,0
2020-02-25T15:19:00-05:00,93.46,14.03,735,123.59,0.72,36.75,0
2020-02-25T15:20:00-05:00,93.91,14.08,734.49,119.92,0.15,71.93,0
2020-02-25T15:21:00-05:00,94.05,14.1,736,116.98,0.63,313.55,0
2020-02-25T15:22:00-05:00,93.98,14.13,734.59,115.36,0.26,186.27,0
2020-02-25T15:23:00-05:00,94.2,14.17,735.9,112.71,1.48,49.95,0
2020-02-25T15:24:00-05:00,94.33,14.19,734.83,115.21,0.44,125.81,0
2020-02-25T15:25:00-05:00,94.48,14.24,735.13,116.39,0.83,10.06,0
2020-02-25T15:26:00-05:00,94.02,14.21,736.17,111.1,0.9,56.03,0
2020-02-25T15:27:00-05:00,93.81,14.18,735.06,109.18,0.64,59.48,0
2020-02-25T15:28:00-05:00,94.15,14.2,734.46,110.8,0.7,75.2,0
2020-02-25T15:29:00-05:00,93.94,14.21,734.66,109.33,0.22,326.58,0
2020-02-25T15:30:00-05:00,94.41,14.26,735.43,117.12,0.53,188.08,0
2020-02-25T15:31:00-05:00,93.95,14.26,734.23,135.35,0.68,181.09,0
2020-02-25T15:32:00-05:00,94.3,14.26,734.79,165.05,0.46,89.98,0
2020-02-25T15:33:00-05:00,94.69,14.32,736.07,210.04,0.54,65.82,0.1
2020-02-25T15:34:00-05:00,94.94,14.39,735.3,196.81,0.21,124.5,0
2020-02-25T15:35:00-05:00,95.18,14.43,735.77,190.49,0.29,57.44,0
2020-02-25T15:36:00-05:00,95.24,14.5,735.6,172.55,0.26,84.29,0
2020-02-25T15:37:00-05:00,95.28,14.55,736.54,150.06,0.79,107.88,0
2020-02-25T15:38:00-05:00,94.68,14.55,735.03,135.35,0.77,57.8,0
2020-02-25T15:39:00-05:00,94.87,14.57,735.36,126.83,0.39,164.52,0
2020-02-25T15:40:00-05:00,94.92,14.63,736.17,122.42,0.5,125.19,0
2020-02-25T15:41:00-05:00,94.86,14.65,736.84,120.95,0.73,98.52,0
2020-02-25T15:42:00-05:00,94.7,14.67,734.63,120.51,0.5,62.63,0
2020-02-25T15:43:00-05:00,94.53,14.67,734.86,114.92,0.73,54.96,0
2020-02-25T15:44:00-05:00,93.84,14.61,735.26,100.07,0.86,69.22,0
2020-02-25T15:45:00-05:00,93.97,14.65,736.6,79.78,0.45,98.09,0
2020-02-25T15:46:00-05:00,94.56,14.71,736.37,59.93,0.57,172.14,0
2020-02-25T15:47:00-05:00,94.52,14.72,736.27,51.4,0.29,182.05,0
2020-02-25T15:48:00-05:00,94.41,14.75,735.33,44.79,0.26,134.42,0
2020-02-25T15:49:00-05:00,94.54,14.75,734.86,46.41,0.83,68.43,0
2020-02-25T15:50:00-05:00,93.73,14.69,735.46,46.55,0.29,85.91,0
2020-02-25T15:51:00-05:00,93.85,14.69,735.16,52.87,0.59,85.49,0
2020-02-25T15:52:00-05:00,93.25,14.64,735.53,58.61,0.82,102.58,0
2020-02-25T15:53:00-05:00,93.62,14.63,736.1,60.67,0.8,97.07,0
2020-02-25T15:54:00-05:00,93.27,14.61,734.63,56.11,0.55,80.77,0
2020-02-25T15:55:00-05:00,93.49,14.62,736.17,47.14,0.6,79.25,0
2020-02-25T15:56:00-05:00,93,14.57,735.87,36.11,0.7,103.81,0
2020-02-25T15:57:00-05:00,92.8,14.55,736.1,26.56,0.57,45.8,0
2020-02-25T15:58:00-05:00,92.75,14.52,735.87,18.18,0.66,107.19,0
2020-02-25T15:59:00-05:00,93.24,14.56,735.26,15.09,0.35,120.68,0
2020-02-25T16:00:00-05:00,93.29,14.57,735.8,9.94,0.27,125.1,0
2020-02-25T16:01:00-05:00,93.15,14.54,734.39,8.33,1.42,74.38,0
2020-02-25T16:02:00-05:00,92.59,14.49,734.23,4.8,0.41,51.68,0
2020-02-25T16:03:00-05:00,92.74,14.47,734.33,2.59,0.58,75.4,0
2020-02-25T16:04:00-05:00,92.66,14.43,734.39,3.77,0.52,291.69,0
2020-02-25T16:05:00-05:00,92.62,14.44,734.16,1.86,0.23,2.74,0.1
2020-02-25T16:06:00-05:00,92.57,14.43,733.52,2.59,0.63,343.55,0
2020-02-25T16:07:00-05:00,92.58,14.42,734.73,3.47,0.75,18.14,0
2020-02-25T16:08:00-05:00,91.88,14.42,734.69,3.18,0.97,352.48,0
2020-02-25T16:09:00-05:00,91.13,14.41,734.93,3.77,0.63,41.35,0
2020-02-25T16:10:00-05:00,91.77,14.44,734.16,4.94,0.61,49.89,0
2020-02-25T16:11:00-05:00,91.94,14.45,733.56,5.39,1.37,67.35,0
2020-02-25T16:12:00-05:00,92.24,14.44,735.06,4.5,0.91,61.82,0
2020-02-25T16:13:00-05:00,92.23,14.39,733.46,4.94,1.02,78.35,0.1
2020-02-25T16:14:00-05:00,92.22,14.32,733.42,7.3,0.42,24.96,0.1
2020-02-25T16:15:00-05:00,92.6,14.33,733.32,6.86,0.74,130.29,0.1
2020-02-25T16:16:00-05:00,92.76,14.32,734.56,5.83,0.94,58.22,0.2
2020-02-25T16:17:00-05:00,92.5,14.28,734.66,8.47,2.23,62.5,0.3
2020-02-25T16:18:00-05:00,92.23,14.22,733.05,7.15,2.5,71.75,0.3
2020-02-25T16:19:00-05:00,92.09,14.22,733.19,8.62,2.97,56.07,0.2
2020-02-25T16:20:00-05:00,91.76,14.18,733.19,9.94,2.01,61.18,0.3
2020-02-25T16:21:00-05:00,92.33,14.17,735.2,9.06,0.58,90.76,0.1
2020-02-25T16:22:00-05:00,92.52,14.11,733.72,9.65,1.1,162.24,0.1
2020-02-25T16:23:00-05:00,92.83,14.04,734.86,12.15,1.1,71.03,0
2020-02-25T16:24:00-05:00,92.85,14,734.26,13.03,1.88,78.29,0
2020-02-25T16:25:00-05:00,93.15,13.97,735.26,17.74,0.63,59.63,0
2020-02-25T16:26:00-05:00,93.62,13.96,735.16,21.26,3.48,53.29,0
2020-02-25T16:27:00-05:00,93.49,14,734.46,25.38,1.83,52.1,0
2020-02-25T16:28:00-05:00,93.43,14.04,735.13,28.03,1.13,76.39,0
2020-02-25T16:29:00-05:00,93.71,14.08,733.62,33.91,0.83,59.92,0
2020-02-25T16:30:00-05:00,93.56,14.09,735.16,35.08,0.38,49.44,0
2020-02-25T16:31:00-05:00,93.73,14.08,733.62,33.32,0.6,55.24,0
2020-02-25T16:32:00-05:00,94.06,14.1,734.53,30.23,2.45,48.33,0.1
2020-02-25T16:33:00-05:00,93.99,14.08,735.06,23.47,0.95,68.25,0
2020-02-25T16:34:00-05:00,93.94,14.06,733.89,16.71,1.1,27.51,0
2020-02-25T16:35:00-05:00,93.53,14.02,735.2,13.62,0.54,34.06,0
2020-02-25T16:36:00-05:00,93.64,14.02,735.06,10.83,0.63,169.45,0
2020-02-25T16:37:00-05:00,93.56,14.04,733.79,8.18,1.22,61.91,0
2020-02-25T16:38:00-05:00,93.82,14.03,733.56,7.44,0.85,106.12,0.1
2020-02-25T16:39:00-05:00,93.83,14,735.03,5.83,0.57,109.57,0
2020-02-25T16:40:00-05:00,94.06,14.01,734.53,3.33,0.64,19.88,0
2020-02-25T16:41:00-05:00,94.17,14,734.83,2.15,0.97,332.5,0
2020-02-25T16:42:00-05:00,94,13.96,735.43,3.03,1.34,40.21,0.5
2020-02-25T16:43:00-05:00,93.97,13.9,734.19,3.03,1.84,89.59,1.3
2020-02-25T16:44:00-05:00,93.91,13.84,734.19,2.45,5.43,53.39,1.6
2020-02-25T16:45:00-05:00,92.42,13.63,735.13,-0.05,5.18,64.1,1.7
2020-02-25T16:46:00-05:00,92.08,13.36,734.26,3.33,5.09,58.28,1.7
2020-02-25T16:47:00-05:00,91.99,13.1,733.82,2.89,5.13,84.37,1.6
2020-02-25T16:48:00-05:00,92.58,12.91,734.36,2.59,1.41,70.97,1.5
2020-02-25T16:49:00-05:00,92.99,12.73,735.06,4.65,0.09,1.11,1.3
2020-02-25T16:50:00-05:00,92.1,12.47,734.29,1.12,2.46,167.13,1.4
2020-02-25T16:51:00-05:00,92.3,12.2,733.62,1.56,0.69,169.44,1.5
2020-02-25T16:52:00-05:00,93.73,12.04,733.15,5.68,2.83,248.12,1.1
2020-02-25T16:53:00-05:00,95.13,12.05,732.38,6.56,0.18,330.86,0.9
2020-02-25T16:54:00-05:00,95.51,12.02,733.22,6.12,1.1,193.97,0.7
2020-02-25T16:55:00-05:00,95.2,11.92,733.32,7.15,0.59,216.28,0.3
2020-02-25T16:56:00-05:00,95.28,11.84,733.19,5.09,0.49,138.39,0.3
2020-02-25T16:57:00-05:00,95.21,11.75,733.02,5.97,0.63,103.4,0.5
2020-02-25T16:58:00-05:00,95.29,11.66,731.51,5.83,0.24,259.74,0.5
2020-02-25T16:59:00-05:00,95.45,11.59,732.62,7.89,0.99,88.67,0.3
2020-02-25T17:00:00-05:00,95.62,11.53,732.65,6.71,1.07,78.43,0.3
2020-02-25T17:01:00-05:00,96.07,11.53,731.25,6.86,2.11,35.02,0.2
2020-02-25T17:02:00-05:00,96.05,11.45,730.78,8.77,0.54,25.75,0.1
2020-02-25T17:03:00-05:00,96.29,11.44,731.95,6.86,0.25,87.74,0.2
2020-02-25T17:04:00-05:00,96.24,11.4,730.64,8.62,2.4,63.59,0.1
2020-02-25T17:05:00-05:00,96.57,11.38,732.28,7.44,1.8,79.89,0.1
2020-02-25T17:06:00-05:00,96.7,11.4,731.25,7.59,0.99,54.79,0
2020-02-25T17:07:00-05:00,96.88,11.39,731.95,9.06,1.48,54.77,0.1
2020-02-25T17:08:00-05:00,97.07,11.42,730.61,9.36,0.58,62.31,0
2020-02-25T17:09:00-05:00,97.06,11.39,730.78,8.77,0.94,46.48,0.1
2020-02-25T17:10:00-05:00,96.91,11.38,731.55,9.8,1.06,67.76,0.1
2020-02-25T17:11:00-05:00,97.1,11.41,730.48,11.12,0.63,70.63,0.1
2020-02-25T17:12:00-05:00,97.11,11.4,731.25,9.8,0.63,70.77,0
2020-02-25T17:13:00-05:00,96.99,11.42,732.18,11.27,0.72,66.4,0.1
2020-02-25T17:14:00-05:00,97,11.41,730.24,12.44,0.61,116.67,0
2020-02-25T17:15:00-05:00,97.08,11.4,730.11,10.53,0.55,79.61,0.1
2020-02-25T17:16:00-05:00,97.04,11.37,731.85,11.27,1.14,108.3,0
2020-02-25T17:17:00-05:00,96.75,11.33,731.01,13.91,1.21,92.07,0.1
2020-02-25T17:18:00-05:00,96.83,11.34,730.14,12.59,0.15,111.07,0
2020-02-25T17:19:00-05:00,96.86,11.32,730.58,12.74,0.74,80.98,0
2020-02-25T17:20:00-05:00,96.76,11.3,731.41,11.27,0.95,81.22,0.1
2020-02-25T17:21:00-05:00,96.83,11.28,731.11,11.12,0.79,96.03,0
2020-02-25T17:22:00-05:00,96.99,11.3,731.18,11.27,1.26,95,0.1
2020-02-25T17:23:00-05:00,97.3,11.34,731.68,11.27,0.59,22.34,0
2020-02-25T17:24:00-05:00,97.58,11.4,730.74,12.15,1.02,78.73,0
2020-02-25T17:25:00-05:00,97.77,11.45,730.91,10.53,0.72,82.19,0.1
2020-02-25T17:26:00-05:00,97.81,11.5,730.51,9.94,1.22,86.55,0
2020-02-25T17:27:00-05:00,97.69,11.5,732.25,11.86,0.79,87.67,0
2020-02-25T17:28:00-05:00,97.79,11.54,730.64,11.56,0.75,71.57,0
2020-02-25T17:29:00-05:00,97.7,11.58,732.35,10.68,0.64,96.68,0
2020-02-25T17:30:00-05:00,97.75,11.62,731.08,10.38,0.53,136.17,0.1
2020-02-25T17:31:00-05:00,98.04,11.67,732.42,10.97,0.65,116.52,0
2020-02-25T17:32:00-05:00,98.01,11.74,732.62,9.8,0.62,140.24,0
2020-02-25T17:33:00-05:00,98.2,11.78,732.42,10.09,0.31,94.07,0
2020-02-25T17:34:00-05:00,98.16,11.85,731.15,9.94,0.63,80.15,0
2020-02-25T17:35:00-05:00,98.45,11.95,731.25,10.24,0.84,105.68,0
2020-02-25T17:36:00-05:00,98.36,12.01,733.25,8.03,0.68,52.88,0
2020-02-25T17:37:00-05:00,98.4,12.07,732.02,7.44,0.71,68.62,0.1
2020-02-25T17:38:00-05:00,98.47,12.17,731.78,8.18,1.14,73,0
2020-02-25T17:39:00-05:00,98.49,12.25,733.82,7.15,0.68,96.16,0
2020-02-25T17:40:00-05:00,98.53,12.29,733.72,6.27,0.59,59.28,0
2020-02-25T17:41:00-05:00,98.41,12.34,734.02,8.18,0.94,47.55,0
2020-02-25T17:42:00-05:00,98.51,12.39,733.99,7.3,1.42,47.46,0
2020-02-25T17:43:00-05:00,98.24,12.39,733.42,7.15,0.85,83.82,0
2020-02-25T17:44:00-05:00,98.15,12.39,732.79,5.53,1.14,55.73,0
2020-02-25T17:45:00-05:00,98.13,12.39,734.53,6.71,0.61,18.45,0
2020-02-25T17:46:00-05:00,98.11,12.4,733.09,5.09,0.13,158.53,0
2020-02-25T17:47:00-05:00,98.2,12.46,734.39,4.8,0.29,43.69,0
2020-02-25T17:48:00-05:00,98,12.45,734.36,3.92,0.68,55.23,0
2020-02-25T17:49:00-05:00,98.01,12.47,733.49,4.06,0.59,56.66,0
2020-02-25T17:50:00-05:00,97.88,12.47,733.49,3.47,0.76,47.67,0
2020-02-25T17:51:00-05:00,97.86,12.48,733.46,4.65,0.58,64.04,0
2020-02-25T17:52:00-05:00,97.98,12.48,733.22,4.36,0.75,69.72,0
2020-02-25T17:53:00-05:00,97.84,12.47,735.1,3.62,0.73,63.92,0
2020-02-25T17:54:00-05:00,97.8,12.49,734.93,4.5,0.79,66.85,0
2020-02-25T17:55:00-05:00,97.8,12.49,733.92,3.03,0.49,82.56,0.1
2020-02-25T17:56:00-05:00,97.92,12.49,734.86,4.5,0.56,88.65,0
2020-02-25T17:57:00-05:00,97.81,12.5,733.52,4.21,0.55,90.03,0
2020-02-25T17:58:00-05:00,97.82,12.49,733.79,3.92,0.25,138.74,0
2020-02-25T17:59:00-05:00,97.87,12.49,734.73,2.59,0.72,106.48,0
2020-02-25T18:00:00-05:00,97.94,12.49,735,2.59,0.53,119.92,0
2020-02-25T18:01:00-05:00,98.02,12.52,734.86,0.98,0.92,135.23,0
2020-02-25T18:02:00-05:00,98.04,12.55,734.86,1.71,0.66,169.46,0.1
2020-02-25T18:03:00-05:00,97.89,12.54,735.26,0.24,0.79,142.21,0
2020-02-25T18:04:00-05:00,97.98,12.56,735.2,-0.05,0.62,142.21,0
2020-02-25T18:05:00-05:00,98.13,12.59,735.56,0.98,0.6,147.48,0
2020-02-25T18:06:00-05:00,98.09,12.61,734.79,1.86,0.78,90.93,0
2020-02-25T18:07:00-05:00,97.99,12.62,735.2,1.86,0.62,108.51,0
2020-02-25T18:08:00-05:00,97.98,12.64,734.23,2,0.75,107.41,0
2020-02-25T18:09:00-05:00,98.17,12.65,734.76,-0.35,0.65,127.54,0
2020-02-25T18:10:00-05:00,98.1,12.67,735.46,1.71,0.65,146.25,0
2020-02-25T18:11:00-05:00,98.09,12.67,735.23,-0.64,0.65,79.8,0
2020-02-25T18:12:00-05:00,97.99,12.68,735.33,-0.79,0.69,101.98,0
2020-02-25T18:13:00-05:00,98.02,12.67,735.13,-0.2,0.82,85.38,0
2020-02-25T18:14:00-05:00,97.87,12.67,735.2,0.68,0.64,84.65,0
2020-02-25T18:15:00-05:00,97.92,12.67,735,0.24,0.6,83.09,0
2020-02-25T18:16:00-05:00,97.94,12.69,735.9,-0.49,0.35,48.46,0.1
2020-02-25T18:17:00-05:00,97.81,12.67,734.9,-0.49,0.52,114.24,0
2020-02-25T18:18:00-05:00,97.99,12.69,734.33,0.24,0.48,123.42,0
2020-02-25T18:19:00-05:00,97.83,12.69,735.2,-1.23,0.64,132.76,0
2020-02-25T18:20:00-05:00,97.98,12.69,734.36,-0.2,0.27,141.24,0
2020-02-25T18:21:00-05:00,97.99,12.7,735.3,-0.94,0.61,116.63,0
2020-02-25T18:22:00-05:00,98.02,12.7,735.53,-0.05,0.56,110.44,0
2020-02-25T18:23:00-05:00,97.84,12.71,734.53,-1.08,0.61,108.18,0
2020-02-25T18:24:00-05:00,97.82,12.71,735.93,1.56,0.56,60.91,0
2020-02-25T18:25:00-05:00,97.87,12.71,734.29,-0.35,0.55,76.53,0
2020-02-25T18:26:00-05:00,97.78,12.72,734.39,0.83,0.6,120.89,0
2020-02-25T18:27:00-05:00,97.88,12.71,734.09,-0.79,0.6,128.42,0
2020-02-25T18:28:00-05:00,97.88,12.71,735.7,0.98,0.56,97.39,0
2020-02-25T18:29:00-05:00,97.84,12.73,734.29,0.24,0.64,83.89,0
2020-02-25T18:30:00-05:00,97.98,12.73,736,0.09,0.98,116.2,0
2020-02-25T18:31:00-05:00,97.88,12.75,734.96,-0.64,0.85,104.66,0
2020-02-25T18:32:00-05:00,98.02,12.77,734.39,0.24,0.98,100.88,0
2020-02-25T18:33:00-05:00,98.07,12.76,734.63,0.39,0.64,110.59,0
2020-02-25T18:34:00-05:00,97.98,12.77,735.97,1.42,0.61,112.49,0
2020-02-25T18:35:00-05:00,98.06,12.76,735.1,1.71,0.5,123.65,0
2020-02-25T18:36:00-05:00,97.9,12.79,734.96,-0.64,0.61,132.39,0
2020-02-25T18:37:00-05:00,97.96,12.79,734.83,0.39,0.77,141.97,0
2020-02-25T18:38:00-05:00,97.84,12.77,736.3,1.42,0.89,144.17,0
2020-02-25T18:39:00-05:00,97.98,12.81,736.37,-1.08,0.59,138.41,0
2020-02-25T18:40:00-05:00,97.92,12.8,736.2,1.42,0.76,141.81,0
2020-02-25T18:41:00-05:00,97.88,12.8,736.07,1.42,0.66,150.18,0
2020-02-25T18:42:00-05:00,98.05,12.82,735.97,-0.49,0.35,144.2,0
2020-02-25T18:43:00-05:00,97.83,12.83,735.43,-0.94,0.33,169.48,0
2020-02-25T18:44:00-05:00,98.02,12.84,734.66,-1.23,0.58,157.17,0
2020-02-25T18:45:00-05:00,97.94,12.84,735.26,-1.08,0.69,150.52,0
2020-02-25T18:46:00-05:00,97.88,12.83,736.2,0.68,0.62,168.09,0
2020-02-25T18:47:00-05:00,97.88,12.81,735.97,0.09,0.96,149.55,0
2020-02-25T18:48:00-05:00,97.84,12.82,735.06,1.12,0.7,139.24,0
2020-02-25T18:49:00-05:00,97.88,12.82,734.86,1.56,0.55,131.58,0
2020-02-25T18:50:00-05:00,97.94,12.81,735.06,0.53,0.36,126.22,0
2020-02-25T18:51:00-05:00,97.94,12.84,735.87,0.98,0.59,104.7,0
2020-02-25T18:52:00-05:00,97.85,12.86,735.46,1.12,0.56,130.67,0
2020-02-25T18:53:00-05:00,97.9,12.86,734.36,-0.2,0.42,124.74,0
2020-02-25T18:54:00-05:00,97.75,12.87,736.47,-1.23,0.55,99.75,0
2020-02-25T18:55:00-05:00,97.92,12.86,735.26,-0.05,0.54,94.28,0
2020-02-25T18:56:00-05:00,97.94,12.87,734.83,0.83,0.49,132.25,0
2020-02-25T18:57:00-05:00,97.76,12.87,735.2,-1.38,0.24,129.29,0
2020-02-25T18:58:00-05:00,97.86,12.88,735.77,1.27,0.23,106.28,0
2020-02-25T18:59:00-05:00,97.88,12.88,735.73,0.24,0.27,75.34,0
2020-02-25T19:00:00-05:00,97.85,12.89,734.9,-0.2,0.58,135.1,0
2020-02-25T19:01:00-05:00,97.7,12.88,734.96,-0.94,0.5,129.28,0
2020-02-25T19:02:00-05:00,97.81,12.88,735.97,0.98,0.58,171.51,0
2020-02-25T19:03:00-05:00,97.73,12.86,736,-0.79,0.68,147.25,0
2020-02-25T19:04:00-05:00,97.54,12.83,734.66,-1.08,0.79,144.54,0
2020-02-25T19:05:00-05:00,97.58,12.79,735.73,-0.05,1.03,153.13,0
2020-02-25T19:06:00-05:00,97.48,12.78,734.39,-0.35,0.98,143.49,0
2020-02-25T19:07:00-05:00,97.55,12.78,735.77,-0.49,0.59,142.52,0
2020-02-25T19:08:00-05:00,97.64,12.78,734.36,-1.23,0.52,84.95,0
2020-02-25T19:09:00-05:00,97.62,12.78,735.73,-1.23,0.57,88.74,0
2020-02-25T19:10:00-05:00,97.59,12.78,734.36,0.83,0.61,119.69,0
2020-02-25T19:11:00-05:00,97.66,12.77,735.03,0.24,0.81,110.32,0
2020-02-25T19:12:00-05:00,97.57,12.75,734.23,-0.2,1.33,108.22,0
2020-02-25T19:13:00-05:00,97.54,12.75,736.03,0.24,0.72,98.3,0
2020-02-25T19:14:00-05:00,97.63,12.76,734.9,-1.97,0.34,126.44,0
2020-02-25T19:15:00-05:00,97.68,12.75,734.06,-0.2,0.29,111.24,0
2020-02-25T19:16:00-05:00,97.69,12.73,736.07,-1.08,0.7,140.27,0
2020-02-25T19:17:00-05:00,97.68,12.75,735.4,-1.23,0.35,104.25,0
2020-02-25T19:18:00-05:00,97.65,12.73,735.77,0.68,0.62,100.44,0
2020-02-25T19:19:00-05:00,97.52,12.73,735.5,-0.94,0.5,169.11,0
2020-02-25T19:20:00-05:00,97.54,12.73,735.36,-1.23,0.38,99.25,0
2020-02-25T19:21:00-05:00,97.62,12.73,735.53,-0.49,0.49,101.41,0
2020-02-25T19:22:00-05:00,97.6,12.73,735.3,-0.35,0.53,102.45,0
2020-02-25T19:23:00-05:00,97.51,12.71,735.4,-0.49,0.56,85.26,0
2020-02-25T19:24:00-05:00,97.69,12.69,735.77,1.12,0.35,146.27,0
2020-02-25T19:25:00-05:00,97.58,12.72,734.06,-1.08,0.71,110.46,0
2020-02-25T19:26:00-05:00,97.54,12.72,735.77,-0.64,0.69,117.2,0
2020-02-25T19:27:00-05:00,97.73,12.71,734.39,0.68,0.58,83.14,0
2020-02-25T19:28:00-05:00,97.64,12.73,735.3,1.12,0.32,101.33,0
2020-02-25T19:29:00-05:00,97.74,12.72,735,-0.79,0.53,132.13,0
2020-02-25T19:30:00-05:00,97.79,12.73,735.46,0.98,0.14,128.28,0
2020-02-25T19:31:00-05:00,97.68,12.73,734.9,2,0.6,142.78,0
2020-02-25T19:32:00-05:00,97.64,12.75,735,0.68,0.61,169.09,0
2020-02-25T19:33:00-05:00,97.56,12.74,734.16,0.98,0.65,136.23,0
2020-02-25T19:34:00-05:00,97.64,12.73,734.49,0.68,0.68,148.24,0
2020-02-25T19:35:00-05:00,97.72,12.75,734.73,0.24,0.58,145.23,0
2020-02-25T19:36:00-05:00,97.7,12.75,736.1,-0.64,0.59,138.25,0
2020-02-25T19:37:00-05:00,97.79,12.76,735.9,1.71,0.37,161.12,0
2020-02-25T19:38:00-05:00,97.65,12.78,735.3,1.86,0.75,98.4,0
2020-02-25T19:39:00-05:00,97.65,12.77,734.43,-1.08,0.78,119.29,0
2020-02-25T19:40:00-05:00,97.66,12.75,735.7,0.98,0.81,98.62,0
2020-02-25T19:41:00-05:00,97.69,12.77,734.53,-1.08,0.46,96.33,0
2020-02-25T19:42:00-05:00,97.56,12.77,734.59,0.98,0.88,112.45,0
2020-02-25T19:43:00-05:00,97.7,12.78,734.49,0.53,0.46,93.75,0
2020-02-25T19:44:00-05:00,97.55,12.79,736.07,-0.64,0.59,113.16,0
2020-02-25T19:45:00-05:00,97.68,12.8,734.43,0.39,0.55,123.14,0
2020-02-25T19:46:00-05:00,97.58,12.8,734.39,-1.82,0.39,98.66,0
2020-02-25T19:47:00-05:00,97.71,12.8,734.19,-0.49,0.48,97.49,0
2020-02-25T19:48:00-05:00,97.52,12.8,735.26,-1.67,0.59,52.5,0
2020-02-25T19:49:00-05:00,97.56,12.8,735.67,-0.79,0.67,69.27,0
2020-02-25T19:50:00-05:00,97.64,12.8,734.26,-1.67,0.61,50.52,0
2020-02-25T19:51:00-05:00,97.72,12.81,733.69,-0.79,0.68,48.43,0
2020-02-25T19:52:00-05:00,97.58,12.81,733.66,-2.26,0.68,64.77,0
2020-02-25T19:53:00-05:00,97.63,12.79,733.82,-1.67,0.56,88.82,0
2020-02-25T19:54:00-05:00,97.53,12.79,733.46,-1.67,0.54,84.89,0
2020-02-25T19:55:00-05:00,97.56,12.76,733.76,-3.14,0.56,96.17,0
2020-02-25T19:56:00-05:00,97.42,12.76,733.69,-1.08,0.33,135.29,0
2020-02-25T19:57:00-05:00,97.24,12.73,733.66,-2.85,0.74,126.23,0
2020-02-25T19:58:00-05:00,97.36,12.71,733.76,-2.26,0.14,102.86,0
2020-02-25T19:59:00-05:00,97.13,12.68,733.29,-3.44,0.83,146.54,0
2020-02-25T20:00:00-05:00,97.12,12.65,733.36,-1.38,0.61,156.19,0
2020-02-25T20:01:00-05:00,97.28,12.65,733.89,-1.08,0.72,140.82,0
2020-02-25T20:02:00-05:00,97.18,12.62,733.12,0.53,0.63,131.14,0
2020-02-25T20:03:00-05:00,97.22,12.62,734.66,-1.67,0.7,127.63,0
2020-02-25T20:04:00-05:00,97.28,12.63,734.63,0.24,0.45,144.21,0
2020-02-25T20:05:00-05:00,97.2,12.61,733.62,-0.94,0.67,100.07,0
2020-02-25T20:06:00-05:00,97.44,12.63,733.52,0.53,0.83,125.21,0
2020-02-25T20:07:00-05:00,97.28,12.63,735.16,1.56,0.64,119.63,0
2020-02-25T20:08:00-05:00,97.3,12.65,733.69,-0.49,0.69,107.22,0
2020-02-25T20:09:00-05:00,97.52,12.63,733.79,-0.05,0.6,130.27,0
2020-02-25T20:10:00-05:00,97.34,12.65,735.77,2.15,0.69,70.47,0
2020-02-25T20:11:00-05:00,97.47,12.65,734.02,0.09,1.08,112.46,0
2020-02-25T20:12:00-05:00,97.36,12.69,735.5,1.42,0.55,137.31,0
2020-02-25T20:13:00-05:00,97.32,12.7,733.89,1.42,0.56,123.11,0
2020-02-25T20:14:00-05:00,97.42,12.7,733.89,0.24,0.24,150.48,0
2020-02-25T20:15:00-05:00,97.39,12.71,735.3,-1.08,0.61,134.41,0
2020-02-25T20:16:00-05:00,97.15,12.7,735.4,0.53,0.41,157.21,0
2020-02-25T20:17:00-05:00,97.24,12.72,734.36,-1.23,0.58,106.19,0
2020-02-25T20:18:00-05:00,97.38,12.73,735.4,0.39,0.58,115,0
2020-02-25T20:19:00-05:00,97.34,12.73,734.49,-1.82,0.55,125.22,0
2020-02-25T20:20:00-05:00,97.08,12.72,734.9,1.12,0.71,134.58,0
2020-02-25T20:21:00-05:00,97.16,12.73,734.26,-0.05,0.8,130.43,0
2020-02-25T20:22:00-05:00,97.1,12.74,735.7,-0.79,0.59,124.56,0
2020-02-25T20:23:00-05:00,97.05,12.71,734.13,-0.05,0.75,141.24,0
2020-02-25T20:24:00-05:00,97.08,12.71,735.26,-1.08,0.88,140.6,0
2020-02-25T20:25:00-05:00,96.86,12.73,734.13,-1.08,0.79,141.2,0
2020-02-25T20:26:00-05:00,96.83,12.71,734.16,-0.79,0.83,135.56,0
2020-02-25T20:27:00-05:00,96.77,12.71,735.53,0.39,0.59,133.24,0
2020-02-25T20:28:00-05:00,96.85,12.73,734.06,-1.38,0.58,102.98,0
2020-02-25T20:29:00-05:00,96.71,12.72,735.5,-1.97,0.41,134.19,0
2020-02-25T20:30:00-05:00,96.81,12.71,734.56,-0.35,0.56,58.17,0
2020-02-25T20:31:00-05:00,96.75,12.72,733.66,0.98,0.49,115.13,0
2020-02-25T20:32:00-05:00,96.87,12.71,734.39,-0.79,0.6,138.27,0
2020-02-25T20:33:00-05:00,96.74,12.72,735.33,0.24,0.54,147.25,0
2020-02-25T20:34:00-05:00,96.86,12.71,735.06,-0.2,0.88,85.81,0
2020-02-25T20:35:00-05:00,96.88,12.73,735.26,-0.94,0.75,94.84,0
2020-02-25T20:36:00-05:00,96.9,12.71,733.66,-0.64,0.63,68.65,0
2020-02-25T20:37:00-05:00,96.87,12.73,735.36,1.56,0.99,109.51,0
2020-02-25T20:38:00-05:00,96.85,12.71,735.13,1.27,0.79,71.65,0
2020-02-25T20:39:00-05:00,96.75,12.75,735.26,-0.05,0.62,104.58,0
2020-02-25T20:40:00-05:00,96.87,12.74,735.56,0.53,1,94.81,0
2020-02-25T20:41:00-05:00,96.79,12.73,735.43,1.56,0.65,76.57,0
2020-02-25T20:42:00-05:00,96.69,12.73,734.16,0.24,0.62,127.18,0
2020-02-25T20:43:00-05:00,96.83,12.71,734.86,0.83,0.65,96.51,0
2020-02-25T20:44:00-05:00,96.69,12.72,733.92,0.39,0.59,125.74,0
2020-02-25T20:45:00-05:00,96.69,12.71,734.76,-0.49,0.51,136.55,0
2020-02-25T20:46:00-05:00,96.91,12.71,735.26,1.12,0.57,142.24,0
2020-02-25T20:47:00-05:00,96.79,12.72,735.4,-1.38,0.49,135.35,0
2020-02-25T20:48:00-05:00,96.83,12.71,734.79,-1.08,0.29,104.59,0
2020-02-25T20:49:00-05:00,96.77,12.71,734.02,-1.97,0.61,136.24,0
2020-02-25T20:50:00-05:00,96.87,12.71,734.19,-1.08,0.46,132.26,0
2020-02-25T20:51:00-05:00,96.64,12.7,733.79,0.53,0.83,143.21,0
2020-02-25T20:52:00-05:00,96.78,12.69,733.49,-1.97,0.56,131.93,0
2020-02-25T20:53:00-05:00,96.65,12.67,734.93,-1.97,0.64,134.7,0
2020-02-25T20:54:00-05:00,96.75,12.67,733.59,0.39,0.61,140.23,0
2020-02-25T20:55:00-05:00,96.72,12.65,735.13,-2.11,0.57,122.01,0
2020-02-25T20:56:00-05:00,96.56,12.65,734.19,-1.08,0.57,129.86,0
2020-02-25T20:57:00-05:00,96.71,12.64,734.49,-1.52,0.63,126.21,0
2020-02-25T20:58:00-05:00,96.77,12.64,733.82,0.24,0.62,118.81,0
2020-02-25T20:59:00-05:00,96.57,12.63,734.86,-0.35,0.6,118.3,0
2020-02-25T21:00:00-05:00,96.7,12.64,733.62,-0.94,0.66,111.79,0
2020-02-25T21:01:00-05:00,96.76,12.64,735.16,-0.35,0.5,133.22,0
2020-02-25T21:02:00-05:00,96.73,12.63,734.39,-0.64,0.67,113.57,0
2020-02-25T21:03:00-05:00,96.62,12.65,733.72,-0.94,0.61,120.26,0
2020-02-25T21:04:00-05:00,96.58,12.65,735.23,1.42,0.59,84.19,0
2020-02-25T21:05:00-05:00,96.44,12.64,734.39,-0.35,0.39,76.05,0
2020-02-25T21:06:00-05:00,96.61,12.65,735.6,0.83,0.39,68.96,0
2020-02-25T21:07:00-05:00,96.55,12.64,733.82,0.39,0.46,77.26,0
2020-02-25T21:08:00-05:00,96.39,12.62,734.13,0.09,0.57,71.71,0
2020-02-25T21:09:00-05:00,96.36,12.63,733.79,0.39,0.5,110.68,0
2020-02-25T21:10:00-05:00,96.39,12.63,733.82,0.39,0.7,117.03,0
2020-02-25T21:11:00-05:00,96.41,12.64,733.89,1.56,0.6,128.28,0
2020-02-25T21:12:00-05:00,96.25,12.63,735.3,0.53,0.82,102.63,0
2020-02-25T21:13:00-05:00,96.31,12.61,735.2,-0.79,0.53,67.45,0
2020-02-25T21:14:00-05:00,96.32,12.63,735.06,0.68,0.65,52.86,0
2020-02-25T21:15:00-05:00,96.48,12.67,735.1,0.68,0.6,73.77,0
2020-02-25T21:16:00-05:00,96.57,12.67,735.63,-0.79,0.68,85.01,0
2020-02-25T21:17:00-05:00,96.31,12.65,735.3,-1.23,0.7,121.6,0
2020-02-25T21:18:00-05:00,96.27,12.64,734.86,-1.52,0.17,117.2,0
2020-02-25T21:19:00-05:00,96.45,12.65,735.26,-0.2,0.61,82.2,0
2020-02-25T21:20:00-05:00,96.35,12.63,734.43,0.83,1,82.05,0
2020-02-25T21:21:00-05:00,96.21,12.61,735.03,-1.97,1.17,52.4,0
2020-02-25T21:22:00-05:00,96.3,12.61,735.3,-0.49,0.63,105.36,0
2020-02-25T21:23:00-05:00,96.15,12.61,734.46,-2.26,0.69,91.05,0
2020-02-25T21:24:00-05:00,95.95,12.62,733.86,0.68,0.5,78.24,0
2020-02-25T21:25:00-05:00,96.04,12.62,734.96,-0.2,0.63,113.13,0
2020-02-25T21:26:00-05:00,95.94,12.61,733.59,-1.38,0.46,132.82,0
2020-02-25T21:27:00-05:00,95.75,12.61,735.06,-1.23,0.59,105.3,0
2020-02-25T21:28:00-05:00,95.68,12.61,733.52,-0.35,0.54,108.91,0
2020-02-25T21:29:00-05:00,95.81,12.63,735.2,-0.79,0.62,77.63,0
2020-02-25T21:30:00-05:00,95.57,12.63,735.3,0.09,0.58,96.7,0
2020-02-25T21:31:00-05:00,95.37,12.62,733.82,-0.2,0.76,119.67,0
2020-02-25T21:32:00-05:00,95.4,12.61,733.59,0.68,0.64,95.51,0
2020-02-25T21:33:00-05:00,95.26,12.6,734.69,-0.79,0.57,153.11,0
2020-02-25T21:34:00-05:00,95.34,12.59,735.36,-1.82,0.4,34.01,0
2020-02-25T21:35:00-05:00,95.43,12.59,734.86,-1.67,0.94,99.09,0
2020-02-25T21:36:00-05:00,95.48,12.59,734.59,-0.49,0.64,128.65,0
2020-02-25T21:37:00-05:00,95.22,12.57,735,-1.52,0.61,135.2,0
2020-02-25T21:38:00-05:00,95.32,12.6,733.66,-1.67,0.88,119.03,0
2020-02-25T21:39:00-05:00,95.14,12.61,734.53,0.09,0.58,120.26,0
2020-02-25T21:40:00-05:00,94.94,12.6,733.32,-1.67,0.97,87.18,0
2020-02-25T21:41:00-05:00,94.97,12.61,735.23,0.53,0.24,72.43,0
2020-02-25T21:42:00-05:00,94.77,12.61,735.16,0.53,0.8,64.05,0
2020-02-25T21:43:00-05:00,94.98,12.6,733.36,-0.64,0.6,51.77,0
2020-02-25T21:44:00-05:00,94.98,12.61,734.59,-0.94,0.81,53.71,0
2020-02-25T21:45:00-05:00,94.85,12.6,733.89,-1.82,0.7,31.42,0
2020-02-25T21:46:00-05:00,94.86,12.59,734.43,-2.26,0.56,53.57,0
2020-02-25T21:47:00-05:00,94.83,12.58,733.96,-2.11,0.58,122.28,0
2020-02-25T21:48:00-05:00,94.79,12.53,733.46,-1.67,0.61,135.07,0
2020-02-25T21:49:00-05:00,94.66,12.53,734.56,-2.41,0.59,129.92,0
2020-02-25T21:50:00-05:00,94.44,12.51,733.86,-2.26,0.82,137.3,0
2020-02-25T21:51:00-05:00,94.34,12.51,732.65,-1.08,0.54,130.98,0
2020-02-25T21:52:00-05:00,94.29,12.48,734.23,-2.26,0.34,110.67,0
2020-02-25T21:53:00-05:00,94.23,12.45,733.89,-3.29,0.5,129.53,0
2020-02-25T21:54:00-05:00,94.15,12.43,733.59,-1.08,0.73,105.21,0
2020-02-25T21:55:00-05:00,94.3,12.39,732.72,-2.7,0.66,121.58,0
2020-02-25T21:56:00-05:00,94.36,12.37,732.28,-1.67,0.77,132.28,0
2020-02-25T21:57:00-05:00,94.2,12.33,731.92,-1.23,0.9,61.6,0
2020-02-25T21:58:00-05:00,94.35,12.35,732.79,-1.08,0.57,112.71,0
2020-02-25T21:59:00-05:00,94.06,12.33,732.15,-1.38,0.64,151.51,0
2020-02-25T22:00:00-05:00,94.11,12.33,733.36,-1.38,0.57,102.29,0
2020-02-25T22:01:00-05:00,94.03,12.3,731.58,-2.55,0.62,95.7,0
2020-02-25T22:02:00-05:00,94.05,12.25,736.27,-0.64,0.57,144.21,0
2020-02-25T22:03:00-05:00,94.02,12.22,735.56,-1.23,0.55,75.49,0
2020-02-25T22:04:00-05:00,94.11,12.22,736.23,-2.55,2.24,92.86,0
2020-02-25T22:05:00-05:00,93.93,12.31,735.16,1.27,0.61,105.37,0
2020-02-25T22:06:00-05:00,93.34,12.38,735.5,0.24,2.51,24.85,0
2020-02-25T22:07:00-05:00,92.04,12.49,736.54,0.98,1.93,21.71,0
2020-02-25T22:08:00-05:00,91.24,12.57,736.33,1.56,1.37,31.54,0
2020-02-25T22:09:00-05:00,90.34,12.63,735.9,1.12,0.54,85.72,0
2020-02-25T22:10:00-05:00,90.71,12.65,735.87,2.59,0.61,96.78,0
2020-02-25T22:11:00-05:00,90.83,12.61,736.54,2.3,0.59,133.27,0
2020-02-25T22:12:00-05:00,91.23,12.57,736.17,2.15,0.8,170.33,0
2020-02-25T22:13:00-05:00,91.52,12.53,736.17,0.24,0.83,170.06,0
2020-02-25T22:14:00-05:00,92.04,12.51,736.03,0.53,0.58,164.48,0
2020-02-25T22:15:00-05:00,92.47,12.46,736.5,0.98,0.63,144.19,0
2020-02-25T22:16:00-05:00,93,12.45,737.2,-0.2,0.44,215.28,0
2020-02-25T22:17:00-05:00,93.51,12.43,737.17,0.39,0.57,182.05,0
2020-02-25T22:18:00-05:00,93.98,12.41,735.97,1.86,0.67,148.55,0
2020-02-25T22:19:00-05:00,94.11,12.41,737.57,-0.35,0.45,156.21,0
2020-02-25T22:20:00-05:00,94.37,12.43,736.77,-0.49,0.59,141.6,0
2020-02-25T22:21:00-05:00,94.46,12.42,736.07,-0.35,0.94,150.2,0
2020-02-25T22:22:00-05:00,94.53,12.41,737.07,0.39,0.96,143.21,0
2020-02-25T22:23:00-05:00,95,12.45,737.17,1.86,0.55,115.49,0
2020-02-25T22:24:00-05:00,95,12.49,736.87,0.09,0.93,99.97,0
2020-02-25T22:25:00-05:00,94.85,12.49,736.6,-0.05,0.81,156.18,0
2020-02-25T22:26:00-05:00,94.88,12.49,738.28,-0.2,0.56,143.89,0
2020-02-25T22:27:00-05:00,94.91,12.51,737.2,0.83,0.42,138.67,0
2020-02-25T22:28:00-05:00,95.04,12.54,738.04,-0.05,0.73,146.28,0
2020-02-25T22:29:00-05:00,94.96,12.55,738.41,1.71,0.62,183.29,0
2020-02-25T22:30:00-05:00,95.04,12.55,736.94,0.53,0.7,180.36,0
2020-02-25T22:31:00-05:00,95.34,12.57,738.14,0.98,0.76,146.65,0
2020-02-25T22:32:00-05:00,95.51,12.59,736.87,0.83,0.75,159.17,0
2020-02-25T22:33:00-05:00,95.66,12.62,737.37,0.39,0.92,139.65,0
2020-02-25T22:34:00-05:00,95.69,12.63,737.27,2.15,0.28,224.9,0
2020-02-25T22:35:00-05:00,95.46,12.66,737.17,2.45,0.96,145.65,0
2020-02-25T22:36:00-05:00,95.57,12.65,738.31,0.68,0.06,150.15,0
2020-02-25T22:37:00-05:00,95.61,12.67,737.07,2.15,0.59,155.63,0
2020-02-25T22:38:00-05:00,95.52,12.65,738.54,2,0.62,148.24,0
2020-02-25T22:39:00-05:00,95.77,12.67,738.28,0.39,0.44,170.35,0
2020-02-25T22:40:00-05:00,95.71,12.69,738.61,0.98,0.56,199.95,0
2020-02-25T22:41:00-05:00,95.79,12.69,738.08,0.24,0.72,184.03,0
2020-02-25T22:42:00-05:00,95.69,12.68,738.14,0.68,0.52,178.01,0
2020-02-25T22:43:00-05:00,95.7,12.69,737.61,0.24,1.09,142.24,0
2020-02-25T22:44:00-05:00,95.75,12.68,737.67,0.39,0.64,130.36,0
2020-02-25T22:45:00-05:00,95.76,12.7,738.38,1.42,0.44,139.16,0
2020-02-25T22:46:00-05:00,95.82,12.69,738.98,2.45,0.44,265.82,0
2020-02-25T22:47:00-05:00,95.76,12.69,738.91,-0.35,0.42,92.76,0
2020-02-25T22:48:00-05:00,95.58,12.71,739.31,2.15,0.57,120.24,0
2020-02-25T22:49:00-05:00,95.66,12.7,737.77,1.71,0.21,124.25,0
2020-02-25T22:50:00-05:00,95.57,12.73,739.15,2,0.28,126.22,0
2020-02-25T22:51:00-05:00,95.63,12.73,739.55,-0.2,0.54,112.15,0
2020-02-25T22:52:00-05:00,95.63,12.73,737.94,2,0.53,134.57,0
2020-02-25T22:53:00-05:00,95.63,12.74,739.41,-0.35,0.59,104.86,0
2020-02-25T22:54:00-05:00,95.37,12.74,739.35,-0.35,0.28,84.45,0
2020-02-25T22:55:00-05:00,95.36,12.74,738.08,1.71,0.57,72.88,0
2020-02-25T22:56:00-05:00,95.39,12.75,738.54,0.53,0.37,60.08,0
2020-02-25T22:57:00-05:00,95.44,12.73,737.84,-0.2,0.31,130.26,0
2020-02-25T22:58:00-05:00,95.44,12.75,737.64,1.42,0.6,121.22,0
2020-02-25T22:59:00-05:00,95.59,12.75,739.55,-0.2,0.55,136.21,0
2020-02-25T23:00:00-05:00,95.45,12.74,739.38,0.68,0.62,156.2,0
2020-02-25T23:01:00-05:00,95.3,12.73,738.24,0.09,0.57,169.1,0
2020-02-25T23:02:00-05:00,95.4,12.73,737.84,1.71,0.56,173.14,0
2020-02-25T23:03:00-05:00,95.28,12.73,739.35,0.24,0.6,183.28,0
2020-02-25T23:04:00-05:00,95.32,12.71,738.81,1.86,0.61,166.37,0
2020-02-25T23:05:00-05:00,95.24,12.72,738.11,-0.2,0.45,170.05,0
2020-02-25T23:06:00-05:00,95.3,12.72,739.65,2.45,0.23,165.11,0
2020-02-25T23:07:00-05:00,95.16,12.73,739.11,0.98,0.4,116.12,0
2020-02-25T23:08:00-05:00,95.18,12.71,739.18,-0.79,0.16,79.29,0
2020-02-25T23:09:00-05:00,None,None,None,None,None,None,None
2020-02-25T23:10:00-05:00,95.23,12.71,739.41,-0.64,0.24,41.44,0
2020-02-25T23:11:00-05:00,95.33,12.71,738.01,1.27,0.21,127.51,0
2020-02-25T23:12:00-05:00,95.58,12.73,738.64,1.12,0.21,113.21,0
2020-02-25T23:13:00-05:00,95.44,12.73,739.38,-0.64,0.52,144.51,0
2020-02-25T23:14:00-05:00,95.47,12.73,737.97,-0.94,0.55,166.14,0
2020-02-25T23:15:00-05:00,95.48,12.72,738.64,-0.79,0.57,150.54,0
2020-02-25T23:16:00-05:00,95.5,12.71,739.48,0.83,0.27,158.14,0
2020-02-25T23:17:00-05:00,95.46,12.71,738.68,0.53,0.26,43.14,0
2020-02-25T23:18:00-05:00,95.61,12.73,739.51,1.56,0.24,132.25,0
2020-02-25T23:19:00-05:00,95.54,12.73,738.28,0.39,0.33,111.45,0
2020-02-25T23:20:00-05:00,95.51,12.72,738.58,-0.35,0.56,100.76,0
2020-02-25T23:21:00-05:00,95.49,12.72,739.05,2.15,0.34,86.72,0
2020-02-25T23:22:00-05:00,95.54,12.71,737.67,-0.05,0.33,97.33,0
2020-02-25T23:23:00-05:00,95.38,12.7,738.48,1.27,0.23,64.91,0
2020-02-25T23:24:00-05:00,95.71,12.73,738.98,0.39,0.61,34.73,0
2020-02-25T23:25:00-05:00,95.65,12.73,737.97,1.42,0.41,72.97,0
2020-02-25T23:26:00-05:00,95.65,12.75,738.78,-0.49,0.48,64.45,0
2020-02-25T23:27:00-05:00,95.77,12.74,738.14,-0.2,0.26,92.15,0
2020-02-25T23:28:00-05:00,95.77,12.73,739.11,1.56,0.53,128.78,0
2020-02-25T23:29:00-05:00,95.77,12.74,737.94,-0.49,0.23,67.7,0
2020-02-25T23:30:00-05:00,95.77,12.73,738.68,0.39,0.42,96.86,0
2020-02-25T23:31:00-05:00,95.61,12.73,739.45,1.42,0.19,95.08,0
2020-02-25T23:32:00-05:00,95.69,12.72,738.98,0.39,0.53,109.1,0
2020-02-25T23:33:00-05:00,95.71,12.73,738.04,0.39,0.56,121.42,0
2020-02-25T23:34:00-05:00,95.69,12.72,739.25,-0.35,0.23,139.94,0
2020-02-25T23:35:00-05:00,95.86,12.73,738.48,1.86,0.24,127.75,0
2020-02-25T23:36:00-05:00,95.77,12.75,739.11,0.53,0.5,140.53,0
2020-02-25T23:37:00-05:00,95.72,12.74,739.01,0.98,0.23,119.27,0
2020-02-25T23:38:00-05:00,95.75,12.75,738.44,0.83,0.1,115.92,0
2020-02-25T23:39:00-05:00,95.9,12.73,738.95,-1.08,0.23,122.23,0
2020-02-25T23:40:00-05:00,95.89,12.72,738.74,1.42,0.25,121.11,0
2020-02-25T23:41:00-05:00,95.86,12.73,739.08,0.09,0.19,89.21,0
2020-02-25T23:42:00-05:00,95.91,12.72,739.41,0.83,0.15,79.6,0
2020-02-25T23:43:00-05:00,95.86,12.74,738.81,-0.35,0.22,57.51,0
2020-02-25T23:44:00-05:00,95.95,12.74,737.54,0.39,0.25,69.4,0
2020-02-25T23:45:00-05:00,95.97,12.75,737.77,0.24,0.32,113.53,0
2020-02-25T23:46:00-05:00,95.91,12.74,739.25,-0.35,0.26,140.53,0
2020-02-25T23:47:00-05:00,95.95,12.73,737.94,1.27,0.14,123.12,0
2020-02-25T23:48:00-05:00,95.87,12.73,737.57,1.71,0.17,92.72,0
2020-02-25T23:49:00-05:00,95.93,12.73,739.18,-0.64,0.25,172.51,0
2020-02-25T23:50:00-05:00,96.03,12.73,738.18,1.12,0.18,69.43,0
2020-02-25T23:51:00-05:00,96.03,12.72,737.51,-0.35,0.51,68.86,0
2020-02-25T23:52:00-05:00,95.93,12.71,739.41,-0.05,0.25,59.18,0
2020-02-25T23:53:00-05:00,95.99,12.71,737.77,2.3,0.15,92.94,0
2020-02-25T23:54:00-05:00,96.05,12.72,737.94,0.24,0.15,106.16,0
2020-02-25T23:55:00-05:00,95.91,12.71,738.58,0.39,0.14,235.12,0
2020-02-25T23:56:00-05:00,95.86,12.69,737.81,-0.35,0.55,208.94,0
2020-02-25T23:57:00-05:00,95.93,12.71,737.91,-0.35,0.47,207.98,0
2020-02-25T23:58:00-05:00,95.83,12.68,737.91,-0.64,0.61,203.94,0
2020-02-25T23:59:00-05:00,95.86,12.67,739.08,-0.35,0.42,188.09,0
