time,[HUME],[TEMP],[PRES],[RADI],[RAPV],[DIRV],[PREC]
2020-03-25T00:00:00-05:00,81.28,10.84,736.6,-0.79,0.29,143.16,0
2020-03-25T00:01:00-05:00,80.71,10.85,735.67,-2.85,1.5,62.6,0
2020-03-25T00:02:00-05:00,80.5,10.86,735.77,-1.23,0.7,59.64,0
2020-03-25T00:03:00-05:00,81.46,10.87,737.14,-2.99,0.85,50.6,0
2020-03-25T00:04:00-05:00,80.59,10.85,735.83,-2.55,0.8,42.41,0
2020-03-25T00:05:00-05:00,80.81,10.78,736.84,-3.44,0.77,62.33,0
2020-03-25T00:06:00-05:00,81.31,10.75,736.9,-1.23,1.08,65.86,0
2020-03-25T00:07:00-05:00,81.81,10.69,735.73,-0.79,1.04,64.75,0
2020-03-25T00:08:00-05:00,82.2,10.62,735.9,-0.79,1.4,36.49,0
2020-03-25T00:09:00-05:00,82.71,10.58,736.07,-2.41,0.95,57.74,0
2020-03-25T00:10:00-05:00,82.1,10.55,736.74,-0.2,0.6,91.17,0
2020-03-25T00:11:00-05:00,82.13,10.56,735.73,-0.94,1.21,75.05,0
2020-03-25T00:12:00-05:00,81.61,10.6,736.64,-1.52,0.72,82.04,0
2020-03-25T00:13:00-05:00,81.74,10.6,736.74,-0.35,0.58,139.28,0
2020-03-25T00:14:00-05:00,82.19,10.59,737.34,-1.67,0.63,71.88,0
2020-03-25T00:15:00-05:00,83.08,10.59,735.63,-0.35,0.66,63.37,0
2020-03-25T00:16:00-05:00,83.66,10.58,736.67,-1.38,0.62,102.41,0
2020-03-25T00:17:00-05:00,84.04,10.58,736.7,-2.26,0.75,96.77,0
2020-03-25T00:18:00-05:00,84.77,10.61,736,-0.35,0.28,81.22,0
2020-03-25T00:19:00-05:00,84.98,10.65,735.63,-1.38,0.67,94.6,0
2020-03-25T00:20:00-05:00,84.77,10.71,736.23,0.53,0.72,83.91,0
2020-03-25T00:21:00-05:00,84.8,10.77,736.27,-1.67,0.42,120.51,0
2020-03-25T00:22:00-05:00,84.4,10.8,736.84,1.56,0.66,76.69,0
2020-03-25T00:23:00-05:00,85.01,10.83,736.37,-0.2,0.81,73.86,0
2020-03-25T00:24:00-05:00,84.46,10.86,737.51,-1.52,1.14,116.24,0
2020-03-25T00:25:00-05:00,84.21,10.98,738.04,0.68,0.63,90.62,0
2020-03-25T00:26:00-05:00,83.48,11.04,736.6,0.68,0.51,95.36,0
2020-03-25T00:27:00-05:00,83.15,11.08,737.47,-1.97,0.61,106.84,0
2020-03-25T00:28:00-05:00,82.88,11.12,736.9,-2.26,0.55,123.28,0
2020-03-25T00:29:00-05:00,82.55,11.16,737.57,-1.23,0.6,117.03,0
2020-03-25T00:30:00-05:00,81.78,11.14,738.04,-2.41,0.6,166.12,0
2020-03-25T00:31:00-05:00,81.32,11.17,738.08,-3.44,0.43,101.83,0
2020-03-25T00:32:00-05:00,81.23,11.14,737.61,-3.14,0.58,106.74,0
2020-03-25T00:33:00-05:00,81.38,11.15,737.67,-4.32,0.61,123.48,0
2020-03-25T00:34:00-05:00,81.85,11.1,736.2,-2.7,0.71,131.24,0
2020-03-25T00:35:00-05:00,82.1,11.1,736.47,-3.44,0.57,117.5,0
2020-03-25T00:36:00-05:00,82.24,11.09,736.47,-3.58,0.68,158.16,0
2020-03-25T00:37:00-05:00,81.67,11.09,736.54,-1.97,0.6,150.24,0
2020-03-25T00:38:00-05:00,82.05,11.09,736.87,-3.73,0.6,157.16,0
2020-03-25T00:39:00-05:00,83.1,11.1,737.31,-3.58,0.6,130.9,0
2020-03-25T00:40:00-05:00,83.94,11.12,737.2,-1.82,0.65,107.21,0
2020-03-25T00:41:00-05:00,84.69,11.13,737.57,-2.41,0.63,118.21,0
2020-03-25T00:42:00-05:00,85.61,11.13,736.23,-2.55,0.74,103.17,0
2020-03-25T00:43:00-05:00,85.64,11.14,736.47,-2.55,0.64,117.2,0
2020-03-25T00:44:00-05:00,85.81,11.13,736.64,-4.46,0.55,97.6,0
2020-03-25T00:45:00-05:00,85.66,11.1,736.43,-3.88,0.73,95.63,0
2020-03-25T00:46:00-05:00,85.03,11.07,737.04,-4.61,0.66,73.27,0
2020-03-25T00:47:00-05:00,84.67,11.06,736.87,-4.46,0.78,84.12,0
2020-03-25T00:48:00-05:00,83.44,11.02,736.37,-2.99,0.9,86.3,0
2020-03-25T00:49:00-05:00,83.11,10.99,735.63,-4.32,0.8,92.3,0
2020-03-25T00:50:00-05:00,82.83,11,736.67,-3.73,0.67,57.89,0
2020-03-25T00:51:00-05:00,82.59,10.96,736.6,-3.88,0.6,106.2,0
2020-03-25T00:52:00-05:00,82.9,10.92,736.23,-2.26,0.61,120.3,0
2020-03-25T00:53:00-05:00,84.14,10.94,735.53,-4.76,0.32,165.15,0
2020-03-25T00:54:00-05:00,84.54,10.9,736.13,-2.26,0.6,152.17,0
2020-03-25T00:55:00-05:00,85.79,10.92,736.2,-4.02,0.43,150.44,0
2020-03-25T00:56:00-05:00,85.7,10.93,735.4,-4.46,0.6,139.54,0
2020-03-25T00:57:00-05:00,85.65,10.92,736.5,-3.14,0.64,133.21,0
2020-03-25T00:58:00-05:00,85.76,10.93,736.1,-4.32,0.39,109.52,0
2020-03-25T00:59:00-05:00,84.91,10.9,735.93,-2.11,0.53,74.61,0
2020-03-25T01:00:00-05:00,84.67,10.84,734.9,-2.85,0.74,58.04,0
2020-03-25T01:01:00-05:00,84.71,10.76,734.59,-3.58,0.62,67.18,0
2020-03-25T01:02:00-05:00,85.07,10.7,735.63,-4.17,0.76,64.56,0
2020-03-25T01:03:00-05:00,84.55,10.66,735.13,-3.88,0.73,87.43,0
2020-03-25T01:04:00-05:00,83.96,10.66,734.96,-5.05,0.7,59.37,0
2020-03-25T01:05:00-05:00,84.34,10.62,733.79,-2.41,0.57,81.43,0
2020-03-25T01:06:00-05:00,84.48,10.61,734.19,-5.64,0.43,68.56,0
2020-03-25T01:07:00-05:00,84.7,10.56,734.69,-4.32,0.63,82.03,0
2020-03-25T01:08:00-05:00,85.19,10.55,734.53,-5.05,0.61,95.29,0
2020-03-25T01:09:00-05:00,85.48,10.56,734.53,-4.46,0.53,60.78,0
2020-03-25T01:10:00-05:00,85.67,10.54,734.69,-4.02,0.57,52.92,0
2020-03-25T01:11:00-05:00,85.64,10.52,734.33,-3.14,0.57,69.49,0
2020-03-25T01:12:00-05:00,85.53,10.52,733.32,-2.41,0.6,85.68,0
2020-03-25T01:13:00-05:00,85.34,10.52,733.99,-2.7,0.71,105.8,0
2020-03-25T01:14:00-05:00,84.91,10.55,734.46,-2.7,0.8,109.7,0
2020-03-25T01:15:00-05:00,84.37,10.54,734.66,-1.67,0.92,99.89,0
2020-03-25T01:16:00-05:00,84.12,10.53,734.02,-4.32,0.58,100.42,0
2020-03-25T01:17:00-05:00,84.06,10.56,734.73,-2.55,0.8,92.45,0
2020-03-25T01:18:00-05:00,83.68,10.56,734.9,-2.55,0.76,104.28,0
2020-03-25T01:19:00-05:00,83.8,10.57,733.72,-4.02,0.73,117.94,0
2020-03-25T01:20:00-05:00,83.99,10.53,734.79,-3.88,0.81,101.38,0
2020-03-25T01:21:00-05:00,84.87,10.54,734.69,-4.32,0.75,130.29,0
2020-03-25T01:22:00-05:00,85.01,10.51,733.89,-4.46,0.59,136.55,0
2020-03-25T01:23:00-05:00,85.67,10.52,734.26,-3.29,0.61,136.17,0
2020-03-25T01:24:00-05:00,85.73,10.52,733.89,-3.88,0.68,123.12,0
2020-03-25T01:25:00-05:00,85.71,10.51,734.16,-3.88,0.71,143.32,0
2020-03-25T01:26:00-05:00,85.87,10.5,734.43,-2.85,0.76,119.51,0
2020-03-25T01:27:00-05:00,86.08,10.48,734.53,-2.85,0.72,122.61,0
2020-03-25T01:28:00-05:00,85.85,10.44,733.99,-4.02,0.64,123.25,0
2020-03-25T01:29:00-05:00,85.74,10.42,733.79,-3.73,0.61,130.33,0
2020-03-25T01:30:00-05:00,85.8,10.39,734.13,-5.05,0.63,121.19,0
2020-03-25T01:31:00-05:00,86.46,10.4,734.16,-2.55,0.73,120.28,0
2020-03-25T01:32:00-05:00,87.55,10.42,734.79,-1.82,0.62,100.93,0
2020-03-25T01:33:00-05:00,87.39,10.44,734.13,-4.02,0.69,75.33,0
2020-03-25T01:34:00-05:00,86.78,10.38,734.86,-4.32,0.96,46.28,0
2020-03-25T01:35:00-05:00,86.7,10.33,733.82,-3.88,0.82,76.26,0
2020-03-25T01:36:00-05:00,87.53,10.32,733.79,-3.58,0.77,75.19,0
2020-03-25T01:37:00-05:00,88.17,10.35,733.15,-1.97,0.63,67.88,0
2020-03-25T01:38:00-05:00,88.6,10.36,733.46,-4.02,0.73,125.22,0
2020-03-25T01:39:00-05:00,88.61,10.38,733.22,-4.32,0.6,88.58,0
2020-03-25T01:40:00-05:00,88.61,10.37,733.36,-4.76,0.6,104.1,0
2020-03-25T01:41:00-05:00,89.12,10.34,734.19,-2.85,0.7,122.6,0
2020-03-25T01:42:00-05:00,89.32,10.37,733.46,-4.61,0.78,110.44,0
2020-03-25T01:43:00-05:00,89.66,10.36,732.92,-2.11,0.73,103.93,0
2020-03-25T01:44:00-05:00,89.7,10.37,733.49,-3.29,0.58,92.12,0
2020-03-25T01:45:00-05:00,89.62,10.36,733.42,-4.32,0.62,62.09,0
2020-03-25T01:46:00-05:00,89.23,10.31,733.39,-4.02,0.87,45.39,0
2020-03-25T01:47:00-05:00,89.05,10.22,733.72,-3.73,0.93,53.28,0
2020-03-25T01:48:00-05:00,88.99,10.17,733.96,-4.61,0.97,67.41,0
2020-03-25T01:49:00-05:00,89.36,10.13,732.79,-3.29,1.19,59.15,0
2020-03-25T01:50:00-05:00,89.06,10.09,733.02,-5.2,0.83,74.43,0
2020-03-25T01:51:00-05:00,90.14,10.11,732.69,-2.99,0.68,59.19,0
2020-03-25T01:52:00-05:00,89.78,10.11,732.48,-3.73,0.65,46.03,0
2020-03-25T01:53:00-05:00,89.51,10.04,733.46,-2.99,0.78,54.59,0
2020-03-25T01:54:00-05:00,89.66,9.98,732.45,-2.41,1.19,64.79,0
2020-03-25T01:55:00-05:00,90.4,9.98,731.98,-3.14,0.88,52,0
2020-03-25T01:56:00-05:00,90.11,9.92,733.72,-1.82,0.86,75.61,0
2020-03-25T01:57:00-05:00,90.04,9.91,733.59,-2.85,0.81,49,0
2020-03-25T01:58:00-05:00,90.29,9.89,732.62,-3.29,0.62,63.08,0
2020-03-25T01:59:00-05:00,90.84,9.91,733.52,-1.82,0.74,107.97,0
2020-03-25T02:00:00-05:00,91.12,9.91,733.59,-3.58,0.63,113.96,0
2020-03-25T02:01:00-05:00,91.23,9.92,732.45,-3.73,0.76,112.32,0
2020-03-25T02:02:00-05:00,91.43,9.93,732.32,-4.32,0.61,129.66,0
2020-03-25T02:03:00-05:00,91.41,9.91,733.25,-4.32,0.75,115.29,0
2020-03-25T02:04:00-05:00,91.43,9.95,733.52,-2.41,0.67,111.68,0
2020-03-25T02:05:00-05:00,91.31,9.97,733.82,-3.44,0.8,47.66,0
2020-03-25T02:06:00-05:00,90.67,9.92,732.55,-4.17,1.44,36.83,0
2020-03-25T02:07:00-05:00,90.34,9.87,732.62,-4.46,0.88,63.78,0
2020-03-25T02:08:00-05:00,90.4,9.83,732.69,-3.44,1.14,59.92,0
2020-03-25T02:09:00-05:00,90.63,9.79,732.35,-4.32,0.95,55.51,0
2020-03-25T02:10:00-05:00,90.78,9.77,731.78,-2.7,0.68,52.23,0
2020-03-25T02:11:00-05:00,91,9.8,732.85,-4.76,0.71,67.36,0
2020-03-25T02:12:00-05:00,91.44,9.81,733.09,-2.99,0.64,72.61,0
2020-03-25T02:13:00-05:00,91.54,9.84,732.38,-2.55,0.64,52.78,0
2020-03-25T02:14:00-05:00,91.31,9.79,733.39,-4.17,1.09,64.14,0
2020-03-25T02:15:00-05:00,91.1,9.8,732.52,-4.32,1.01,40.39,0
2020-03-25T02:16:00-05:00,90.75,9.77,732.65,-4.02,0.99,55.85,0
2020-03-25T02:17:00-05:00,90.71,9.79,732.69,-4.61,1.03,48.56,0
2020-03-25T02:18:00-05:00,90.1,9.75,731.61,-2.41,0.96,38.96,0
2020-03-25T02:19:00-05:00,90.07,9.73,735.73,-4.32,0.77,37.5,0
2020-03-25T02:20:00-05:00,89.82,9.67,737.41,-3.44,1.91,94.44,0
2020-03-25T02:21:00-05:00,89.82,9.65,736.27,-2.99,1.16,69.34,0
2020-03-25T02:22:00-05:00,89.83,9.61,736.23,-4.17,1.29,57.81,0
2020-03-25T02:23:00-05:00,90.02,9.59,736.3,-2.99,0.68,106.55,0
2020-03-25T02:24:00-05:00,90.5,9.59,737.17,-2.26,0.62,107.16,0
2020-03-25T02:25:00-05:00,90.51,9.6,737.74,-3.29,0.87,56.94,0
2020-03-25T02:26:00-05:00,90.65,9.63,737.44,-5.2,0.58,114.32,0
2020-03-25T02:27:00-05:00,90.61,9.65,735.93,-3.73,1.05,73.43,0
2020-03-25T02:28:00-05:00,90.71,9.67,737.41,-4.17,0.8,86.18,0
2020-03-25T02:29:00-05:00,90.93,9.7,736.87,-3.14,0.54,82.7,0
2020-03-25T02:30:00-05:00,90.62,9.67,737.47,-4.46,0.96,42.74,0
2020-03-25T02:31:00-05:00,90.12,9.67,736.23,-2.41,0.67,94.69,0
2020-03-25T02:32:00-05:00,90.49,9.67,737.24,-4.32,0.53,126.21,0
2020-03-25T02:33:00-05:00,90.44,9.67,736.3,-4.17,0.88,108.29,0
2020-03-25T02:34:00-05:00,90.09,9.69,736.57,-1.82,0.62,97.45,0
2020-03-25T02:35:00-05:00,89.98,9.69,735.93,-2.7,0.84,96.16,0
2020-03-25T02:36:00-05:00,89.58,9.73,736.4,-1.67,0.7,110.71,0
2020-03-25T02:37:00-05:00,88.87,9.75,735.73,-2.55,0.6,82.97,0
2020-03-25T02:38:00-05:00,89.16,9.75,737,-4.02,0.6,72.69,0
2020-03-25T02:39:00-05:00,89.21,9.75,736.17,-4.32,0.53,61.55,0
2020-03-25T02:40:00-05:00,89.25,9.77,736.97,-2.55,0.59,53.06,0
2020-03-25T02:41:00-05:00,89.01,9.73,736.77,-2.85,0.53,102.39,0
2020-03-25T02:42:00-05:00,89.05,9.75,737.17,-2.11,0.57,86,0
2020-03-25T02:43:00-05:00,89.07,9.76,737.1,-2.55,0.67,49.14,0
2020-03-25T02:44:00-05:00,89.05,9.75,736.1,-2.11,0.59,84.12,0
2020-03-25T02:45:00-05:00,89.74,9.79,737.71,-4.02,0.67,64.69,0
2020-03-25T02:46:00-05:00,89.68,9.8,736.4,-2.85,0.57,97.6,0
2020-03-25T02:47:00-05:00,89.69,9.82,737.14,-2.55,0.61,109.17,0
2020-03-25T02:48:00-05:00,89.75,9.83,736.94,-3.73,0.8,112,0
2020-03-25T02:49:00-05:00,89.54,9.89,737.41,-2.85,0.54,99.29,0
2020-03-25T02:50:00-05:00,89.3,9.9,736.67,-1.23,0.9,114.32,0
2020-03-25T02:51:00-05:00,89.68,9.94,737.97,-1.82,0.64,123.36,0
2020-03-25T02:52:00-05:00,89.42,9.97,737.27,-0.49,0.58,108.82,0
2020-03-25T02:53:00-05:00,89.79,9.98,737.91,-0.64,0.93,124.62,0
2020-03-25T02:54:00-05:00,90.1,10.02,737.74,-2.85,0.46,112.61,0
2020-03-25T02:55:00-05:00,90.91,10.09,737.77,-0.35,0.72,116.65,0
2020-03-25T02:56:00-05:00,90.63,10.13,738.68,-1.67,0.65,97.35,0
2020-03-25T02:57:00-05:00,90.61,10.17,738.01,-0.35,0.71,92.84,0
2020-03-25T02:58:00-05:00,90.63,10.18,738.74,-1.08,0.6,68.86,0
2020-03-25T02:59:00-05:00,90.59,10.19,738.91,-1.97,0.42,71.16,0
2020-03-25T03:00:00-05:00,91.22,10.2,738.74,-4.46,0.57,114.26,0
2020-03-25T03:01:00-05:00,91.41,10.23,737.91,0.53,0.73,111.59,0
2020-03-25T03:02:00-05:00,91.49,10.26,739.18,0.68,0.77,118.2,0
2020-03-25T03:03:00-05:00,91.72,10.29,738.31,-0.79,0.69,121.56,0
2020-03-25T03:04:00-05:00,91.72,10.32,738.64,1.42,0.68,107.41,0
2020-03-25T03:05:00-05:00,91.74,10.35,739.01,0.24,0.75,115.77,0
2020-03-25T03:06:00-05:00,92.22,10.4,739.41,1.56,0.7,114.95,0
2020-03-25T03:07:00-05:00,92.12,10.41,738.88,1.56,0.44,102.4,0
2020-03-25T03:08:00-05:00,92.12,10.42,739.68,0.98,0.25,112.18,0
2020-03-25T03:09:00-05:00,92.06,10.43,738.85,-1.97,0.52,93.08,0
2020-03-25T03:10:00-05:00,91.9,10.44,740.55,-2.11,0.59,117.47,0
2020-03-25T03:11:00-05:00,92.04,10.48,738.71,-1.67,0.29,126.81,0
2020-03-25T03:12:00-05:00,91.92,10.48,738.71,-2.11,0.23,100.33,0
2020-03-25T03:13:00-05:00,91.95,10.49,738.68,-3.29,0.41,108.2,0
2020-03-25T03:14:00-05:00,91.81,10.48,738.95,-1.82,0.35,105.69,0
2020-03-25T03:15:00-05:00,91.89,10.49,738.24,-3.88,0.19,91.79,0
2020-03-25T03:16:00-05:00,91.98,10.48,738.58,-0.64,0.63,47.22,0
2020-03-25T03:17:00-05:00,91.63,10.44,739.58,-0.94,1.42,37.09,0
2020-03-25T03:18:00-05:00,91,10.38,739.18,-3.29,0.97,62.36,0
2020-03-25T03:19:00-05:00,90.94,10.36,739.35,-1.52,0.89,37.84,0
2020-03-25T03:20:00-05:00,90.71,10.32,739.35,-2.99,0.83,66.56,0
2020-03-25T03:21:00-05:00,91.15,10.34,738.41,-0.49,1.04,73.13,0
2020-03-25T03:22:00-05:00,91.41,10.35,738.51,-1.67,0.84,67.41,0
2020-03-25T03:23:00-05:00,91.63,10.35,738.28,-0.49,0.74,69.67,0
2020-03-25T03:24:00-05:00,91.93,10.36,738.58,-2.85,0.65,74.16,0
2020-03-25T03:25:00-05:00,91.96,10.36,739.58,-2.11,0.6,70.3,0
2020-03-25T03:26:00-05:00,92.08,10.34,738.71,-2.26,0.61,61.88,0
2020-03-25T03:27:00-05:00,92.34,10.32,738.38,-2.26,0.62,56.33,0
2020-03-25T03:28:00-05:00,92.36,10.32,738.34,-2.11,0.97,38.71,0
2020-03-25T03:29:00-05:00,92.12,10.26,738.74,-0.64,0.91,63.67,0
2020-03-25T03:30:00-05:00,92.22,10.28,739.45,-0.35,0.91,54.97,0
2020-03-25T03:31:00-05:00,92.22,10.26,738.48,-2.26,0.8,61.72,0
2020-03-25T03:32:00-05:00,92.41,10.24,739.35,-2.26,0.65,56.16,0
2020-03-25T03:33:00-05:00,92.38,10.23,738.24,-1.97,0.72,46.44,0
2020-03-25T03:34:00-05:00,92.42,10.2,738.44,-0.79,0.78,58.8,0
2020-03-25T03:35:00-05:00,92.48,10.18,739.35,-2.41,0.91,55.38,0
2020-03-25T03:36:00-05:00,92.67,10.17,738.38,-0.05,0.89,49.49,0
2020-03-25T03:37:00-05:00,92.2,10.12,738.41,-0.35,0.97,62.36,0
2020-03-25T03:38:00-05:00,92.28,10.12,739.25,-2.41,0.85,78.52,0
2020-03-25T03:39:00-05:00,92.02,10.11,739.28,-1.23,0.82,78,0
2020-03-25T03:40:00-05:00,91.2,10.08,739.41,-1.08,0.83,55.71,0
2020-03-25T03:41:00-05:00,90.72,10.07,739.25,-0.2,0.94,46.81,0
2020-03-25T03:42:00-05:00,90.29,10.06,739.55,-2.11,1.13,47.52,0
2020-03-25T03:43:00-05:00,89.91,10.03,739.25,-0.35,0.81,29.7,0
2020-03-25T03:44:00-05:00,90.04,10.02,738.61,-0.79,0.91,73.35,0
2020-03-25T03:45:00-05:00,90.7,10.06,738.68,-1.08,0.79,64.8,0
2020-03-25T03:46:00-05:00,91.27,10.09,739.92,0.09,0.56,78.17,0
2020-03-25T03:47:00-05:00,92.52,10.18,738.18,-0.35,0.7,119.93,0
2020-03-25T03:48:00-05:00,93.01,10.23,739.28,-0.94,0.35,125.24,0
2020-03-25T03:49:00-05:00,92.99,10.26,740.18,-1.52,0.28,97.63,0
2020-03-25T03:50:00-05:00,92.75,10.26,739.55,0.98,0.2,160.43,0
2020-03-25T03:51:00-05:00,93.12,10.28,739.01,-0.05,0.45,133.66,0
2020-03-25T03:52:00-05:00,93.4,10.32,739.65,-1.52,0.59,129.86,0
2020-03-25T03:53:00-05:00,93.64,10.34,739.95,0.09,0.56,106.64,0
2020-03-25T03:54:00-05:00,93.51,10.35,739.38,-0.79,0.54,78.18,0
2020-03-25T03:55:00-05:00,93.65,10.36,740.42,-0.64,0.59,58.94,0
2020-03-25T03:56:00-05:00,92.51,10.32,739.25,-2.41,1.03,43.06,0
2020-03-25T03:57:00-05:00,91.46,10.21,740.05,0.83,0.92,45.27,0
2020-03-25T03:58:00-05:00,91.21,10.12,738.95,-0.79,1.06,84.99,0
2020-03-25T03:59:00-05:00,90.94,10.09,738.74,-2.26,1.22,69.56,0
2020-03-25T04:00:00-05:00,91.49,10.09,739.65,-3.14,1.07,73.52,0
2020-03-25T04:01:00-05:00,91.7,10.1,738.78,-1.23,0.58,65.3,0
2020-03-25T04:02:00-05:00,91.57,10.11,739.85,-4.17,0.85,78,0
2020-03-25T04:03:00-05:00,91.52,10.11,739.51,-1.67,0.76,93.57,0
2020-03-25T04:04:00-05:00,91.46,10.11,738.44,-4.32,0.59,88.88,0
2020-03-25T04:05:00-05:00,91.06,10.1,739.05,-4.61,0.71,75.54,0
2020-03-25T04:06:00-05:00,91.44,10.11,739.28,-3.44,0.56,90.72,0
2020-03-25T04:07:00-05:00,91.97,10.15,739.28,-5.05,0.27,85.61,0
2020-03-25T04:08:00-05:00,92.1,10.16,738.08,-3.44,0.55,64.7,0
2020-03-25T04:09:00-05:00,91.58,10.11,738.74,-3.14,0.89,48.52,0
2020-03-25T04:10:00-05:00,91.29,10.06,737.2,-5.2,0.82,44.49,0
2020-03-25T04:11:00-05:00,91.28,10.01,737.67,-4.91,0.91,54.48,0
2020-03-25T04:12:00-05:00,91.41,9.96,737.17,-4.76,0.8,48.24,0
2020-03-25T04:13:00-05:00,91.64,9.93,737.1,-5.05,0.76,52.66,0
2020-03-25T04:14:00-05:00,92,9.88,736.97,-5.35,0.78,56.68,0
2020-03-25T04:15:00-05:00,91.86,9.85,736.67,-4.32,0.62,45.79,0
2020-03-25T04:16:00-05:00,91.7,9.79,736.9,-5.49,0.73,33.98,0
2020-03-25T04:17:00-05:00,91.81,9.75,736.6,-4.32,0.83,40.33,0
2020-03-25T04:18:00-05:00,92.04,9.7,737.41,-3.14,0.59,101.29,0
2020-03-25T04:19:00-05:00,92.34,9.71,736.33,-5.05,0.61,116.11,0
2020-03-25T04:20:00-05:00,92.46,9.71,736.23,-3.14,0.58,36.95,0
2020-03-25T04:21:00-05:00,92.33,9.65,737.14,-4.17,0.68,98.31,0
2020-03-25T04:22:00-05:00,92.73,9.66,735.8,-4.32,0.57,91.75,0
2020-03-25T04:23:00-05:00,92.81,9.66,736.3,-4.32,0.41,63.76,0
2020-03-25T04:24:00-05:00,92.68,9.65,736.8,-4.17,0.58,40.64,0
2020-03-25T04:25:00-05:00,91.76,9.59,736.47,-4.61,0.96,29.61,0
2020-03-25T04:26:00-05:00,91.44,9.53,736.03,-4.02,0.86,34.98,0
2020-03-25T04:27:00-05:00,91.68,9.51,735.6,-3.58,0.87,48.7,0
2020-03-25T04:28:00-05:00,91.69,9.47,735.63,-3.88,0.86,47.53,0
2020-03-25T04:29:00-05:00,91.81,9.47,736.8,-4.02,0.85,37.48,0
2020-03-25T04:30:00-05:00,92.06,9.51,735.77,-2.85,1.23,31.52,0
2020-03-25T04:31:00-05:00,92.08,9.49,736.6,-1.38,1.14,46.5,0
2020-03-25T04:32:00-05:00,92.32,9.53,736,-2.26,1.27,39.15,0
2020-03-25T04:33:00-05:00,92,9.51,736.6,-2.55,0.71,53.48,0
2020-03-25T04:34:00-05:00,92.07,9.51,735.53,-2.26,1.58,55.65,0
2020-03-25T04:35:00-05:00,91.99,9.55,737.14,-1.38,0.92,65.53,0
2020-03-25T04:36:00-05:00,91.38,9.57,735.9,-0.35,0.96,72.94,0
2020-03-25T04:37:00-05:00,91.35,9.59,736.07,-2.26,1.12,73.43,0
2020-03-25T04:38:00-05:00,91.11,9.66,736.23,-0.79,0.81,59.42,0
2020-03-25T04:39:00-05:00,91.03,9.69,736.5,-2.7,0.85,59.17,0
2020-03-25T04:40:00-05:00,90.75,9.69,737.27,-0.49,0.95,50.25,0
2020-03-25T04:41:00-05:00,90.42,9.7,737.1,-0.64,1.05,72.35,0
2020-03-25T04:42:00-05:00,90.53,9.71,736.9,-1.67,0.71,56.96,0
2020-03-25T04:43:00-05:00,90.85,9.7,736.33,-2.85,0.84,59.71,0
2020-03-25T04:44:00-05:00,90.78,9.71,737.17,-1.67,0.81,61.01,0
2020-03-25T04:45:00-05:00,90.83,9.69,736.13,-1.38,0.91,59.03,0
2020-03-25T04:46:00-05:00,90.68,9.69,737.04,-3.73,1.12,88.03,0
2020-03-25T04:47:00-05:00,90.75,9.69,736.87,-1.67,0.75,99.92,0
2020-03-25T04:48:00-05:00,90.81,9.68,736.87,-3.14,0.48,89.04,0
2020-03-25T04:49:00-05:00,90.61,9.67,736.84,-4.02,0.32,50.52,0
2020-03-25T04:50:00-05:00,90.67,9.67,737.14,-5.2,0.75,46.16,0
2020-03-25T04:51:00-05:00,90.58,9.64,736.74,-3.73,0.69,49.42,0
2020-03-25T04:52:00-05:00,90.79,9.64,736.17,-2.55,0.73,45.14,0
2020-03-25T04:53:00-05:00,90.76,9.62,737,-4.17,0.67,41.2,0
2020-03-25T04:54:00-05:00,90.63,9.57,735.97,-2.85,0.96,47.6,0
2020-03-25T04:55:00-05:00,90.91,9.57,735.46,-2.99,0.89,50.33,0
2020-03-25T04:56:00-05:00,91.27,9.57,736.07,-4.02,0.79,49.6,0
2020-03-25T04:57:00-05:00,91.3,9.54,736.43,-4.91,0.54,52.44,0
2020-03-25T04:58:00-05:00,91.47,9.51,735.63,-4.46,0.62,42.17,0
2020-03-25T04:59:00-05:00,91.58,9.5,734.83,-5.05,0.52,66.04,0
2020-03-25T05:00:00-05:00,91.64,9.46,735.43,-2.99,0.63,87.66,0
2020-03-25T05:01:00-05:00,91.9,9.45,736.37,-3.44,0.41,70,0
2020-03-25T05:02:00-05:00,91.84,9.46,736.07,-4.17,0.57,41.26,0
2020-03-25T05:03:00-05:00,91.88,9.43,735.46,-2.99,0.61,50.7,0
2020-03-25T05:04:00-05:00,92.03,9.41,735.36,-4.91,0.59,35.41,0
2020-03-25T05:05:00-05:00,92.18,9.4,735.23,-3.29,0.67,46.13,0
2020-03-25T05:06:00-05:00,92.08,9.38,734.96,-2.85,1.01,45.32,0
2020-03-25T05:07:00-05:00,91.96,9.39,735.97,-4.02,1.12,61.85,0
2020-03-25T05:08:00-05:00,91.73,9.37,734.76,-2.7,0.66,49.31,0
2020-03-25T05:09:00-05:00,91.5,9.37,734.9,-3.88,0.82,58.1,0
2020-03-25T05:10:00-05:00,91.38,9.35,735.2,-3.44,0.66,94.07,0
2020-03-25T05:11:00-05:00,91.12,9.33,734.83,-2.41,0.55,126.21,0
2020-03-25T05:12:00-05:00,90.88,9.33,734.59,-3.44,1.19,58.23,0
2020-03-25T05:13:00-05:00,90.77,9.33,734.86,-2.55,0.67,66.52,0
2020-03-25T05:14:00-05:00,90.56,9.33,735.93,-4.46,0.7,88.11,0
2020-03-25T05:15:00-05:00,90.02,9.31,734.53,-2.7,0.65,87.54,0
2020-03-25T05:16:00-05:00,89.69,9.33,734.73,-4.32,1.57,79.52,0
2020-03-25T05:17:00-05:00,89.67,9.32,734.66,-3.44,1.05,93.87,0
2020-03-25T05:18:00-05:00,89.33,9.31,735.23,-4.02,1.12,69.44,0
2020-03-25T05:19:00-05:00,88.82,9.31,735.5,-4.02,0.9,51.77,0
2020-03-25T05:20:00-05:00,88.57,9.31,734.96,-3.14,1.53,48.92,0
2020-03-25T05:21:00-05:00,88.43,9.3,734.63,-2.11,1.07,57.09,0
2020-03-25T05:22:00-05:00,88.21,9.29,734.66,-2.41,2.04,62.04,0
2020-03-25T05:23:00-05:00,88.25,9.25,734.53,-2.26,1.27,59.3,0
2020-03-25T05:24:00-05:00,88.42,9.26,734.66,-2.99,2.32,68.97,0
2020-03-25T05:25:00-05:00,88.37,9.27,735.03,-2.99,1.01,53.77,0
2020-03-25T05:26:00-05:00,89.14,9.28,735,-2.26,1.13,95.92,0
2020-03-25T05:27:00-05:00,89.66,9.31,735.13,-2.99,0.96,55.62,0
2020-03-25T05:28:00-05:00,90.36,9.46,735.1,-2.55,2.25,41.14,0
2020-03-25T05:29:00-05:00,89.47,9.68,736.1,-1.23,0.75,60.2,0
2020-03-25T05:30:00-05:00,88.74,9.79,735.73,0.53,0.59,73.65,0
2020-03-25T05:31:00-05:00,87.94,9.81,736,-0.94,1.84,38.39,0
2020-03-25T05:32:00-05:00,87.61,9.77,736.4,-1.97,0.52,74.75,0
2020-03-25T05:33:00-05:00,87.87,9.76,735.77,-1.82,1.77,66.06,0
2020-03-25T05:34:00-05:00,87.68,9.77,736.64,-1.52,1.16,93.22,0
2020-03-25T05:35:00-05:00,87.55,9.79,737.47,-0.94,2.78,66.66,0
2020-03-25T05:36:00-05:00,87.71,9.88,737.14,-0.05,2.92,63.99,0
2020-03-25T05:37:00-05:00,87.15,9.93,737.34,-0.49,0.58,337.54,0
2020-03-25T05:38:00-05:00,86.56,9.95,736.7,-0.35,1.45,35.93,0
2020-03-25T05:39:00-05:00,86.48,9.98,738.08,1.42,2.15,30.36,0
2020-03-25T05:40:00-05:00,86.26,10,737.2,0.24,0.76,39.16,0
2020-03-25T05:41:00-05:00,86.41,10.02,738.14,-0.05,0.64,45.06,0
2020-03-25T05:42:00-05:00,86.47,10.01,737.31,0.39,1.39,46.17,0
2020-03-25T05:43:00-05:00,86.42,10.05,737.54,0.24,0.6,26.06,0
2020-03-25T05:44:00-05:00,86.4,10.06,737.81,0.39,1.25,76.74,0
2020-03-25T05:45:00-05:00,86.49,10.07,738.98,-1.23,1.53,37.69,0
2020-03-25T05:46:00-05:00,86.7,10.11,739.15,1.42,0.83,57.27,0
2020-03-25T05:47:00-05:00,86.28,10.19,738.61,0.24,1.52,51.23,0
2020-03-25T05:48:00-05:00,86.52,10.24,738.54,-0.05,0.74,67.82,0
2020-03-25T05:49:00-05:00,86.03,10.32,738.98,1.71,0.9,56.76,0
2020-03-25T05:50:00-05:00,85.71,10.34,739.55,1.56,0.77,91.1,0
2020-03-25T05:51:00-05:00,85.53,10.38,738.61,1.56,0.28,72.89,0
2020-03-25T05:52:00-05:00,85.69,10.4,738.74,-0.79,0.64,74.08,0
2020-03-25T05:53:00-05:00,85.61,10.43,738.58,1.12,0.48,42.51,0
2020-03-25T05:54:00-05:00,85.93,10.42,739.88,1.71,0.73,80,0
2020-03-25T05:55:00-05:00,85.69,10.44,739.88,-0.2,0.72,97.59,0
2020-03-25T05:56:00-05:00,85.59,10.46,740.12,2.45,0.91,54.95,0
2020-03-25T05:57:00-05:00,86.13,10.46,740.49,2.3,0.79,57.13,0
2020-03-25T05:58:00-05:00,85.57,10.5,739.31,1.71,0.55,217.91,0
2020-03-25T05:59:00-05:00,85.61,10.5,739.18,0.98,0.57,124.72,0
2020-03-25T06:00:00-05:00,85.68,10.5,739.95,1.86,0.7,229.1,0
2020-03-25T06:01:00-05:00,85.59,10.5,740.28,3.18,0.57,256.84,0
2020-03-25T06:02:00-05:00,85.61,10.5,739.45,1.86,0.12,186.01,0
2020-03-25T06:03:00-05:00,85.87,10.48,739.92,3.03,0.64,69.94,0
2020-03-25T06:04:00-05:00,86.05,10.45,739.95,4.21,0.11,348.48,0
2020-03-25T06:05:00-05:00,86.23,10.42,739.98,2.59,0.31,241.18,0
2020-03-25T06:06:00-05:00,86.62,10.4,738.54,4.8,0.39,74.81,0
2020-03-25T06:07:00-05:00,86.76,10.38,738.98,4.65,0.56,30.97,0
2020-03-25T06:08:00-05:00,86.72,10.36,739.62,7.74,0.12,107.7,0
2020-03-25T06:09:00-05:00,86.89,10.34,739.28,8.62,0.52,172.52,0
2020-03-25T06:10:00-05:00,87.04,10.34,739.25,10.24,0.41,168.1,0
2020-03-25T06:11:00-05:00,87.01,10.34,739.08,9.94,0.57,175.15,0
2020-03-25T06:12:00-05:00,86.78,10.34,739.01,14.21,0.54,182.1,0
2020-03-25T06:13:00-05:00,86.8,10.35,738.48,15.53,0.53,172.16,0
2020-03-25T06:14:00-05:00,86.53,10.35,739.55,17,0.56,126.68,0
2020-03-25T06:15:00-05:00,86.66,10.36,738.98,15.97,0.54,55.01,0
2020-03-25T06:16:00-05:00,86.38,10.33,739.55,20.09,0.45,112.39,0
2020-03-25T06:17:00-05:00,86.44,10.34,739.38,18.47,0.55,169.08,0
2020-03-25T06:18:00-05:00,86.26,10.35,738.71,19.35,0.48,151.17,0
2020-03-25T06:19:00-05:00,86.32,10.32,739.62,20.38,0.54,176.08,0
2020-03-25T06:20:00-05:00,86.25,10.37,739.01,24.65,0.56,153.19,0
2020-03-25T06:21:00-05:00,86.34,10.36,738.41,25.09,0.59,143.19,0
2020-03-25T06:22:00-05:00,86.28,10.34,738.81,26.56,0.59,145.59,0
2020-03-25T06:23:00-05:00,86.43,10.35,738.61,28.32,0.63,181.1,0
2020-03-25T06:24:00-05:00,86.43,10.36,738.68,27.29,0.67,176.43,0
2020-03-25T06:25:00-05:00,86.56,10.34,739.28,28.17,0.6,165.15,0
2020-03-25T06:26:00-05:00,86.67,10.35,739.72,25.97,0.65,146.6,0
2020-03-25T06:27:00-05:00,86.8,10.34,739.88,26.41,0.61,105.37,0
2020-03-25T06:28:00-05:00,86.8,10.32,739.41,28.03,0.61,72.42,0
2020-03-25T06:29:00-05:00,86.65,10.32,738.51,28.17,0.69,91.36,0
2020-03-25T06:30:00-05:00,86.72,10.34,738.28,29.35,0.62,140.25,0
2020-03-25T06:31:00-05:00,86.69,10.32,738.01,30.09,0.33,148.2,0
2020-03-25T06:32:00-05:00,86.39,10.32,738.78,31.7,0.62,205.01,0
2020-03-25T06:33:00-05:00,86.44,10.34,739.15,30.82,0.52,159.41,0
2020-03-25T06:34:00-05:00,86.63,10.32,739.31,30.09,0.58,105.66,0
2020-03-25T06:35:00-05:00,86.9,10.3,738.61,31.11,0.56,95.81,0
2020-03-25T06:36:00-05:00,86.82,10.3,738.24,31.85,0.6,77.59,0
2020-03-25T06:37:00-05:00,86.76,10.28,738.98,33.91,0.59,77.68,0
2020-03-25T06:38:00-05:00,87.01,10.27,738.88,35.67,0.74,93.25,0
2020-03-25T06:39:00-05:00,87.06,10.26,739.38,36.26,0.71,93.84,0
2020-03-25T06:40:00-05:00,86.96,10.24,739.31,35.82,0.74,82.09,0
2020-03-25T06:41:00-05:00,87.03,10.27,738.18,38.32,0.82,77.27,0
2020-03-25T06:42:00-05:00,86.76,10.26,739.48,39.94,0.56,111.73,0
2020-03-25T06:43:00-05:00,86.84,10.28,738.01,39.79,0.59,115.05,0
2020-03-25T06:44:00-05:00,86.46,10.32,738.28,39.79,0.67,115.29,0
2020-03-25T06:45:00-05:00,86.2,10.38,738.78,41.7,0.69,98.17,0
2020-03-25T06:46:00-05:00,85.96,10.44,739.41,42.14,0.78,126.77,0
2020-03-25T06:47:00-05:00,85.84,10.46,738.68,43.47,0.62,132.57,0
2020-03-25T06:48:00-05:00,85.92,10.46,738.74,44.79,0.66,113.2,0
2020-03-25T06:49:00-05:00,85.98,10.5,739.21,43.47,0.6,102.1,0
2020-03-25T06:50:00-05:00,85.68,10.49,740.02,46.55,0.45,173.14,0
2020-03-25T06:51:00-05:00,85.85,10.52,740.25,45.38,0.48,199.99,0
2020-03-25T06:52:00-05:00,85.9,10.52,740.32,48.02,0.56,207.01,0
2020-03-25T06:53:00-05:00,85.72,10.51,739.01,48.32,0.62,199.99,0
2020-03-25T06:54:00-05:00,86,10.51,739.28,50.52,0.63,217.9,0
2020-03-25T06:55:00-05:00,86,10.47,739.68,49.35,0.62,180.13,0
2020-03-25T06:56:00-05:00,86.27,10.46,740.49,51.99,0.61,168.1,0
2020-03-25T06:57:00-05:00,86.22,10.46,740.32,51.7,0.57,144.22,0
2020-03-25T06:58:00-05:00,86.14,10.46,740.69,54.05,0.58,142.47,0
2020-03-25T06:59:00-05:00,85.98,10.47,740.65,53.17,0.59,124.29,0
2020-03-25T07:00:00-05:00,86.13,10.49,740.28,54.93,0.72,109.81,0
2020-03-25T07:01:00-05:00,86.14,10.48,740.18,70.96,0.56,117.37,0
2020-03-25T07:02:00-05:00,85.93,10.52,740.08,142.71,0.66,116.53,0
2020-03-25T07:03:00-05:00,85.53,10.6,739.45,188.58,0.58,132.27,0
2020-03-25T07:04:00-05:00,84.85,10.71,737.97,190.78,0.4,150.56,0
2020-03-25T07:05:00-05:00,84.24,10.84,737.71,195.19,0.58,152.17,0
2020-03-25T07:06:00-05:00,83.8,10.98,737.84,197.69,0.59,136.47,0
2020-03-25T07:07:00-05:00,83.13,11.13,736.74,201.07,0.22,159.17,0
2020-03-25T07:08:00-05:00,82.42,11.32,737.51,205.49,0.08,174.38,0
2020-03-25T07:09:00-05:00,83.48,11.54,736.84,209.31,0.24,32.93,0
2020-03-25T07:10:00-05:00,83.22,11.85,737.84,213.28,0.59,61.32,0
2020-03-25T07:11:00-05:00,82.24,12.13,737.27,216.36,0.45,11.85,0
2020-03-25T07:12:00-05:00,80.77,12.35,737.87,218.42,0.67,38.23,0
2020-03-25T07:13:00-05:00,78.84,12.45,737.57,223.27,0.57,36.86,0
2020-03-25T07:14:00-05:00,77.75,12.53,737.37,231.07,0.9,57.01,0
2020-03-25T07:15:00-05:00,77.47,12.53,737.97,238.12,0.75,54.56,0
2020-03-25T07:16:00-05:00,76.95,12.61,737.37,243.56,0.59,43.24,0
2020-03-25T07:17:00-05:00,77.11,12.69,737.47,254,0.69,61.72,0
2020-03-25T07:18:00-05:00,76.42,12.73,737.04,177.55,0.86,58.58,0
2020-03-25T07:19:00-05:00,76.19,12.71,736.9,190.78,1.04,52.81,0
2020-03-25T07:20:00-05:00,77.44,12.7,737,254.3,0.55,51.1,0
2020-03-25T07:21:00-05:00,77.99,12.72,736.54,210.34,0.91,24.66,0
2020-03-25T07:22:00-05:00,76.96,12.78,736.67,177.7,0.6,32.14,0
2020-03-25T07:23:00-05:00,77.74,12.85,736.5,204.01,0.6,14.54,0
2020-03-25T07:24:00-05:00,76.24,12.91,736.57,242.98,0.26,44.93,0
2020-03-25T07:25:00-05:00,77.57,13.08,737.64,298.7,0.7,64.23,0
2020-03-25T07:26:00-05:00,75.42,13.18,737.37,256.94,0.56,55.54,0
2020-03-25T07:27:00-05:00,75.01,13.3,736.47,305.17,0.14,338.55,0
2020-03-25T07:28:00-05:00,73.89,13.32,737.34,311.49,0.71,54.79,0
2020-03-25T07:29:00-05:00,74.23,13.32,736.87,319.13,0.59,24.8,0
2020-03-25T07:30:00-05:00,74.87,13.38,738.21,326.19,0.97,42.24,0
2020-03-25T07:31:00-05:00,75.79,13.48,738.18,336.78,0.25,49.48,0
2020-03-25T07:32:00-05:00,72.92,13.46,738.74,330.31,1.05,29.01,0
2020-03-25T07:33:00-05:00,73.53,13.44,739.48,268.26,0.93,44.5,0
2020-03-25T07:34:00-05:00,73.84,13.47,737.64,280.03,0.93,22.16,0
2020-03-25T07:35:00-05:00,74.27,13.55,736.03,245.62,0.9,46.68,0
2020-03-25T07:36:00-05:00,74.5,13.65,736.84,291.2,0.79,51.25,0
2020-03-25T07:37:00-05:00,74.39,13.71,736.43,330.31,0.79,66.17,0
2020-03-25T07:38:00-05:00,73.24,13.7,736.97,273.7,0.63,45.4,0
2020-03-25T07:39:00-05:00,73.07,13.68,736.87,374.42,0.62,47.65,0
2020-03-25T07:40:00-05:00,73.24,13.73,737.64,378.53,1.01,45.64,0
2020-03-25T07:41:00-05:00,71.76,13.65,736.8,411.17,0.72,55.09,0
2020-03-25T07:42:00-05:00,72.15,13.61,736.6,434.4,0.6,116.49,0
2020-03-25T07:43:00-05:00,73.85,13.62,736.2,398.53,0.8,53.07,0
2020-03-25T07:44:00-05:00,73.55,13.56,736.8,351.33,0.94,38.53,0
2020-03-25T07:45:00-05:00,73.39,13.48,737.61,370.3,1.37,68.15,0
2020-03-25T07:46:00-05:00,73.89,13.46,737.27,398.82,0.59,66.34,0
2020-03-25T07:47:00-05:00,74.49,13.44,737.51,270.62,0.85,71.27,0
2020-03-25T07:48:00-05:00,74.57,13.48,737.27,257.53,0.83,72.06,0
2020-03-25T07:49:00-05:00,74.82,13.48,736.64,249.15,0.83,67.97,0
2020-03-25T07:50:00-05:00,74.9,13.45,737.81,246.65,0.79,54.76,0
2020-03-25T07:51:00-05:00,74.27,13.42,737.04,256.06,0.75,28.96,0
2020-03-25T07:52:00-05:00,74.83,13.34,736.9,266.79,0.63,35.95,0
2020-03-25T07:53:00-05:00,74.87,13.32,737.47,227.54,1.14,76.49,0
2020-03-25T07:54:00-05:00,75.14,13.28,737.61,210.48,0.12,107.09,0
2020-03-25T07:55:00-05:00,74.51,13.25,737.41,207.84,0.81,69.74,0
2020-03-25T07:56:00-05:00,74.93,13.23,736.8,213.13,1.76,46.33,0
2020-03-25T07:57:00-05:00,75.32,13.13,736.77,217.1,0.29,192.32,0
2020-03-25T07:58:00-05:00,76.33,13.1,736.97,263.56,0.61,50.31,0
2020-03-25T07:59:00-05:00,76.63,13.08,737.34,244.3,0.83,336.86,0
2020-03-25T08:00:00-05:00,77.07,13.09,737.27,253.56,0.39,98.76,0
2020-03-25T08:01:00-05:00,76.38,13.12,736.77,311.05,0.68,73.7,0
2020-03-25T08:02:00-05:00,76.18,13.08,737.31,331.48,0.53,66.78,0
2020-03-25T08:03:00-05:00,76.8,13.12,736.5,298.85,0.42,64.97,0
2020-03-25T08:04:00-05:00,76.22,13.14,737.07,273.7,0.61,108.93,0
2020-03-25T08:05:00-05:00,75.07,13.14,738.44,272.09,0.66,77.15,0
2020-03-25T08:06:00-05:00,74.76,13.14,738.34,257.97,0.42,178.01,0
2020-03-25T08:07:00-05:00,77.19,13.2,736.54,253.86,0.3,181.07,0
2020-03-25T08:08:00-05:00,77.07,13.24,736.8,255.47,0.27,261.73,0
2020-03-25T08:09:00-05:00,75.18,13.28,736.9,262.68,0.43,133.29,0
2020-03-25T08:10:00-05:00,75.3,13.3,736.8,270.91,0.61,124.59,0
2020-03-25T08:11:00-05:00,75.65,13.33,737.51,277.67,0.29,189.05,0
2020-03-25T08:12:00-05:00,76.66,13.38,736.1,284.44,0.29,136.54,0
2020-03-25T08:13:00-05:00,77.9,13.45,737.41,301.2,0.23,266.77,0
2020-03-25T08:14:00-05:00,78.08,13.51,736.97,300.76,0.44,41.72,0
2020-03-25T08:15:00-05:00,75.08,13.57,737.04,308.11,0.63,44.5,0
2020-03-25T08:16:00-05:00,76.45,13.66,737.57,408.08,0.32,246.11,0
2020-03-25T08:17:00-05:00,75.9,13.76,738.18,310.02,0.24,242.82,0
2020-03-25T08:18:00-05:00,75.68,13.82,738.11,311.19,0.28,207.28,0
2020-03-25T08:19:00-05:00,75.34,13.9,739.41,329.28,0.6,234.84,0
2020-03-25T08:20:00-05:00,72.48,13.88,738.48,327.22,0.54,254.76,0
2020-03-25T08:21:00-05:00,74.49,13.92,738.41,324.28,0.68,236.8,0
2020-03-25T08:22:00-05:00,73.91,13.94,739.25,329.43,0.57,238.86,0
2020-03-25T08:23:00-05:00,75.95,13.96,738.28,320.31,0.62,226.15,0
2020-03-25T08:24:00-05:00,76.67,13.99,738.95,328.25,0.91,245.03,0
2020-03-25T08:25:00-05:00,75.37,14,738.64,352.8,0.54,279.66,0
2020-03-25T08:26:00-05:00,74.94,14.04,740.18,415.29,0.43,190.01,0
2020-03-25T08:27:00-05:00,75.41,14.12,738.51,367.65,0.19,221.89,0
2020-03-25T08:28:00-05:00,75.5,14.2,736.57,368.83,0.23,219.88,0
2020-03-25T08:29:00-05:00,74.77,14.29,736.67,355.45,0.41,202.28,0
2020-03-25T08:30:00-05:00,74.31,14.26,737.27,310.31,0.62,197.99,0
2020-03-25T08:31:00-05:00,72.32,14.2,737.44,295.02,0.59,153.51,0
2020-03-25T08:32:00-05:00,73.23,14.18,737.67,293.11,0.54,214.94,0
2020-03-25T08:33:00-05:00,75.21,14.16,737.77,294.88,0.97,228.17,0
2020-03-25T08:34:00-05:00,73.56,14.15,737.64,306.64,0.6,237.79,0
2020-03-25T08:35:00-05:00,75.45,14.2,737.64,319.13,0.29,263.04,0
2020-03-25T08:36:00-05:00,73.9,14.24,737,325.01,0.26,297.6,0
2020-03-25T08:37:00-05:00,73.5,14.3,736.67,326.63,0.22,270.99,0
2020-03-25T08:38:00-05:00,72.92,14.37,737.41,333.54,0.29,303.61,0
2020-03-25T08:39:00-05:00,72.27,14.41,737.64,336.63,0.23,7.33,0
2020-03-25T08:40:00-05:00,71.16,14.45,737.14,336.34,0.22,307.63,0
2020-03-25T08:41:00-05:00,71.3,14.55,737.24,328.98,0.52,272.7,0
2020-03-25T08:42:00-05:00,71.51,14.59,736.6,323.99,0.65,192.98,0
2020-03-25T08:43:00-05:00,69.62,14.54,737.04,320.31,0.17,179.12,0
2020-03-25T08:44:00-05:00,70.42,14.55,736.97,327.37,0.06,198.98,0
2020-03-25T08:45:00-05:00,72.37,14.59,737.87,331.93,0.35,238.87,0
2020-03-25T08:46:00-05:00,73.75,14.63,737.97,328.4,0.51,239.86,0
2020-03-25T08:47:00-05:00,73.62,14.69,737.47,328.4,0.52,212.87,0
2020-03-25T08:48:00-05:00,71.46,14.67,736.8,325.01,1.12,237.13,0
2020-03-25T08:49:00-05:00,71.49,14.64,737.57,316.78,0.73,242.8,0
2020-03-25T08:50:00-05:00,71.05,14.65,737.07,314.72,0.31,157.56,0
2020-03-25T08:51:00-05:00,72.82,14.66,738.38,320.02,0.23,277.7,0
2020-03-25T08:52:00-05:00,73.47,14.73,736.4,321.19,0.68,301.98,0
2020-03-25T08:53:00-05:00,71.23,14.73,736.4,314.72,0.56,325.58,0
2020-03-25T08:54:00-05:00,70.43,14.72,737.87,312.96,0.44,16.31,0
2020-03-25T08:55:00-05:00,69.62,14.67,736.94,314.72,0.56,30.56,0
2020-03-25T08:56:00-05:00,70.85,14.71,737.14,318.99,0.26,53.27,0
2020-03-25T08:57:00-05:00,71.58,14.79,737.27,321.49,0.23,189.32,0
2020-03-25T08:58:00-05:00,72.27,14.87,738.68,328.1,0.3,238.1,0
2020-03-25T08:59:00-05:00,72.36,14.93,738.64,332.07,0.73,280.62,0
2020-03-25T09:00:00-05:00,71.25,14.95,737.44,340.45,0.54,233.86,0
2020-03-25T09:01:00-05:00,71.05,14.97,737.07,344.13,0.58,216.9,0
2020-03-25T09:02:00-05:00,70.6,14.89,736.67,362.21,0.56,244.76,0
2020-03-25T09:03:00-05:00,71.81,14.87,736.84,378.24,1.37,240.83,0
2020-03-25T09:04:00-05:00,71.71,14.82,736,372.5,0.63,197.01,0
2020-03-25T09:05:00-05:00,71.55,14.81,737.41,362.51,0.34,249.03,0
2020-03-25T09:06:00-05:00,72.47,14.83,736.8,356.04,0.27,233.88,0
2020-03-25T09:07:00-05:00,70.3,14.88,737.34,357.36,0.59,282.09,0
2020-03-25T09:08:00-05:00,68.68,14.9,738.54,356.63,0.56,110.42,0
2020-03-25T09:09:00-05:00,68.78,14.9,737.47,351.63,0.59,127.53,0
2020-03-25T09:10:00-05:00,68.51,14.92,738.28,347.36,0.34,120.22,0
2020-03-25T09:11:00-05:00,70.09,14.99,737.41,349.86,0.59,161.44,0
2020-03-25T09:12:00-05:00,68.23,14.98,738.01,351.77,0.55,216.89,0
2020-03-25T09:13:00-05:00,67.8,14.97,736.5,365.45,0.59,211.27,0
2020-03-25T09:14:00-05:00,67.97,14.93,735.77,372.65,0.63,184.99,0
2020-03-25T09:15:00-05:00,69.04,14.89,736.33,384.85,0.58,176.07,0
2020-03-25T09:16:00-05:00,69.14,14.83,735.23,382.65,0.32,135.23,0
2020-03-25T09:17:00-05:00,68.39,14.86,737.37,393.23,0.56,61.18,0
2020-03-25T09:18:00-05:00,68.92,14.88,737.41,409.7,0.53,44.28,0
2020-03-25T09:19:00-05:00,68.85,14.92,738.38,433.67,0.37,328.54,0
2020-03-25T09:20:00-05:00,69.58,15.01,739.28,473.8,0.53,104.41,0
2020-03-25T09:21:00-05:00,70.8,15.13,738.85,477.77,0.38,4.66,0
2020-03-25T09:22:00-05:00,68.13,15.25,736.74,470.42,0.66,314.56,0
2020-03-25T09:23:00-05:00,68.27,15.31,737,465.28,0.5,277.69,0
2020-03-25T09:24:00-05:00,70.1,15.41,737.61,432.2,0.65,345.83,0
2020-03-25T09:25:00-05:00,68.85,15.51,737.44,349.13,1.06,37.01,0
2020-03-25T09:26:00-05:00,68.17,15.54,737.71,281.35,0.55,322.89,0
2020-03-25T09:27:00-05:00,67.94,15.63,737.77,320.46,0.66,345.49,0
2020-03-25T09:28:00-05:00,67.32,15.64,737.1,280.47,0.59,14.75,0
2020-03-25T09:29:00-05:00,68.18,15.65,737.67,285.02,0.7,58.76,0
2020-03-25T09:30:00-05:00,68.47,15.6,737.07,315.46,0.65,320.92,0
2020-03-25T09:31:00-05:00,69.4,15.68,737.41,296.79,0.14,40.99,0
2020-03-25T09:32:00-05:00,69.29,15.74,738.88,298.99,0.59,357.7,0
2020-03-25T09:33:00-05:00,67.76,15.77,738.11,283.7,0.44,125.2,0
2020-03-25T09:34:00-05:00,68.91,15.82,738.34,274.88,0.56,242.82,0
2020-03-25T09:35:00-05:00,69.11,15.87,737.74,282.23,0.51,133.22,0
2020-03-25T09:36:00-05:00,70.04,15.93,738.38,233.27,0.39,275.75,0
2020-03-25T09:37:00-05:00,68.39,15.98,737.44,225.77,0.57,41.81,0
2020-03-25T09:38:00-05:00,69.18,16.02,737.74,237.83,0.37,213.96,0
2020-03-25T09:39:00-05:00,69.22,16.04,737.61,262.09,0.57,210.91,0
2020-03-25T09:40:00-05:00,70.48,16.01,737.91,313.25,0.61,201.91,0
2020-03-25T09:41:00-05:00,66.43,15.9,737.17,456.6,0.83,237.77,0
2020-03-25T09:42:00-05:00,66.9,15.82,735.8,384.12,0.75,241.82,0
2020-03-25T09:43:00-05:00,68.55,15.78,736.27,469.83,0.63,225.24,0
2020-03-25T09:44:00-05:00,68.32,15.78,736.5,1038.37,1.97,239.83,0
2020-03-25T09:45:00-05:00,67.24,15.78,737.1,702.57,0.73,241.19,0
2020-03-25T09:46:00-05:00,68.69,15.81,735.87,756.68,0.55,225.85,0
2020-03-25T09:47:00-05:00,70.82,15.88,738.18,327.81,0.75,195.26,0
2020-03-25T09:48:00-05:00,67.67,15.9,738.88,312.08,0.25,335.57,0
2020-03-25T09:49:00-05:00,67.12,15.96,738.41,318.4,1.15,242.15,0
2020-03-25T09:50:00-05:00,69.28,15.96,738.24,355.6,0.59,246.72,0
2020-03-25T09:51:00-05:00,68,15.95,737.77,321.49,0.33,254.73,0
2020-03-25T09:52:00-05:00,68.64,16,738.48,309.14,0.6,246.72,0
2020-03-25T09:53:00-05:00,68.51,16.04,737.81,312.22,0.7,237.79,0
2020-03-25T09:54:00-05:00,69.11,16.07,737.04,295.02,0.98,221.89,0
2020-03-25T09:55:00-05:00,67.34,16.02,737.44,296.64,1.37,237.75,0
2020-03-25T09:56:00-05:00,69.82,16,737.31,324.43,0.62,201.93,0
2020-03-25T09:57:00-05:00,70.16,15.98,737.47,856.36,0.71,224.87,0
2020-03-25T09:58:00-05:00,66.21,15.96,738.18,1149.82,1.3,223.89,0
2020-03-25T09:59:00-05:00,64.88,15.94,738.08,647,0.58,16.93,0
2020-03-25T10:00:00-05:00,65.94,16.02,739.21,847.39,0.58,255.12,0
2020-03-25T10:01:00-05:00,69.11,16.13,738.48,1199.51,0.94,251.76,0
2020-03-25T10:02:00-05:00,70.31,16.36,741.12,1190.98,0.84,228.21,0
2020-03-25T10:03:00-05:00,68.93,16.58,737.47,415.14,0.69,256.79,0
2020-03-25T10:04:00-05:00,65.11,16.62,737.51,705.22,0.76,208.34,0
2020-03-25T10:05:00-05:00,66.8,16.61,737.44,357.36,0.84,218.2,0
2020-03-25T10:06:00-05:00,65.21,16.57,737.71,936.63,0.79,202.28,0
2020-03-25T10:07:00-05:00,65.69,16.63,736.67,543.05,0.96,239.85,0
2020-03-25T10:08:00-05:00,66.96,16.74,736.27,893.7,0.59,241.25,0
2020-03-25T10:09:00-05:00,68.77,16.88,737.24,377.21,1.09,226.82,0
2020-03-25T10:10:00-05:00,67.94,16.99,737.24,589.95,0.54,253.76,0
2020-03-25T10:11:00-05:00,63.56,17.02,737.31,313.11,0.77,206.97,0
2020-03-25T10:12:00-05:00,63.89,16.94,737.31,320.16,0.66,227.82,0
2020-03-25T10:13:00-05:00,62.96,16.92,737.17,1217.74,1.54,230.9,0
2020-03-25T10:14:00-05:00,63.7,16.91,736.67,388.68,0.93,243.79,0
2020-03-25T10:15:00-05:00,65.38,16.88,736.43,373.97,1.46,281.74,0
2020-03-25T10:16:00-05:00,65.42,16.86,736,425.14,1.08,224.92,0
2020-03-25T10:17:00-05:00,63.83,16.8,736.67,1161.58,1.15,236.79,0
2020-03-25T10:18:00-05:00,64.27,16.82,737,536.73,0.64,239.83,0
2020-03-25T10:19:00-05:00,64.37,16.84,736.3,1279.2,0.59,213.22,0
2020-03-25T10:20:00-05:00,67.67,17,736.6,1122.91,0.7,235.81,0
2020-03-25T10:21:00-05:00,62.71,17.16,736.97,604.07,0.4,109.46,0
2020-03-25T10:22:00-05:00,64.16,17.27,736.47,414.7,1.08,226.83,0
2020-03-25T10:23:00-05:00,66.91,17.35,736.27,458.66,1.01,187.3,0
2020-03-25T10:24:00-05:00,62.53,17.35,736.07,352.07,1.99,235.77,0
2020-03-25T10:25:00-05:00,63.27,17.25,734.96,313.99,1,221.22,0
2020-03-25T10:26:00-05:00,64.25,17.16,735.56,307.67,1.8,226.86,0
2020-03-25T10:27:00-05:00,62.97,17.04,734.39,317.52,2.59,229.77,0
2020-03-25T10:28:00-05:00,62.4,16.94,734.39,640.82,0.99,208.93,0
2020-03-25T10:29:00-05:00,63.61,16.92,734.33,620.39,0.83,259.76,0
2020-03-25T10:30:00-05:00,66.07,16.98,735.67,699.93,0.85,202.93,0
2020-03-25T10:31:00-05:00,63.31,17.04,735.97,515.41,1.35,252.78,0
2020-03-25T10:32:00-05:00,63.72,17.1,735.13,455.43,0.82,232.88,0
2020-03-25T10:33:00-05:00,63.95,17.16,734.93,436.16,0.56,236.8,0
2020-03-25T10:34:00-05:00,63.76,17.22,735.7,435.58,0.59,286.65,0
2020-03-25T10:35:00-05:00,62.91,17.23,735.6,428.67,1.82,237.79,0
2020-03-25T10:36:00-05:00,63.09,17.26,736.03,419.55,0.58,268.13,0
2020-03-25T10:37:00-05:00,63.19,17.28,735.3,566.87,0.65,205,0
2020-03-25T10:38:00-05:00,64.94,17.29,735.87,485.27,0.61,245.14,0
2020-03-25T10:39:00-05:00,65.33,17.36,736.3,489.24,0.77,261.07,0
2020-03-25T10:40:00-05:00,66.84,17.41,735.53,444.4,0.92,179.44,0
2020-03-25T10:41:00-05:00,61.58,17.41,735.97,371.03,0.77,335.57,0
2020-03-25T10:42:00-05:00,60.63,17.36,735.67,362.95,0.83,220.26,0
2020-03-25T10:43:00-05:00,60.74,17.31,734.96,405.73,0.59,215.89,0
2020-03-25T10:44:00-05:00,62.81,17.32,735.46,415.14,0.47,192.25,0
2020-03-25T10:45:00-05:00,63.6,17.35,736.1,429.55,1.54,191.96,0
2020-03-25T10:46:00-05:00,60.35,17.33,736.03,1325.07,0.75,340.47,0
2020-03-25T10:47:00-05:00,63.19,17.47,736.87,1327.42,0.58,250.75,0
2020-03-25T10:48:00-05:00,65.27,17.72,739.41,1335.51,1.47,257.76,0
2020-03-25T10:49:00-05:00,65.69,17.99,736.33,1109.24,0.14,206.95,0
2020-03-25T10:50:00-05:00,60.48,18.15,737.1,715.66,0.64,344.5,0
2020-03-25T10:51:00-05:00,64,18.34,735.87,612.89,0.71,213.98,0
2020-03-25T10:52:00-05:00,59.98,18.47,736.8,846.8,0.59,217.89,0
2020-03-25T10:53:00-05:00,58.9,18.6,736.64,586.13,1.25,211.91,0
2020-03-25T10:54:00-05:00,58.13,18.5,736.97,824.9,0.65,262.67,0
2020-03-25T10:55:00-05:00,58.55,18.5,736.13,431.17,1.02,212.26,0
2020-03-25T10:56:00-05:00,60.63,18.49,735.93,430.87,2.21,194.86,0
2020-03-25T10:57:00-05:00,61.23,18.39,736.07,977.8,1.02,222.29,0
2020-03-25T10:58:00-05:00,63.91,18.45,736.7,500.27,0.21,216.91,0
2020-03-25T10:59:00-05:00,61.96,18.54,735.8,1166.58,0.51,177.4,0
2020-03-25T11:00:00-05:00,57.77,18.64,736.54,1224.95,0.62,72.32,0
2020-03-25T11:01:00-05:00,56.7,18.78,736.13,581.42,2.95,45.21,0
2020-03-25T11:02:00-05:00,58.21,18.74,736.5,360.01,0.81,291.7,0
2020-03-25T11:03:00-05:00,61.27,18.84,737.2,335.6,0.59,251.79,0
2020-03-25T11:04:00-05:00,59.75,18.94,737.14,342.22,0.49,273.74,0
2020-03-25T11:05:00-05:00,58.51,19.03,737.1,386.32,0.16,194.92,0
2020-03-25T11:06:00-05:00,56.57,19.13,738.18,1336.24,0.47,146.42,0
2020-03-25T11:07:00-05:00,57.53,19.23,739.65,418.96,0.59,126.15,0
2020-03-25T11:08:00-05:00,55.4,19.27,735.77,402.5,0.85,347.46,0
2020-03-25T11:09:00-05:00,54.12,19.16,736.87,399.12,0.79,38.25,0
2020-03-25T11:10:00-05:00,54.89,19.08,735.53,421.46,0.55,151.15,0
2020-03-25T11:11:00-05:00,55.61,19.01,735.93,524.09,0.86,160.11,0
2020-03-25T11:12:00-05:00,56.65,18.94,735.53,447.78,0.24,5.01,0
2020-03-25T11:13:00-05:00,57.45,19,736.8,405,0.45,318.87,0
2020-03-25T11:14:00-05:00,58.16,19.1,736.4,374.42,0.67,243.16,0
2020-03-25T11:15:00-05:00,58.41,19.11,736.4,353.83,1.32,211.89,0
2020-03-25T11:16:00-05:00,58.52,19.02,735.87,334.13,0.6,242.17,0
2020-03-25T11:17:00-05:00,57.61,18.88,736.6,323.99,5.51,34.4,0
2020-03-25T11:18:00-05:00,55.42,18.58,735.8,317.08,0.83,346.82,0
2020-03-25T11:19:00-05:00,56.8,18.39,736.8,320.6,2.82,353.48,0
2020-03-25T11:20:00-05:00,57.74,18.36,735.63,326.49,0.87,188.07,0
2020-03-25T11:21:00-05:00,58.01,18.3,736.4,342.51,2.22,63.45,0
2020-03-25T11:22:00-05:00,59.02,18.22,736.23,350.3,1.12,30.27,0
2020-03-25T11:23:00-05:00,57.61,18.19,735.26,420.29,3.78,45.62,0
2020-03-25T11:24:00-05:00,57.08,18.08,733.66,886.94,1.34,335.57,0
2020-03-25T11:25:00-05:00,57.85,18.08,735.1,552.61,2.25,349.44,0
2020-03-25T11:26:00-05:00,57.08,18.09,735.2,524.82,1.42,48.67,0
2020-03-25T11:27:00-05:00,57.93,18.1,735.23,506.88,0.16,287.62,0
2020-03-25T11:28:00-05:00,58.77,18.21,735.53,689.49,0.7,38.75,0
2020-03-25T11:29:00-05:00,59.93,18.31,735.8,410.14,0.91,283.06,0
2020-03-25T11:30:00-05:00,61.3,18.44,735.9,402.79,0.7,110.37,0
2020-03-25T11:31:00-05:00,56.34,18.43,734.69,409.55,1.35,37.16,0
2020-03-25T11:32:00-05:00,55.76,18.43,734.69,408.38,2.93,32.63,0
2020-03-25T11:33:00-05:00,56.26,18.37,735.36,392.5,2.35,53.95,0
2020-03-25T11:34:00-05:00,56.18,18.35,734.66,359.57,1.77,357.44,0
2020-03-25T11:35:00-05:00,57.88,18.39,733.79,329.13,0.33,250.15,0
2020-03-25T11:36:00-05:00,60.2,18.48,734.69,306.05,0.22,293.66,0
2020-03-25T11:37:00-05:00,56.65,18.54,734.26,291.64,0.69,287.9,0
2020-03-25T11:38:00-05:00,58.62,18.57,733.72,272.97,0.62,231.89,0
2020-03-25T11:39:00-05:00,57.71,18.59,732.55,268.85,2.54,203.93,0
2020-03-25T11:40:00-05:00,55.55,18.37,731.31,262.82,0.21,184,0
2020-03-25T11:41:00-05:00,55.9,18.33,736.37,257.38,0.56,278.66,0
2020-03-25T11:42:00-05:00,56.14,18.34,735.56,247.39,2.58,87.64,0
2020-03-25T11:43:00-05:00,55.62,18.25,735.7,241.65,1.34,27.92,0
2020-03-25T11:44:00-05:00,56.26,18.23,736.33,240.62,1.71,48.68,0
2020-03-25T11:45:00-05:00,55.59,18.2,735.56,251.94,0.8,33.87,0
2020-03-25T11:46:00-05:00,55.98,18.16,736.03,254.15,0.69,56.2,0
2020-03-25T11:47:00-05:00,57.13,18.14,735.63,255.47,2.16,33.65,0
2020-03-25T11:48:00-05:00,57.35,18.13,735.46,264.29,0.25,52.48,0
2020-03-25T11:49:00-05:00,57.81,18.13,735.33,275.32,1.29,38.76,0
2020-03-25T11:50:00-05:00,58.03,18.09,734.93,281.5,0.43,27.23,0
2020-03-25T11:51:00-05:00,59.82,18.11,733.59,296.49,0.6,195.91,0
2020-03-25T11:52:00-05:00,61.86,18.15,734.16,311.19,0.6,284.03,0
2020-03-25T11:53:00-05:00,60.83,18.18,735.36,325.01,0.64,246.72,0
2020-03-25T11:54:00-05:00,61.51,18.21,734.83,354.86,0.69,266.12,0
2020-03-25T11:55:00-05:00,60.23,18.25,734.13,387.35,0.61,277.66,0
2020-03-25T11:56:00-05:00,61.68,18.31,735.63,1234.8,0.53,213.96,0
2020-03-25T11:57:00-05:00,60.86,18.45,735.97,1273.9,1.24,239.8,0
2020-03-25T11:58:00-05:00,61.02,18.63,737.84,948.25,2.28,250.79,0
2020-03-25T11:59:00-05:00,60.08,18.78,738.44,361.62,0.97,220.85,0
2020-03-25T12:00:00-05:00,59.31,18.86,738.24,279.88,0.71,236.8,0
2020-03-25T12:01:00-05:00,60.7,18.88,734.79,265.18,0.84,254.72,0
2020-03-25T12:02:00-05:00,57.29,18.88,736.2,267.38,0.57,303.6,0
2020-03-25T12:03:00-05:00,57.73,18.86,735.13,273.26,0.32,270.69,0
2020-03-25T12:04:00-05:00,59.04,18.83,735.56,279.73,0.37,206.01,0
2020-03-25T12:05:00-05:00,57.53,18.82,735,278.26,0.31,62.9,0
2020-03-25T12:06:00-05:00,57.38,18.88,735.9,282.53,0.67,343.51,0
2020-03-25T12:07:00-05:00,58.32,18.87,735.53,274,0.54,213.23,0
2020-03-25T12:08:00-05:00,58.66,18.92,735.16,259.88,0.11,251.75,0
2020-03-25T12:09:00-05:00,59.76,18.97,735.26,232.83,0.55,288.93,0
2020-03-25T12:10:00-05:00,62.03,19.01,736.13,214.6,0.97,224.9,0
2020-03-25T12:11:00-05:00,59.44,18.98,735.5,186.22,0.62,182.4,0
2020-03-25T12:12:00-05:00,57.67,18.94,735.03,174.17,0.59,238.84,0
2020-03-25T12:13:00-05:00,56.66,18.85,735.43,175.35,0.58,226.16,0
2020-03-25T12:14:00-05:00,55.79,18.74,734.16,174.32,0.63,231.89,0
2020-03-25T12:15:00-05:00,57.25,18.66,733.96,173.14,0.33,164.14,0
2020-03-25T12:16:00-05:00,59.99,18.62,733.32,177.26,0.47,142.76,0
2020-03-25T12:17:00-05:00,60.58,18.62,734.26,179.17,0.49,253.73,0
2020-03-25T12:18:00-05:00,59.89,18.64,733.86,179.61,0.48,194.93,0
2020-03-25T12:19:00-05:00,59.48,18.62,732.62,178.87,0.27,191,0
2020-03-25T12:20:00-05:00,60.89,18.64,733.56,166.67,0.3,264.81,0
2020-03-25T12:21:00-05:00,60.71,18.64,732.72,152.7,0.32,232.84,0
2020-03-25T12:22:00-05:00,60.31,18.61,732.22,145.94,0.5,336.54,0
2020-03-25T12:23:00-05:00,60.83,18.62,733.32,138.15,0.31,9.1,0
2020-03-25T12:24:00-05:00,60.13,18.63,732.42,133.15,0.17,311.94,0
2020-03-25T12:25:00-05:00,60.69,18.69,733.56,124.92,0.18,282.7,0
2020-03-25T12:26:00-05:00,62.91,18.73,732.82,119.04,0.26,138.47,0
2020-03-25T12:27:00-05:00,64.44,18.72,732.62,115.07,0.44,151.2,0
2020-03-25T12:28:00-05:00,61.7,18.67,732.38,111.1,0.3,33.66,0
2020-03-25T12:29:00-05:00,61.38,18.64,732.15,108.16,0.26,171.39,0
2020-03-25T12:30:00-05:00,62.35,18.6,730.91,98.75,0.17,137.66,0
2020-03-25T12:31:00-05:00,60.93,18.54,732.55,97.42,0.58,98.74,0
2020-03-25T12:32:00-05:00,57.76,18.43,731.48,92.72,0.53,176.09,0
2020-03-25T12:33:00-05:00,59.95,18.36,734.96,94.34,0.28,207.97,0
2020-03-25T12:34:00-05:00,57.67,18.21,735.9,95.66,0.66,183.04,0
2020-03-25T12:35:00-05:00,57.04,18.11,735.53,98.89,0.21,247.81,0
2020-03-25T12:36:00-05:00,60.93,18.08,735.9,100.8,0.19,186.96,0
2020-03-25T12:37:00-05:00,58.01,18.08,735.67,102.72,0.74,38.25,0
2020-03-25T12:38:00-05:00,58.68,18.07,735.1,105.51,0.34,20.46,0
2020-03-25T12:39:00-05:00,59.53,18.07,734.83,109.48,2.08,313.54,0
2020-03-25T12:40:00-05:00,58.65,18.01,735.9,114.04,0.56,256.8,0
2020-03-25T12:41:00-05:00,60.91,17.97,735.8,119.77,1.63,57.14,0
2020-03-25T12:42:00-05:00,62.47,17.9,734.9,127.42,0.53,316.61,0
2020-03-25T12:43:00-05:00,59.54,17.85,734.56,133,1.33,40.15,0
2020-03-25T12:44:00-05:00,59.71,17.82,735.23,141.24,2.15,73.43,0
2020-03-25T12:45:00-05:00,60.03,17.76,735.5,143.74,0.56,334.93,0
2020-03-25T12:46:00-05:00,61.04,17.76,734.73,143,0.23,244.78,0
2020-03-25T12:47:00-05:00,62.15,17.79,735.9,140.21,0.76,17.55,0
2020-03-25T12:48:00-05:00,61.53,17.81,734.96,139.91,0.56,301.64,0
2020-03-25T12:49:00-05:00,62.45,17.83,735.16,141.97,0.79,23.67,0
2020-03-25T12:50:00-05:00,63.1,17.85,734.9,150.5,3.04,1.75,0
2020-03-25T12:51:00-05:00,60.86,17.83,735.16,156.09,0.85,27.09,0
2020-03-25T12:52:00-05:00,61.58,17.81,734.59,158.73,0.19,328.53,0
2020-03-25T12:53:00-05:00,60.39,17.81,734.23,161.23,0.68,12.57,0
2020-03-25T12:54:00-05:00,60.28,17.8,735.5,160.79,0.57,25.78,0
2020-03-25T12:55:00-05:00,61,17.81,734.79,163,2.15,0.79,0
2020-03-25T12:56:00-05:00,61.19,17.81,735.13,166.23,0.57,310.64,0
2020-03-25T12:57:00-05:00,60.85,17.81,735.56,167.41,1.63,34.01,0
2020-03-25T12:58:00-05:00,60.41,17.79,734.66,165.49,0.49,21.66,0
2020-03-25T12:59:00-05:00,59.8,17.81,733.49,161.67,0.7,336.54,0
2020-03-25T13:00:00-05:00,61.29,17.83,734.02,159.03,0.56,303.95,0
2020-03-25T13:01:00-05:00,60.58,17.84,735.46,159.03,0.4,339.52,0
2020-03-25T13:02:00-05:00,58.83,17.87,734.39,162.41,0.56,338.87,0
2020-03-25T13:03:00-05:00,61.57,17.89,735.23,161.97,0.26,167.42,0
2020-03-25T13:04:00-05:00,61.36,17.94,734.26,158.73,0.38,223.29,0
2020-03-25T13:05:00-05:00,61.15,17.95,734.46,156.53,0.23,244.8,0
2020-03-25T13:06:00-05:00,62.37,17.89,734.13,154.17,0.66,189.39,0
2020-03-25T13:07:00-05:00,66.78,17.81,732.62,152.56,0.56,163.19,0
2020-03-25T13:08:00-05:00,65.6,17.75,733.39,154.76,0.66,202.23,0
2020-03-25T13:09:00-05:00,67.9,17.72,732.92,157.7,0.53,336.52,0
2020-03-25T13:10:00-05:00,63.81,17.69,733.52,170.64,2.51,46.35,0
2020-03-25T13:11:00-05:00,61.32,17.67,733.59,177.7,0.22,1.74,0
2020-03-25T13:12:00-05:00,62.34,17.71,733.02,178.29,0.54,173.08,0
2020-03-25T13:13:00-05:00,60.63,17.73,732.32,180.34,1.31,31.19,0
2020-03-25T13:14:00-05:00,60.42,17.69,733.19,181.67,2.56,28.55,0
2020-03-25T13:15:00-05:00,60.19,17.7,732.15,180.49,2.07,29.46,0
2020-03-25T13:16:00-05:00,59.22,17.69,732.05,184.9,2.65,7.4,0
2020-03-25T13:17:00-05:00,60.16,17.67,732.89,188.58,0.58,38.58,0
2020-03-25T13:18:00-05:00,60.08,17.67,732.05,189.46,2.42,9.11,0
2020-03-25T13:19:00-05:00,59.94,17.68,732.18,190.64,0.93,12.1,0
2020-03-25T13:20:00-05:00,61.22,17.69,732.38,190.19,0.57,202.92,0
2020-03-25T13:21:00-05:00,61.35,17.71,732.28,197.55,0.74,119.58,0
2020-03-25T13:22:00-05:00,61.25,17.71,732.95,214.16,0.86,293.68,0
2020-03-25T13:23:00-05:00,60.53,17.72,733.46,250.03,1.24,28.91,0
2020-03-25T13:24:00-05:00,60.82,17.76,733.32,219.89,0.3,350.58,0
2020-03-25T13:25:00-05:00,60.01,17.78,733.49,194.9,0.82,343.9,0
2020-03-25T13:26:00-05:00,60.02,17.77,732.65,188.43,1.38,36.15,0
2020-03-25T13:27:00-05:00,60.83,17.75,732.62,188.28,3.38,353.47,0
2020-03-25T13:28:00-05:00,60.65,17.65,731.98,182.26,2.19,49.99,0
2020-03-25T13:29:00-05:00,61.47,17.61,732.52,177.99,3.17,47.32,0
2020-03-25T13:30:00-05:00,61.46,17.57,731.38,172.99,2.86,352.51,0
2020-03-25T13:31:00-05:00,61.28,17.51,731.35,171.23,3.16,356.45,0
2020-03-25T13:32:00-05:00,61.75,17.43,731.08,169.46,2.48,22.12,0
2020-03-25T13:33:00-05:00,62.25,17.37,730.04,171.96,2.79,108.04,0
2020-03-25T13:34:00-05:00,63.23,17.32,734.39,168.58,2.65,47.65,0
2020-03-25T13:35:00-05:00,63.88,17.28,735.23,167.11,0.78,341.55,0
2020-03-25T13:36:00-05:00,63.81,17.25,734.9,165.35,2.25,39.04,0
2020-03-25T13:37:00-05:00,63.32,17.21,735.26,167.7,2.96,40.49,0
2020-03-25T13:38:00-05:00,63.33,17.16,734.43,168.44,3.51,21.65,0
2020-03-25T13:39:00-05:00,62.9,17.09,733.89,166.23,2.46,22.35,0
2020-03-25T13:40:00-05:00,63.44,17.05,734.83,160.35,2.34,55.08,0
2020-03-25T13:41:00-05:00,63.82,17,733.89,155.79,4.68,30.65,0
2020-03-25T13:42:00-05:00,63.69,16.98,734.53,142.41,2.82,44.76,0
2020-03-25T13:43:00-05:00,64.32,16.94,732.99,127.86,2.76,355.48,0
2020-03-25T13:44:00-05:00,64.58,16.92,732.85,114.92,1.37,52.56,0
2020-03-25T13:45:00-05:00,64.88,16.88,733.49,109.92,4.69,42.14,0
2020-03-25T13:46:00-05:00,64.67,16.79,732.45,109.63,3.66,49.62,0
2020-03-25T13:47:00-05:00,63.95,16.73,731.88,112.13,3.81,58.44,0
2020-03-25T13:48:00-05:00,64.37,16.68,732.02,106.69,2.48,6.88,0
2020-03-25T13:49:00-05:00,64.94,16.63,731.21,95.07,2.41,60.82,0
2020-03-25T13:50:00-05:00,64.62,16.58,731.72,84.48,3.22,54.03,0
2020-03-25T13:51:00-05:00,64.72,16.52,731.25,69.64,2.31,6.74,0
2020-03-25T13:52:00-05:00,65.41,16.48,730.28,60.67,1.42,13.55,0
2020-03-25T13:53:00-05:00,65.12,16.41,730.07,59.93,3.76,55,0
2020-03-25T13:54:00-05:00,65.34,16.38,734.39,57.58,1.72,7.68,0
2020-03-25T13:55:00-05:00,65.51,16.36,734.66,60.81,3.04,92.37,0
2020-03-25T13:56:00-05:00,65.62,16.32,734.53,61.25,2.68,1.75,0
2020-03-25T13:57:00-05:00,65.29,16.29,734.26,65.37,0.47,18.55,0
2020-03-25T13:58:00-05:00,65.64,16.26,734.33,76.4,3.07,37.95,0
2020-03-25T13:59:00-05:00,65.77,16.24,735.06,86.98,2.55,34.12,0
2020-03-25T14:00:00-05:00,66.27,16.24,734.13,95.36,2.53,60.62,0
2020-03-25T14:01:00-05:00,66.25,16.23,733.96,103.16,2.42,83.93,0
2020-03-25T14:02:00-05:00,66.17,16.21,734.02,104.33,3.3,51.04,0
2020-03-25T14:03:00-05:00,65.59,16.18,735.33,103.16,1.68,24.93,0
2020-03-25T14:04:00-05:00,65.9,16.18,734.96,95.95,4.95,33.76,0
2020-03-25T14:05:00-05:00,65.99,16.16,734.93,90.37,1.42,27.63,0
2020-03-25T14:06:00-05:00,67.51,16.13,734.02,83.16,3.66,56.46,0
2020-03-25T14:07:00-05:00,67.34,16.1,734.16,67.72,0.77,207.01,0
2020-03-25T14:08:00-05:00,67.03,16.04,735.3,55.67,2.98,106.02,0
2020-03-25T14:09:00-05:00,68.04,15.96,735.23,51.99,2.73,86.89,0
2020-03-25T14:10:00-05:00,67.81,15.87,734.49,50.38,2.01,9.05,0
2020-03-25T14:11:00-05:00,69.25,15.82,734.59,48.46,1.95,66.87,0
2020-03-25T14:12:00-05:00,68.4,15.76,734.13,44.79,1.84,53.25,0
2020-03-25T14:13:00-05:00,70.07,15.72,733.42,44.05,3.02,45.29,0
2020-03-25T14:14:00-05:00,69.8,15.64,733.42,43.91,0.67,287.66,0
2020-03-25T14:15:00-05:00,70.63,15.58,733.02,46.55,3.18,51.61,0
2020-03-25T14:16:00-05:00,70.68,15.53,732.55,46.85,1.28,75.97,0
2020-03-25T14:17:00-05:00,70.9,15.48,732.32,53.17,3.71,78.35,0
2020-03-25T14:18:00-05:00,72.44,15.42,732.25,59.49,2.81,16.35,0
2020-03-25T14:19:00-05:00,70.74,15.38,732.22,70.08,1.01,26.93,0
2020-03-25T14:20:00-05:00,71.02,15.35,730.84,80.96,0.7,96.41,0
2020-03-25T14:21:00-05:00,71.9,15.31,731.95,90.07,0.66,126.2,0
2020-03-25T14:22:00-05:00,70.6,15.28,731.78,94.92,3.46,69.07,0
2020-03-25T14:23:00-05:00,71.85,15.27,730.68,99.04,2.67,59.43,0
2020-03-25T14:24:00-05:00,72.45,15.23,731.01,98.3,2.81,51,0
2020-03-25T14:25:00-05:00,71.79,15.23,730.78,98.6,1.77,53.17,0
2020-03-25T14:26:00-05:00,72.69,15.16,731.38,96.54,2.64,50.75,0
2020-03-25T14:27:00-05:00,70.02,15.15,730.34,94.48,2.47,105.03,0
2020-03-25T14:28:00-05:00,71.12,15.19,730.31,91.54,1.93,62.79,0
2020-03-25T14:29:00-05:00,71.38,15.2,730.71,90.22,2.11,38.74,0
2020-03-25T14:30:00-05:00,71.67,15.19,730.14,88.6,0.47,65.99,0
2020-03-25T14:31:00-05:00,72.85,15.21,731.15,88.01,0.74,64.34,0
2020-03-25T14:32:00-05:00,74.87,15.2,730.61,85.95,0.88,127.74,0
2020-03-25T14:33:00-05:00,74.51,15.11,735.13,77.87,3.65,31.33,0
2020-03-25T14:34:00-05:00,73.52,15.11,733.79,70.66,1.44,97.66,0
2020-03-25T14:35:00-05:00,74.01,15.09,735.1,64.49,2.28,57.11,0
2020-03-25T14:36:00-05:00,73.14,15.07,735.13,63.31,0.55,34.28,0
2020-03-25T14:37:00-05:00,71.9,15.06,735.13,60.96,1.13,102.5,0
2020-03-25T14:38:00-05:00,70.07,15.09,734.16,61.7,0.14,212.87,0
2020-03-25T14:39:00-05:00,69.74,15.15,734.69,61.4,2.57,132.79,0
2020-03-25T14:40:00-05:00,71.21,15.18,734.06,63.02,1.54,67.91,0
2020-03-25T14:41:00-05:00,71.43,15.14,733.96,62.14,2.65,133,0
2020-03-25T14:42:00-05:00,72.57,15.13,734.73,60.67,0.57,68.51,0
2020-03-25T14:43:00-05:00,72.28,15.11,734.59,59.93,0.23,254.73,0
2020-03-25T14:44:00-05:00,74.59,15.09,734.26,57.87,1.73,50.81,0
2020-03-25T14:45:00-05:00,74.98,14.99,733.46,56.84,2.61,42.45,0.1
2020-03-25T14:46:00-05:00,74.98,14.97,734.79,56.26,1.53,122.4,0
2020-03-25T14:47:00-05:00,75.1,14.88,734.63,60.81,2.42,34.54,0
2020-03-25T14:48:00-05:00,75.26,14.82,733.56,63.75,2.05,51.89,0
2020-03-25T14:49:00-05:00,75.84,14.77,733.79,68.75,2.19,47.12,0
2020-03-25T14:50:00-05:00,75.32,14.74,734.39,70.96,2.75,48.66,0
2020-03-25T14:51:00-05:00,74.21,14.7,734.46,71.84,3.09,51.28,0
2020-03-25T14:52:00-05:00,72.94,14.71,734.49,71.69,2.24,82.7,0
2020-03-25T14:53:00-05:00,72.71,14.72,733.15,69.34,1.93,52.72,0
2020-03-25T14:54:00-05:00,72.31,14.75,734.39,64.2,2.72,54.01,0
2020-03-25T14:55:00-05:00,72.41,14.76,734.06,57.58,2.73,127.18,0
2020-03-25T14:56:00-05:00,72.3,14.79,734.33,51.99,2.58,49.35,0
2020-03-25T14:57:00-05:00,74,14.77,734.23,48.32,0.64,107.17,0
2020-03-25T14:58:00-05:00,72.84,14.78,734.39,46.7,0.91,17.54,0
2020-03-25T14:59:00-05:00,72.42,14.84,734.23,42,1.7,62.96,0
2020-03-25T15:00:00-05:00,72.22,14.86,734.69,42.44,0.63,58.48,0
2020-03-25T15:01:00-05:00,72.17,14.88,734.23,41.26,0.72,72.39,0
2020-03-25T15:02:00-05:00,71.91,14.89,734.13,43.76,1.22,84.84,0
2020-03-25T15:03:00-05:00,72.25,14.9,734.63,47.43,1.03,112.32,0
2020-03-25T15:04:00-05:00,73.4,14.91,735.1,53.9,0.58,66.52,0
2020-03-25T15:05:00-05:00,72.4,14.91,734.36,59.78,0.22,203.92,0
2020-03-25T15:06:00-05:00,74.43,14.9,734.46,64.93,0.86,217.91,0
2020-03-25T15:07:00-05:00,77.21,14.83,734.63,70.96,0.87,207.01,0
2020-03-25T15:08:00-05:00,78.16,14.72,734.96,75.22,0.74,193.95,0
2020-03-25T15:09:00-05:00,79.53,14.63,735.1,79.63,0.75,174.14,0
2020-03-25T15:10:00-05:00,81.01,14.56,734.23,80.37,0.65,201.94,0
2020-03-25T15:11:00-05:00,82.05,14.47,734.69,76.55,0.66,23.03,0
2020-03-25T15:12:00-05:00,83.35,14.41,733.69,72.43,0.66,181.07,0
2020-03-25T15:13:00-05:00,84.26,14.31,733.52,71.25,0.56,137.49,0
2020-03-25T15:14:00-05:00,84.36,14.25,733.52,72.72,0.85,185,0
2020-03-25T15:15:00-05:00,84.39,14.19,734.26,72.72,0.28,97.77,0
2020-03-25T15:16:00-05:00,84.84,14.15,733.49,73.31,0.37,61.68,0
2020-03-25T15:17:00-05:00,84.16,14.14,732.92,73.75,0.68,322.89,0
2020-03-25T15:18:00-05:00,83.79,14.12,734.26,77.13,0.63,338.78,0
2020-03-25T15:19:00-05:00,83.7,14.13,733.69,80.96,0.63,337.87,0
2020-03-25T15:20:00-05:00,83.65,14.13,734.46,85.51,0.64,321.56,0
2020-03-25T15:21:00-05:00,83.98,14.12,734.96,89.92,0.59,351.55,0
2020-03-25T15:22:00-05:00,84.08,14.12,734.26,93.6,0.66,339.5,0
2020-03-25T15:23:00-05:00,84.93,14.16,735,98.75,0.69,342.58,0
2020-03-25T15:24:00-05:00,84.64,14.16,735.06,100.8,0.58,3.72,0
2020-03-25T15:25:00-05:00,84.79,14.18,735.46,98.89,0.64,337.53,0
2020-03-25T15:26:00-05:00,84.61,14.18,735.43,92.87,0.23,305.59,0
2020-03-25T15:27:00-05:00,85.41,14.22,734.86,86.1,0.31,9.99,0
2020-03-25T15:28:00-05:00,86.57,14.25,735.53,81.99,0.55,356.49,0
2020-03-25T15:29:00-05:00,86.11,14.27,734.73,79.19,0.56,355.47,0
2020-03-25T15:30:00-05:00,85.73,14.25,735.06,80.37,0.6,35.79,0
2020-03-25T15:31:00-05:00,85.95,14.26,735.63,80.07,0.69,21.76,0
2020-03-25T15:32:00-05:00,85.95,14.22,736.23,81.99,1.07,68.9,0
2020-03-25T15:33:00-05:00,86.31,14.12,736.13,84.19,1.68,36.94,0
2020-03-25T15:34:00-05:00,86.97,14.06,735.13,86.69,1.26,44.09,0
2020-03-25T15:35:00-05:00,87.25,14,735.97,89.34,0.8,34.21,0
2020-03-25T15:36:00-05:00,87.81,13.98,735.23,91.84,2.02,42.91,0
2020-03-25T15:37:00-05:00,87.04,13.9,735.46,95.22,2.24,63.49,0
2020-03-25T15:38:00-05:00,87.87,13.88,735.2,100.36,1.24,33.32,0.1
2020-03-25T15:39:00-05:00,88.46,13.87,735.5,105.07,2.34,63.13,0
2020-03-25T15:40:00-05:00,86.86,13.85,735.53,108.89,2.69,49.35,0
2020-03-25T15:41:00-05:00,86.98,13.88,734.13,109.48,2.15,49.37,0
2020-03-25T15:42:00-05:00,86.23,13.9,734.33,108.3,1.04,55.18,0
2020-03-25T15:43:00-05:00,84.59,13.91,734.39,108.01,1.99,68.65,0
2020-03-25T15:44:00-05:00,84.56,13.95,735,110.51,2.22,55.66,0
2020-03-25T15:45:00-05:00,85.22,13.98,733.99,112.71,2.38,75.32,0
2020-03-25T15:46:00-05:00,83.41,14,735.06,111.54,2.06,41.46,0
2020-03-25T15:47:00-05:00,83.84,14.04,734.46,111.83,2.66,50.01,0
2020-03-25T15:48:00-05:00,83.52,14.08,735.13,108.74,1.71,48.67,0
2020-03-25T15:49:00-05:00,83.81,14.08,733.96,104.63,1.85,52.03,0
2020-03-25T15:50:00-05:00,84.05,14.13,733.96,98.45,1.25,34.83,0
2020-03-25T15:51:00-05:00,82.72,14.17,734.69,98.3,1.4,53.71,0
2020-03-25T15:52:00-05:00,84.32,14.21,734.39,99.33,0.23,160.44,0
2020-03-25T15:53:00-05:00,86.84,14.26,734.43,105.22,0.49,169.43,0
2020-03-25T15:54:00-05:00,88.06,14.3,735.3,110.51,0.57,163.2,0
2020-03-25T15:55:00-05:00,88.48,14.32,735.33,117.56,0.23,163.53,0
2020-03-25T15:56:00-05:00,89.32,14.37,735.73,123.45,0.13,168.14,0
2020-03-25T15:57:00-05:00,90.02,14.41,735.9,129.03,0.55,87.89,0
2020-03-25T15:58:00-05:00,89.71,14.41,736,137.27,0.59,85.73,0
2020-03-25T15:59:00-05:00,88.55,14.37,736.77,144.62,0.69,46.6,0.1
2020-03-25T16:00:00-05:00,87.75,14.34,736.4,150.06,0.73,33.22,0
2020-03-25T16:01:00-05:00,86.54,14.31,737.57,157.41,0.81,60.18,0
2020-03-25T16:02:00-05:00,85.82,14.32,736.84,167.7,0.88,46.23,0
2020-03-25T16:03:00-05:00,83.38,14.35,736.97,174.17,0.95,37.9,0
2020-03-25T16:04:00-05:00,83.24,14.44,737.51,172.4,0.92,156.19,0
2020-03-25T16:05:00-05:00,83.13,14.53,737.14,174.32,0.73,176.09,0
2020-03-25T16:06:00-05:00,77.74,14.61,737.07,174.17,0.28,9.81,0
2020-03-25T16:07:00-05:00,80.99,14.73,737.71,179.76,0.2,212.86,0
2020-03-25T16:08:00-05:00,80.02,14.81,738.24,181.08,1.28,41.82,0
2020-03-25T16:09:00-05:00,77.94,14.87,734.86,176.08,1.82,43.68,0
2020-03-25T16:10:00-05:00,79.63,14.98,734.06,174.9,0.65,201.29,0
2020-03-25T16:11:00-05:00,79.18,15.01,733.66,169.61,0.72,118.54,0
2020-03-25T16:12:00-05:00,81.42,15.05,733.69,166.23,0.84,39.48,0
2020-03-25T16:13:00-05:00,81.6,15.06,734.59,157.11,0.63,88.17,0
2020-03-25T16:14:00-05:00,81.85,15.08,734.53,146.38,0.77,72.7,0
2020-03-25T16:15:00-05:00,80.94,15.11,735.06,137.71,0.62,97.25,0
2020-03-25T16:16:00-05:00,80.3,15.12,735.26,130.5,0.61,96.88,0
2020-03-25T16:17:00-05:00,81.23,15.16,734.16,125.5,0.73,144.2,0
2020-03-25T16:18:00-05:00,82.15,15.15,734.13,123.3,0.33,126.44,0
2020-03-25T16:19:00-05:00,84.48,15.19,734.96,131.53,0.5,90.28,0
2020-03-25T16:20:00-05:00,83.16,15.15,735.53,139.32,0.72,60.54,0
2020-03-25T16:21:00-05:00,82.94,15.13,734.86,150.65,0.57,32.43,0
2020-03-25T16:22:00-05:00,83.37,15.15,735.03,148,0.81,137.26,0
2020-03-25T16:23:00-05:00,80.21,15.13,735.93,139.03,0.17,177.03,0
2020-03-25T16:24:00-05:00,84.09,15.19,735.23,124.03,1.58,234.84,0
2020-03-25T16:25:00-05:00,84.85,15.21,736.2,113.3,0.59,212.16,0
2020-03-25T16:26:00-05:00,85.37,15.19,734.86,97.28,0.65,238.08,0
2020-03-25T16:27:00-05:00,85.05,15.18,735.46,75.52,0.55,258.14,0
2020-03-25T16:28:00-05:00,85.91,15.17,735.53,56.99,0.67,239.85,0
2020-03-25T16:29:00-05:00,86.02,15.1,734.26,48.91,0.65,261.07,0
2020-03-25T16:30:00-05:00,86.38,15.07,735.06,43.02,0.55,280.62,0
2020-03-25T16:31:00-05:00,86.53,15.03,735.16,40.08,0.83,249.19,0
2020-03-25T16:32:00-05:00,86.34,14.97,734.79,40.97,0.61,237.79,0
2020-03-25T16:33:00-05:00,86.7,14.91,734.23,40.97,0.59,241.18,0
2020-03-25T16:34:00-05:00,86.94,14.89,734.02,40.23,0.57,262.72,0
2020-03-25T16:35:00-05:00,87.15,14.86,732.82,42,0.56,247,0
2020-03-25T16:36:00-05:00,86.66,14.83,732.95,43.32,0.39,247.84,0
2020-03-25T16:37:00-05:00,87.12,14.79,732.89,44.94,0.42,191.01,0
2020-03-25T16:38:00-05:00,86.88,14.77,733.52,50.08,0.68,206.99,0
2020-03-25T16:39:00-05:00,85.81,14.7,732.85,51.26,0.56,268.72,0
2020-03-25T16:40:00-05:00,85.88,14.65,732.79,51.85,0.57,244.78,0
2020-03-25T16:41:00-05:00,85.86,14.63,732.22,54.2,0.2,208.95,0
2020-03-25T16:42:00-05:00,85.91,14.62,733.15,56.26,0.09,5.65,0
2020-03-25T16:43:00-05:00,86.17,14.61,733.32,59.2,0.57,232.84,0
2020-03-25T16:44:00-05:00,85.8,14.59,732.45,61.7,0.24,149.2,0
2020-03-25T16:45:00-05:00,86.87,14.59,733.29,64.05,0.18,144.21,0
2020-03-25T16:46:00-05:00,86.99,14.61,732.79,61.7,0.24,146.59,0
2020-03-25T16:47:00-05:00,86.33,14.6,733.39,60.67,0.51,184,0
2020-03-25T16:48:00-05:00,85.82,14.57,733.05,60.08,0.55,202.27,0
2020-03-25T16:49:00-05:00,87.08,14.61,732.08,56.26,0.34,233.83,0
2020-03-25T16:50:00-05:00,87.55,14.61,732.99,54.2,0.25,256.04,0
2020-03-25T16:51:00-05:00,87.74,14.6,732.89,55.08,0.57,260.75,0
2020-03-25T16:52:00-05:00,86.94,14.57,732.82,54.93,0.38,191.36,0
2020-03-25T16:53:00-05:00,86.12,14.53,732.65,53.9,0.28,228.82,0
2020-03-25T16:54:00-05:00,85.53,14.49,732.35,51.55,0.61,198.97,0
2020-03-25T16:55:00-05:00,85.47,14.47,732.65,49.93,0.62,206.99,0
2020-03-25T16:56:00-05:00,85.74,14.42,732.59,48.91,0.53,216.9,0
2020-03-25T16:57:00-05:00,86.38,14.43,731.51,47.58,0.48,235.84,0
2020-03-25T16:58:00-05:00,86.67,14.4,731.75,45.23,0.17,296.59,0
2020-03-25T16:59:00-05:00,86.66,14.39,731.45,42.44,0.47,210.22,0
2020-03-25T17:00:00-05:00,86.25,14.35,732.22,40.97,0.22,193.22,0
2020-03-25T17:01:00-05:00,86.77,14.32,731.98,41.85,0.6,189.03,0
2020-03-25T17:02:00-05:00,87.39,14.34,731.61,42.29,0.3,214.95,0
2020-03-25T17:03:00-05:00,87.79,14.33,731.25,41.26,0.39,182.08,0
2020-03-25T17:04:00-05:00,88.41,14.32,731.38,42.58,0.17,221.99,0
2020-03-25T17:05:00-05:00,88.81,14.32,731.55,44.35,0.46,203.24,0
2020-03-25T17:06:00-05:00,89.34,14.3,731.92,44.35,0.2,188.08,0
2020-03-25T17:07:00-05:00,89.07,14.28,731.61,44.35,0.38,174.47,0
2020-03-25T17:08:00-05:00,88.53,14.23,731.31,44.64,0.28,186.26,0
2020-03-25T17:09:00-05:00,88.64,14.22,731.78,44.2,0.62,216.29,0
2020-03-25T17:10:00-05:00,88.31,14.19,730.84,40.08,0.5,223.9,0
2020-03-25T17:11:00-05:00,88.73,14.2,731.25,38.61,0.47,192.36,0
2020-03-25T17:12:00-05:00,88.8,14.17,731.45,36.7,0.49,188.05,0
2020-03-25T17:13:00-05:00,88.66,14.14,730.64,36.41,1.19,216.94,0
2020-03-25T17:14:00-05:00,88.69,14.14,731.25,35.08,0.09,226.88,0
2020-03-25T17:15:00-05:00,88.66,14.12,730.58,33.47,0.06,328.54,0
2020-03-25T17:16:00-05:00,88.65,14.12,730.68,31.85,0.17,162.19,0
2020-03-25T17:17:00-05:00,88.88,14.09,730.11,30.82,0.3,182.04,0
2020-03-25T17:18:00-05:00,89.18,14.12,731.21,27.44,0.31,185.99,0
2020-03-25T17:19:00-05:00,88.98,14.12,730.98,27.73,0.56,191,0
2020-03-25T17:20:00-05:00,88.78,14.09,730.11,25.68,0.23,247.83,0
2020-03-25T17:21:00-05:00,88.96,14.08,730.68,25.09,0.56,179.16,0
2020-03-25T17:22:00-05:00,89.16,14.06,729.57,24.35,0.41,247.85,0
2020-03-25T17:23:00-05:00,89.07,14.05,729.81,22.15,0.5,184.03,0
2020-03-25T17:24:00-05:00,89.08,14.02,730.24,21.12,0.19,258.16,0
2020-03-25T17:25:00-05:00,89.38,14,730.18,23.18,0.44,206.01,0
2020-03-25T17:26:00-05:00,89.93,14,729.44,20.38,0.32,171.48,0
2020-03-25T17:27:00-05:00,90.05,13.98,729.84,19.79,0.24,168.1,0
2020-03-25T17:28:00-05:00,89.7,13.95,728.67,21.85,0.48,186.33,0
2020-03-25T17:29:00-05:00,89.36,13.9,729.17,18.18,0.57,201.97,0
2020-03-25T17:30:00-05:00,89.45,13.88,729.91,17.59,0.59,214.34,0
2020-03-25T17:31:00-05:00,89.67,13.86,729.64,18.47,0.46,136.19,0
2020-03-25T17:32:00-05:00,89.82,13.86,728.9,16.85,0.24,145.27,0
2020-03-25T17:33:00-05:00,89.83,13.85,735.36,15.09,0.57,152.41,0
2020-03-25T17:34:00-05:00,89.94,13.83,734.39,15.24,0.6,163.45,0
2020-03-25T17:35:00-05:00,89.9,13.82,734.56,15.53,0.57,176.09,0
2020-03-25T17:36:00-05:00,90.19,13.84,735.46,13.77,0.6,197.01,0
2020-03-25T17:37:00-05:00,90.29,13.82,734.26,15.24,0.56,158.2,0
2020-03-25T17:38:00-05:00,90.17,13.8,734.06,12.15,0.64,156.2,0
2020-03-25T17:39:00-05:00,90.09,13.78,734.16,13.18,0.57,160.17,0
2020-03-25T17:40:00-05:00,90.09,13.76,734.96,11.71,0.26,106.04,0
2020-03-25T17:41:00-05:00,90.43,13.75,734.73,10.68,0.62,74.68,0
2020-03-25T17:42:00-05:00,90.7,13.76,734.43,12.44,0.58,100.61,0
2020-03-25T17:43:00-05:00,90.66,13.74,735.26,10.68,0.58,56.78,0
2020-03-25T17:44:00-05:00,90.58,13.74,733.59,9.65,0.35,48.92,0
2020-03-25T17:45:00-05:00,90.65,13.73,734.59,10.09,0.59,74.18,0
2020-03-25T17:46:00-05:00,90.75,13.72,734.53,9.21,0.54,78.95,0
2020-03-25T17:47:00-05:00,90.25,13.69,734.36,10.24,0.63,97.43,0
2020-03-25T17:48:00-05:00,90.36,13.66,733.86,9.8,0.24,121.23,0
2020-03-25T17:49:00-05:00,90.37,13.68,733.72,10.83,0.58,123.43,0
2020-03-25T17:50:00-05:00,89.9,13.66,734.9,9.21,0.56,135.23,0
2020-03-25T17:51:00-05:00,89.83,13.64,733.89,9.06,0.69,121.47,0
2020-03-25T17:52:00-05:00,89.67,13.64,733.32,9.36,0.62,65.57,0
2020-03-25T17:53:00-05:00,89.58,13.64,733.99,8.33,0.59,133.22,0
2020-03-25T17:54:00-05:00,89.64,13.64,733.22,6.86,0.25,155.23,0
2020-03-25T17:55:00-05:00,89.91,13.66,732.99,7.59,0.18,85.83,0
2020-03-25T17:56:00-05:00,89.8,13.64,733.76,5.39,0.68,162.19,0
2020-03-25T17:57:00-05:00,89.62,13.62,733.89,4.21,0.37,88.19,0
2020-03-25T17:58:00-05:00,90.15,13.62,733.72,3.18,0.56,151.19,0
2020-03-25T17:59:00-05:00,90.08,13.6,733.52,3.62,0.63,156.19,0
2020-03-25T18:00:00-05:00,89.79,13.58,733.99,3.18,0.28,115.22,0
2020-03-25T18:01:00-05:00,89.85,13.56,731.98,1.27,0.59,94.03,0
2020-03-25T18:02:00-05:00,89.94,13.56,732.85,2.45,0.65,133.59,0
2020-03-25T18:03:00-05:00,89.83,13.53,732.15,3.03,0.47,136.19,0
2020-03-25T18:04:00-05:00,89.76,13.5,733.02,2.74,0.6,128.65,0
2020-03-25T18:05:00-05:00,89.93,13.49,732.25,4.8,0.63,138.28,0
2020-03-25T18:06:00-05:00,89.58,13.48,732.95,5.09,0.7,102.03,0
2020-03-25T18:07:00-05:00,89.71,13.46,732.75,5.09,0.57,78.13,0
2020-03-25T18:08:00-05:00,89.56,13.44,733.42,4.36,0.67,69.63,0
2020-03-25T18:09:00-05:00,89.02,13.42,732.32,3.92,0.56,62.8,0
2020-03-25T18:10:00-05:00,89.16,13.43,732.89,3.03,0.59,79.44,0
2020-03-25T18:11:00-05:00,89.08,13.4,732.59,3.92,0.57,67.55,0
2020-03-25T18:12:00-05:00,88.72,13.4,732.35,2.59,0.59,72.47,0
2020-03-25T18:13:00-05:00,88.06,13.4,731.95,-0.64,0.44,63.96,0
2020-03-25T18:14:00-05:00,88.35,13.42,731.35,-2.26,0.29,111.24,0
2020-03-25T18:15:00-05:00,87.56,13.4,731.85,-0.64,0.52,106.74,0
2020-03-25T18:16:00-05:00,86.88,13.39,731.31,-2.7,0.55,62.25,0
2020-03-25T18:17:00-05:00,86.98,13.42,731.98,-2.41,0.6,82.2,0
2020-03-25T18:18:00-05:00,87.01,13.4,731.05,-1.97,0.58,81.78,0
2020-03-25T18:19:00-05:00,86.5,13.42,732.52,-1.82,0.73,80.9,0
2020-03-25T18:20:00-05:00,86.28,13.44,732.18,-2.41,0.57,83.48,0
2020-03-25T18:21:00-05:00,86.52,13.46,732.02,-3.44,0.71,63.34,0
2020-03-25T18:22:00-05:00,87.03,13.44,730.91,-2.7,0.56,107.15,0
2020-03-25T18:23:00-05:00,87.11,13.41,731.98,-2.7,0.45,105.57,0
2020-03-25T18:24:00-05:00,87.37,13.4,730.71,-2.85,0.56,131.33,0
2020-03-25T18:25:00-05:00,87.56,13.34,730.41,-2.55,0.58,145.61,0
2020-03-25T18:26:00-05:00,87.78,13.32,731.61,-2.26,0.56,107.05,0
2020-03-25T18:27:00-05:00,87.94,13.28,731.35,-2.85,0.36,113.76,0
2020-03-25T18:28:00-05:00,88.11,13.26,731.41,-1.08,0.64,107.38,0
2020-03-25T18:29:00-05:00,88.2,13.22,730.51,-3.29,0.46,134.46,0
2020-03-25T18:30:00-05:00,88.29,13.2,730.44,-1.67,0.28,120.28,0
2020-03-25T18:31:00-05:00,88.29,13.18,731.18,-1.23,0.61,140.27,0
2020-03-25T18:32:00-05:00,88.52,13.17,731.75,-2.85,0.5,111.73,0
2020-03-25T18:33:00-05:00,88.39,13.16,730.41,-0.35,0.46,76.89,0
2020-03-25T18:34:00-05:00,88.4,13.14,730.54,-3.44,0.52,125.52,0
2020-03-25T18:35:00-05:00,88.33,13.12,730.38,-3.14,0.65,146.28,0
2020-03-25T18:36:00-05:00,87.91,13.12,731.05,-1.82,0.68,114.93,0
2020-03-25T18:37:00-05:00,87.17,13.16,730.91,-1.23,0.63,116.18,0
2020-03-25T18:38:00-05:00,86.94,13.2,731.25,-0.35,0.61,95.32,0
2020-03-25T18:39:00-05:00,87.3,13.2,731.58,-2.55,0.76,31.99,0
2020-03-25T18:40:00-05:00,88.29,13.22,730.88,-1.67,0.86,54.58,0
2020-03-25T18:41:00-05:00,88.05,13.18,731.28,-0.49,0.71,35.8,0
2020-03-25T18:42:00-05:00,88.35,13.16,730.54,-2.55,0.71,47.36,0
2020-03-25T18:43:00-05:00,88.17,13.16,730.11,-3.29,0.67,67.33,0
2020-03-25T18:44:00-05:00,87.86,13.14,730.14,-3.58,0.66,42.92,0
2020-03-25T18:45:00-05:00,88.25,13.16,731.18,-3.29,0.54,83.66,0
2020-03-25T18:46:00-05:00,87.43,13.15,735.06,-0.79,0.64,116.71,0
2020-03-25T18:47:00-05:00,87.45,13.14,734.83,-2.11,0.18,77.76,0
2020-03-25T18:48:00-05:00,87.57,13.14,734.36,-2.7,0.32,181.12,0
2020-03-25T18:49:00-05:00,87.26,13.11,734.73,-2.55,0.66,137.46,0
2020-03-25T18:50:00-05:00,86.99,13.12,735.93,-1.52,0.52,82.55,0
2020-03-25T18:51:00-05:00,87.12,13.13,735.83,-2.99,0.56,36.75,0
2020-03-25T18:52:00-05:00,88.15,13.13,735.87,-1.38,0.61,57.52,0
2020-03-25T18:53:00-05:00,87.23,13.1,735.97,-2.26,0.18,142.23,0
2020-03-25T18:54:00-05:00,86.88,13.09,735.93,-2.26,0.35,130.44,0
2020-03-25T18:55:00-05:00,86.6,13.1,735.93,-3.14,0.15,65.74,0
2020-03-25T18:56:00-05:00,86.54,13.1,735.63,-3.14,0.63,128.3,0
2020-03-25T18:57:00-05:00,86.23,13.14,735.3,-0.64,0.72,145.27,0
2020-03-25T18:58:00-05:00,85.75,13.17,736.3,-2.41,0.73,136.06,0
2020-03-25T18:59:00-05:00,85.54,13.22,735.53,-0.79,0.63,112.2,0
2020-03-25T19:00:00-05:00,85.5,13.21,736.13,-2.26,0.58,78.54,0
2020-03-25T19:01:00-05:00,85.37,13.24,735.26,-2.85,0.8,74.13,0
2020-03-25T19:02:00-05:00,85.35,13.21,735.03,-0.64,0.49,94.08,0
2020-03-25T19:03:00-05:00,85.49,13.22,734.59,-1.67,0.79,108.47,0
2020-03-25T19:04:00-05:00,85.96,13.24,735.53,-2.7,0.51,62.78,0
2020-03-25T19:05:00-05:00,86.08,13.21,734.93,-0.64,0.78,134.64,0
2020-03-25T19:06:00-05:00,85.91,13.22,734.46,-2.41,0.72,118.38,0
2020-03-25T19:07:00-05:00,85.27,13.21,736.13,-1.52,0.29,88.2,0
2020-03-25T19:08:00-05:00,85.18,13.22,736.57,-0.35,0.85,131.24,0
2020-03-25T19:09:00-05:00,85.24,13.26,735.56,-1.67,0.7,135.12,0
2020-03-25T19:10:00-05:00,85.42,13.23,736.43,-2.7,0.23,71.23,0
2020-03-25T19:11:00-05:00,85.6,13.2,736.6,-2.55,0.74,116.1,0
2020-03-25T19:12:00-05:00,85.61,13.2,735.26,0.09,0.63,150.19,0
2020-03-25T19:13:00-05:00,86.16,13.22,735.5,-0.94,0.54,130.37,0
2020-03-25T19:14:00-05:00,86.45,13.2,736.13,-1.82,0.12,143.2,0
2020-03-25T19:15:00-05:00,86.72,13.21,736.03,-3.44,0.63,135.13,0
2020-03-25T19:16:00-05:00,86.5,13.2,735.77,-2.41,0.59,135.2,0
2020-03-25T19:17:00-05:00,86.02,13.24,736.57,0.09,0.69,127.42,0
2020-03-25T19:18:00-05:00,85.36,13.24,736.7,0.98,0.38,117.97,0
2020-03-25T19:19:00-05:00,85.51,13.28,736.03,-1.97,0.46,46.41,0
2020-03-25T19:20:00-05:00,86.42,13.27,736.67,-1.67,0.74,53,0
2020-03-25T19:21:00-05:00,86.86,13.22,736.37,-2.11,0.67,63.13,0
2020-03-25T19:22:00-05:00,87.04,13.21,736.54,-2.26,0.75,58.3,0
2020-03-25T19:23:00-05:00,87.18,13.19,736.54,-0.2,0.64,56.76,0
2020-03-25T19:24:00-05:00,87.3,13.19,735.4,0.68,0.54,54.43,0
2020-03-25T19:25:00-05:00,87.43,13.15,736.43,-0.05,0.57,53.35,0
2020-03-25T19:26:00-05:00,87.71,13.18,735.67,-0.94,0.55,62.45,0
2020-03-25T19:27:00-05:00,87.72,13.16,736.7,-1.38,2.44,86.73,0
2020-03-25T19:28:00-05:00,87.01,13.18,736.33,-1.08,0.58,75.24,0
2020-03-25T19:29:00-05:00,86.44,13.22,735.7,-0.2,1.08,67.79,0
2020-03-25T19:30:00-05:00,86.42,13.26,735.67,-0.49,1.02,50.64,0
2020-03-25T19:31:00-05:00,86.49,13.27,736.5,-1.38,0.58,97.97,0
2020-03-25T19:32:00-05:00,85.87,13.25,736,-1.52,0.29,93.61,0
2020-03-25T19:33:00-05:00,85.01,13.27,736.17,-1.97,0.94,125.98,0
2020-03-25T19:34:00-05:00,84.76,13.26,736.37,-1.97,0.52,130.25,0
2020-03-25T19:35:00-05:00,84.91,13.26,735.9,0.09,0.59,149.2,0
2020-03-25T19:36:00-05:00,84.76,13.26,736.03,0.09,0.59,158.16,0
2020-03-25T19:37:00-05:00,84.99,13.24,735.33,-0.94,0.64,186.36,0
2020-03-25T19:38:00-05:00,85.2,13.22,736.74,-0.64,0.85,183.05,0
2020-03-25T19:39:00-05:00,84.89,13.23,735.8,-0.35,0.67,173.49,0
2020-03-25T19:40:00-05:00,85.61,13.22,736,-1.52,0.72,150.2,0
2020-03-25T19:41:00-05:00,85.19,13.19,736.1,-1.97,0.7,164.56,0
2020-03-25T19:42:00-05:00,85.21,13.18,736.03,-1.08,0.66,162.22,0
2020-03-25T19:43:00-05:00,85.12,13.19,737.04,-1.23,0.68,185.38,0
2020-03-25T19:44:00-05:00,85.33,13.22,736.94,0.68,0.59,191.02,0
2020-03-25T19:45:00-05:00,85.6,13.2,737.1,-1.08,0.6,177.3,0
2020-03-25T19:46:00-05:00,85.86,13.21,737.2,0.68,0.64,197.02,0
2020-03-25T19:47:00-05:00,85.99,13.19,736.1,1.12,0.57,208.92,0
2020-03-25T19:48:00-05:00,85.85,13.19,736.13,0.09,0.56,163.17,0
2020-03-25T19:49:00-05:00,86.01,13.2,737.17,-1.23,0.59,165.15,0
2020-03-25T19:50:00-05:00,86.25,13.2,737.04,-0.35,0.18,94.81,0
2020-03-25T19:51:00-05:00,86.76,13.2,736.6,-0.49,0.24,135.2,0
2020-03-25T19:52:00-05:00,87.2,13.22,737.14,-0.94,0.54,113.07,0
2020-03-25T19:53:00-05:00,86.66,13.22,737.31,0.98,0.54,131.07,0
2020-03-25T19:54:00-05:00,86.16,13.24,737.41,1.56,0.55,100.42,0
2020-03-25T19:55:00-05:00,86.3,13.25,736.1,0.83,0.57,161.14,0
2020-03-25T19:56:00-05:00,86.57,13.26,736.13,1.27,0.61,136.54,0
2020-03-25T19:57:00-05:00,86.92,13.28,736.27,-0.2,0.36,139.56,0
2020-03-25T19:58:00-05:00,87.29,13.28,736.33,-0.79,0.6,125.54,0
2020-03-25T19:59:00-05:00,88.51,13.32,737.67,0.39,0.61,109.17,0
2020-03-25T20:00:00-05:00,89.28,13.34,737.14,-0.05,0.44,132.76,0
2020-03-25T20:01:00-05:00,89.24,13.34,737.87,-1.38,0.7,120.94,0
2020-03-25T20:02:00-05:00,89.49,13.37,736.57,-1.67,0.74,120.61,0
2020-03-25T20:03:00-05:00,89.41,13.36,737.14,-0.49,0.6,137.28,0
2020-03-25T20:04:00-05:00,89.41,13.37,736.94,-1.82,0.45,123.85,0
2020-03-25T20:05:00-05:00,89.6,13.36,736.7,0.09,0.36,138.28,0
2020-03-25T20:06:00-05:00,89.5,13.36,736.57,0.09,0.59,114.47,0
2020-03-25T20:07:00-05:00,89.62,13.37,736.6,-0.79,0.53,121.25,0
2020-03-25T20:08:00-05:00,89.72,13.38,737.51,-1.52,0.26,149.23,0
2020-03-25T20:09:00-05:00,89.67,13.36,737.34,0.39,0.23,111.24,0
2020-03-25T20:10:00-05:00,89.77,13.34,736.97,-1.08,0.5,63.09,0
2020-03-25T20:11:00-05:00,89.73,13.34,736.64,0.68,0.48,79.82,0
2020-03-25T20:12:00-05:00,89.84,13.35,736.5,0.53,0.51,50.92,0
2020-03-25T20:13:00-05:00,89.91,13.33,737.94,-0.79,0.46,40.89,0
2020-03-25T20:14:00-05:00,89.88,13.31,735.93,0.39,0.46,59.87,0
2020-03-25T20:15:00-05:00,89.7,13.28,737.47,-0.79,0.59,53.64,0
2020-03-25T20:16:00-05:00,89.92,13.27,737.17,-1.08,0.54,32.26,0
2020-03-25T20:17:00-05:00,90.09,13.24,735.93,-0.79,0.53,41.02,0
2020-03-25T20:18:00-05:00,89.95,13.23,736.17,-1.23,0.4,55.74,0
2020-03-25T20:19:00-05:00,89.67,13.19,736.8,-2.41,0.72,84.36,0
2020-03-25T20:20:00-05:00,89.52,13.16,736.17,-0.2,0.56,62.89,0
2020-03-25T20:21:00-05:00,89.25,13.12,735.97,-2.11,0.59,50.75,0
2020-03-25T20:22:00-05:00,88.91,13.09,736.4,-1.08,1.81,92.25,0
2020-03-25T20:23:00-05:00,89.14,13.06,735.77,0.24,0.82,49.37,0
2020-03-25T20:24:00-05:00,88.92,13.05,736.9,-1.38,0.37,146.25,0
2020-03-25T20:25:00-05:00,88.89,13.04,736.7,-2.11,0.59,97.3,0
2020-03-25T20:26:00-05:00,89,13.02,735.73,-0.64,0.46,117.86,0
2020-03-25T20:27:00-05:00,88.94,13,736.87,-0.79,0.28,112.06,0
2020-03-25T20:28:00-05:00,89.04,12.98,736.74,-2.55,0.46,95.45,0
2020-03-25T20:29:00-05:00,89.07,12.97,736.57,0.53,0.57,166.13,0
2020-03-25T20:30:00-05:00,89.17,12.97,735.5,0.68,0.58,147.53,0
2020-03-25T20:31:00-05:00,89.76,12.99,736.74,-0.79,0.64,146.6,0
2020-03-25T20:32:00-05:00,89.99,12.99,735.63,-0.49,0.44,135.2,0
2020-03-25T20:33:00-05:00,89.98,13,736.1,0.53,0.6,105.19,0
2020-03-25T20:34:00-05:00,89.44,12.97,736.97,0.68,0.6,98.73,0
2020-03-25T20:35:00-05:00,89.16,13,735.77,-1.82,0.41,80.06,0
2020-03-25T20:36:00-05:00,88.94,13,735.6,-0.35,0.34,98.06,0
2020-03-25T20:37:00-05:00,88.98,12.99,736.94,-1.08,0.45,55.73,0
2020-03-25T20:38:00-05:00,88.49,12.97,736.54,-0.35,0.5,115.76,0
2020-03-25T20:39:00-05:00,88.04,12.97,735.67,-3.44,0.56,128.55,0
2020-03-25T20:40:00-05:00,87.64,12.95,736.33,-0.79,0.64,148.58,0
2020-03-25T20:41:00-05:00,87.39,12.98,736.74,-2.41,0.56,151.16,0
2020-03-25T20:42:00-05:00,87.35,12.98,737.1,-2.26,0.27,139.82,0
2020-03-25T20:43:00-05:00,87.71,13,736.4,-2.26,0.22,72.89,0
2020-03-25T20:44:00-05:00,87.61,13,735.7,-1.23,0.6,116.28,0
2020-03-25T20:45:00-05:00,87.57,13,735.46,-1.52,0.52,111.24,0
2020-03-25T20:46:00-05:00,87.61,13,735.5,-1.08,0.51,126.25,0
2020-03-25T20:47:00-05:00,87.33,12.97,736.03,-1.23,0.58,105.83,0
2020-03-25T20:48:00-05:00,87.28,12.96,735.16,1.27,0.54,128.88,0
2020-03-25T20:49:00-05:00,87.59,12.97,736.9,0.24,0.25,106.2,0
2020-03-25T20:50:00-05:00,87.81,12.99,735.73,1.71,0.31,108.57,0
2020-03-25T20:51:00-05:00,87.85,13,736.13,0.53,0.41,139.3,0
2020-03-25T20:52:00-05:00,88.03,13,736.67,0.39,0.41,135.19,0
2020-03-25T20:53:00-05:00,88.27,13.01,735.9,1.42,0.59,138.61,0
2020-03-25T20:54:00-05:00,88.16,13.02,737.1,1.27,0.63,149.19,0
2020-03-25T20:55:00-05:00,88.43,13.04,735.87,-1.23,0.56,154.58,0
2020-03-25T20:56:00-05:00,88.59,13.06,737.51,-0.05,0.56,138.27,0
2020-03-25T20:57:00-05:00,88.51,13.06,736.54,1.42,0.6,132.35,0
2020-03-25T20:58:00-05:00,88.69,13.1,736.4,0.53,0.56,129.29,0
2020-03-25T20:59:00-05:00,88.7,13.11,736.3,-0.35,0.58,119.87,0
2020-03-25T21:00:00-05:00,88.54,13.14,736.27,-0.35,0.62,127.36,0
2020-03-25T21:01:00-05:00,88.39,13.16,737.1,-1.08,0.61,121.23,0
2020-03-25T21:02:00-05:00,88.29,13.15,737.44,0.83,0.58,97.95,0
2020-03-25T21:03:00-05:00,88.35,13.18,736.07,0.83,0.56,103.27,0
2020-03-25T21:04:00-05:00,88.18,13.19,737.37,-0.49,0.5,75.86,0
2020-03-25T21:05:00-05:00,88.51,13.19,736.17,0.68,0.42,45.17,0
2020-03-25T21:06:00-05:00,88.53,13.2,737.37,-0.35,0.53,59.01,0
2020-03-25T21:07:00-05:00,88.58,13.2,736.23,-1.38,0.53,55.09,0
2020-03-25T21:08:00-05:00,89.03,13.21,736.74,-0.2,0.49,40.19,0
2020-03-25T21:09:00-05:00,89.22,13.2,737.37,-1.67,0.57,44.79,0
2020-03-25T21:10:00-05:00,89.1,13.19,736.37,-0.05,0.52,54.72,0
2020-03-25T21:11:00-05:00,88.88,13.18,735.87,-0.94,0.34,73.98,0
2020-03-25T21:12:00-05:00,88.94,13.19,736.84,-0.49,0.35,140.56,0
2020-03-25T21:13:00-05:00,89.04,13.2,736.37,0.83,0.18,132.65,0
2020-03-25T21:14:00-05:00,89.24,13.22,737.44,1.27,0.59,150.55,0
2020-03-25T21:15:00-05:00,89.43,13.2,736.64,-1.08,0.57,159.18,0
2020-03-25T21:16:00-05:00,89.44,13.21,737.04,-0.2,0.58,142.18,0
2020-03-25T21:17:00-05:00,89.54,13.23,735.9,1.27,0.43,149.2,0
2020-03-25T21:18:00-05:00,89.46,13.24,736.43,-0.05,0.51,129.07,0
2020-03-25T21:19:00-05:00,89.53,13.25,737.41,-1.38,0.58,112.22,0
2020-03-25T21:20:00-05:00,89.68,13.26,737.84,-0.94,0.68,116.32,0
2020-03-25T21:21:00-05:00,89.76,13.29,736.6,-1.08,0.62,81.44,0
2020-03-25T21:22:00-05:00,90,13.29,736.97,-1.23,0.61,54.92,0
2020-03-25T21:23:00-05:00,90.11,13.27,736.43,0.24,0.72,50.31,0
2020-03-25T21:24:00-05:00,89.84,13.28,737.64,0.24,0.61,46.07,0
2020-03-25T21:25:00-05:00,89.66,13.23,737.2,0.39,0.66,61.8,0
2020-03-25T21:26:00-05:00,90.03,13.24,737.71,-0.2,0.7,79.74,0
2020-03-25T21:27:00-05:00,90.02,13.24,736.8,-0.94,0.85,64.26,0
2020-03-25T21:28:00-05:00,89.98,13.24,737.51,-0.05,0.54,63.52,0
2020-03-25T21:29:00-05:00,90.2,13.25,736.7,-1.38,0.45,111.59,0
2020-03-25T21:30:00-05:00,90.37,13.26,737.31,-0.2,0.39,153.15,0
2020-03-25T21:31:00-05:00,90.39,13.25,737.24,1.12,0.61,112.03,0
2020-03-25T21:32:00-05:00,90.43,13.24,737.44,0.09,0.47,122.04,0
2020-03-25T21:33:00-05:00,90.45,13.26,736.17,-1.38,0.51,103.54,0
2020-03-25T21:34:00-05:00,90.13,13.24,736.3,-1.23,0.65,143.22,0
2020-03-25T21:35:00-05:00,90.05,13.25,737.67,1.56,0.51,146.58,0
2020-03-25T21:36:00-05:00,90.04,13.26,736.3,-1.82,0.51,162.2,0
2020-03-25T21:37:00-05:00,90.29,13.27,737.1,-0.49,0.63,157.44,0
2020-03-25T21:38:00-05:00,90.24,13.28,738.41,0.39,0.6,169.38,0
2020-03-25T21:39:00-05:00,90.23,13.26,738.04,0.39,0.6,151.45,0
2020-03-25T21:40:00-05:00,90.21,13.3,737.57,-0.49,0.25,159.17,0
2020-03-25T21:41:00-05:00,90.22,13.3,736.9,0.09,0.3,140.27,0
2020-03-25T21:42:00-05:00,90.05,13.29,737.84,-1.82,0.57,120.09,0
2020-03-25T21:43:00-05:00,90.15,13.3,736.74,-1.82,0.27,69.86,0
2020-03-25T21:44:00-05:00,90.26,13.29,737.81,-1.52,0.44,57.09,0
2020-03-25T21:45:00-05:00,90.52,13.3,737.51,-1.08,0.38,63.96,0
2020-03-25T21:46:00-05:00,90.74,13.31,737.1,0.98,0.51,76.35,0
2020-03-25T21:47:00-05:00,90.61,13.32,738.28,-1.52,0.58,62.49,0
2020-03-25T21:48:00-05:00,90.66,13.3,737.47,1.27,0.49,68.84,0
2020-03-25T21:49:00-05:00,90.72,13.3,736.94,-0.35,0.56,51.12,0
2020-03-25T21:50:00-05:00,90.76,13.29,737.2,1.42,0.58,43,0
2020-03-25T21:51:00-05:00,90.87,13.31,737.41,-1.08,0.57,51.79,0
2020-03-25T21:52:00-05:00,90.89,13.3,738.01,-1.38,0.55,30.92,0
2020-03-25T21:53:00-05:00,91.18,13.3,736.54,0.98,0.56,46.21,0
2020-03-25T21:54:00-05:00,91.15,13.3,736.77,-1.38,0.59,64.74,0
2020-03-25T21:55:00-05:00,91.11,13.3,737,-0.2,0.57,70,0
2020-03-25T21:56:00-05:00,91.09,13.3,737.41,-0.05,0.67,55.15,0
2020-03-25T21:57:00-05:00,91,13.28,737.87,0.53,0.65,45.83,0
2020-03-25T21:58:00-05:00,91.11,13.28,737.07,-1.38,0.63,67.08,0
2020-03-25T21:59:00-05:00,91.22,13.29,737.81,-1.67,0.53,53.05,0
2020-03-25T22:00:00-05:00,91.3,13.32,737.07,-1.08,0.52,47.6,0
2020-03-25T22:01:00-05:00,91.24,13.3,737.41,0.53,0.82,56.14,0
2020-03-25T22:02:00-05:00,91.18,13.3,737.71,-1.23,0.63,68.4,0
2020-03-25T22:03:00-05:00,91.2,13.29,736.84,0.09,0.92,74.08,0
2020-03-25T22:04:00-05:00,91.19,13.3,737.81,0.68,0.69,67.09,0
2020-03-25T22:05:00-05:00,91.1,13.3,738.01,-0.49,0.73,39.88,0
2020-03-25T22:06:00-05:00,91.26,13.32,738.38,-1.38,0.71,64.32,0
2020-03-25T22:07:00-05:00,91.17,13.32,737.2,-1.23,0.91,67.8,0
2020-03-25T22:08:00-05:00,91.23,13.33,737.37,-0.05,0.99,64.91,0
2020-03-25T22:09:00-05:00,90.83,13.33,737.34,0.83,1.17,59.4,0
2020-03-25T22:10:00-05:00,90.6,13.34,736.9,-0.35,0.7,34.88,0
2020-03-25T22:11:00-05:00,90.68,13.34,736.8,0.09,0.59,65.12,0
2020-03-25T22:12:00-05:00,90.57,13.36,737.71,-1.23,0.4,62.84,0
2020-03-25T22:13:00-05:00,90.44,13.37,738.18,-0.64,0.37,92.03,0
2020-03-25T22:14:00-05:00,90.49,13.36,738.14,0.98,0.51,90.71,0
2020-03-25T22:15:00-05:00,90.35,13.35,737.41,0.83,0.41,48.82,0
2020-03-25T22:16:00-05:00,90.23,13.37,738.08,-0.35,0.06,176.1,0
2020-03-25T22:17:00-05:00,90.37,13.36,736.77,0.53,0.09,53.85,0
2020-03-25T22:18:00-05:00,90.21,13.38,737.87,-1.67,0.22,77.59,0
2020-03-25T22:19:00-05:00,90.22,13.37,738.01,-0.05,0.31,97.57,0
2020-03-25T22:20:00-05:00,90.35,13.37,738.04,-1.08,0.23,50.73,0
2020-03-25T22:21:00-05:00,90.37,13.35,736.74,-1.23,0.83,55.01,0
2020-03-25T22:22:00-05:00,90.45,13.34,737.81,-0.94,1.03,46.89,0
2020-03-25T22:23:00-05:00,90.5,13.34,737.27,-0.2,0.69,62.46,0
2020-03-25T22:24:00-05:00,90.57,13.36,738.08,-2.41,0.38,49.44,0
2020-03-25T22:25:00-05:00,90.79,13.37,736.9,-2.7,0.7,20.18,0
2020-03-25T22:26:00-05:00,90.6,13.35,736.84,-3.88,0.59,27.71,0
2020-03-25T22:27:00-05:00,90.45,13.31,737.71,-3.14,0.73,70.58,0
2020-03-25T22:28:00-05:00,90.76,13.3,736.47,-2.99,0.71,68.44,0
2020-03-25T22:29:00-05:00,90.73,13.29,737.1,-4.02,0.34,81.76,0
2020-03-25T22:30:00-05:00,91.01,13.3,736.7,-3.44,0.63,340.87,0
2020-03-25T22:31:00-05:00,91.21,13.28,737.84,-3.14,0.69,26.1,0
2020-03-25T22:32:00-05:00,91.09,13.27,736.9,-1.82,0.59,62.25,0
2020-03-25T22:33:00-05:00,91.07,13.26,736.77,-1.97,0.41,2.75,0
2020-03-25T22:34:00-05:00,90.96,13.26,736.64,-3.73,1.03,54.9,0
2020-03-25T22:35:00-05:00,90.72,13.26,737.34,-2.11,0.21,222.95,0
2020-03-25T22:36:00-05:00,90.88,13.24,736.33,-2.85,0.23,174.09,0
2020-03-25T22:37:00-05:00,90.48,13.22,736.87,-2.11,0.55,91.32,0
2020-03-25T22:38:00-05:00,90.57,13.2,737.24,-4.32,0.57,28.11,0
2020-03-25T22:39:00-05:00,90.61,13.2,736.54,-4.61,0.66,63.67,0
2020-03-25T22:40:00-05:00,91.03,13.19,736.94,-4.02,0.67,54.76,0
2020-03-25T22:41:00-05:00,90.21,13.12,737.07,-4.02,0.21,127.84,0
2020-03-25T22:42:00-05:00,90.19,13.12,737.1,-3.14,0.22,320.56,0
2020-03-25T22:43:00-05:00,90.4,13.12,736.64,-2.85,0.27,298.71,0
2020-03-25T22:44:00-05:00,89.82,13.09,736.74,-2.99,0.49,246.75,0
2020-03-25T22:45:00-05:00,89.66,13.06,736.57,-4.02,0.54,185.32,0
2020-03-25T22:46:00-05:00,89.74,13.06,735.53,-4.61,0.36,144.15,0
2020-03-25T22:47:00-05:00,89.66,13.04,735.77,-4.46,0.55,189.41,0
2020-03-25T22:48:00-05:00,89.49,13,736.94,-3.58,0.61,191.01,0
2020-03-25T22:49:00-05:00,89.85,13,736.54,-2.99,0.09,187.37,0
2020-03-25T22:50:00-05:00,90.19,12.99,736.8,-2.99,0.11,29.41,0
2020-03-25T22:51:00-05:00,90.26,12.99,736.6,-4.46,0.09,24.63,0
2020-03-25T22:52:00-05:00,90.15,12.98,735.4,-4.17,0.24,278.7,0
2020-03-25T22:53:00-05:00,89.89,12.96,735.2,-2.55,0.14,203.22,0
2020-03-25T22:54:00-05:00,90.44,12.96,736.23,-1.82,0.16,238.87,0
2020-03-25T22:55:00-05:00,90.6,12.93,735.23,-3.29,0.22,25.42,0
2020-03-25T22:56:00-05:00,90.48,12.91,735.46,-2.85,0.35,11,0
2020-03-25T22:57:00-05:00,90.37,12.88,736.03,-2.7,0.57,58.05,0
2020-03-25T22:58:00-05:00,89.7,12.83,736.03,-2.85,0.65,43.46,0
2020-03-25T22:59:00-05:00,89.26,12.82,736.3,-4.61,0.73,36.14,0
2020-03-25T23:00:00-05:00,89.56,12.8,734.93,-4.91,0.62,98.29,0
2020-03-25T23:01:00-05:00,89.3,12.77,735.03,-2.41,0.64,43.71,0
2020-03-25T23:02:00-05:00,89.88,12.8,735.03,-1.82,0.49,12.86,0.1
2020-03-25T23:03:00-05:00,90.63,12.79,736.07,-3.14,0.24,35.85,0
2020-03-25T23:04:00-05:00,90.87,12.81,734.86,-3.44,0.83,56.06,0
2020-03-25T23:05:00-05:00,90.46,12.75,735.03,-3.14,0.52,54.14,0
2020-03-25T23:06:00-05:00,90.83,12.74,735.83,-1.38,0.48,17.15,0
2020-03-25T23:07:00-05:00,91.03,12.73,735.16,-2.11,0.2,2.72,0
2020-03-25T23:08:00-05:00,91.32,12.74,735.33,-3.14,0.22,1.22,0
2020-03-25T23:09:00-05:00,91.33,12.74,735.87,-1.82,0.2,145.27,0
2020-03-25T23:10:00-05:00,91.33,12.75,734.83,-2.11,0.35,175.48,0
2020-03-25T23:11:00-05:00,91.54,12.73,735.3,-2.7,0.06,151.19,0
2020-03-25T23:12:00-05:00,91.85,12.73,734.39,-0.79,0.3,38.74,0
2020-03-25T23:13:00-05:00,91.96,12.7,734.59,-3.14,0.34,87.34,0
2020-03-25T23:14:00-05:00,92.36,12.71,734.53,-0.49,0.29,178.05,0
2020-03-25T23:15:00-05:00,92.66,12.71,735.7,-3.73,0.22,290.72,0
2020-03-25T23:16:00-05:00,92.55,12.69,734.39,-1.38,0.12,201.92,0
2020-03-25T23:17:00-05:00,92.67,12.7,734.26,-1.23,0.22,179.11,0
2020-03-25T23:18:00-05:00,92.58,12.69,735.03,-1.08,0.28,179.14,0
2020-03-25T23:19:00-05:00,92.68,12.67,734.86,-3.44,0.47,163.45,0
2020-03-25T23:20:00-05:00,92.6,12.63,734.49,-2.55,0.56,149.29,0
2020-03-25T23:21:00-05:00,92.59,12.59,734.23,-2.85,0.48,86.94,0
2020-03-25T23:22:00-05:00,92.66,12.58,734.33,-3.44,0.25,124.29,0
2020-03-25T23:23:00-05:00,92.96,12.57,733.79,-0.79,0.16,108.52,0
2020-03-25T23:24:00-05:00,92.97,12.56,735.13,-2.99,0.32,77.28,0
2020-03-25T23:25:00-05:00,93.18,12.53,734.06,-0.64,0.19,35.3,0.1
2020-03-25T23:26:00-05:00,93.23,12.53,734.96,-0.64,0.17,26.1,0
2020-03-25T23:27:00-05:00,93.36,12.53,733.99,-1.23,0.36,27.71,0
2020-03-25T23:28:00-05:00,93.24,12.52,734.79,-2.85,0.54,25.76,0
2020-03-25T23:29:00-05:00,93.17,12.53,733.79,-2.85,0.56,58.57,0
2020-03-25T23:30:00-05:00,93.24,12.51,734.16,-1.38,0.5,67.42,0
2020-03-25T23:31:00-05:00,93.27,12.49,733.69,-2.11,0.58,117.44,0
2020-03-25T23:32:00-05:00,93.66,12.48,733.96,-1.97,0.56,94.27,0
2020-03-25T23:33:00-05:00,93.69,12.48,733.69,-2.26,0.58,63.7,0
2020-03-25T23:34:00-05:00,93.56,12.47,734.13,-2.85,0.51,80.38,0
2020-03-25T23:35:00-05:00,93.16,12.43,734.76,-2.85,0.92,87.68,0
2020-03-25T23:36:00-05:00,92.91,12.39,733.96,-4.17,0.66,58.77,0
2020-03-25T23:37:00-05:00,92.39,12.33,734.49,-4.61,0.47,59.03,0
2020-03-25T23:38:00-05:00,92.09,12.34,734.06,-3.29,0.16,132.33,0
2020-03-25T23:39:00-05:00,92.25,12.34,733.92,-3.73,0.56,146.28,0
2020-03-25T23:40:00-05:00,92.53,12.34,733.29,-2.99,0.52,150.18,0
2020-03-25T23:41:00-05:00,92.18,12.31,734.33,-3.88,0.8,180.12,0
2020-03-25T23:42:00-05:00,92.2,12.27,733.22,-1.52,0.59,167.43,0
2020-03-25T23:43:00-05:00,92.15,12.24,733.59,-1.97,0.59,85.79,0
2020-03-25T23:44:00-05:00,92.35,12.21,733.82,-2.55,0.44,137.67,0
2020-03-25T23:45:00-05:00,92.27,12.2,734.13,-1.97,0.4,143.13,0
2020-03-25T23:46:00-05:00,92.16,12.19,734.23,-1.38,0.17,210.3,0
2020-03-25T23:47:00-05:00,92.14,12.16,734.59,-2.85,0.53,149.21,0
2020-03-25T23:48:00-05:00,91.27,12.13,734.13,-4.02,0.59,190.4,0
2020-03-25T23:49:00-05:00,90.89,12.1,734.26,-3.58,0.16,148.22,0
2020-03-25T23:50:00-05:00,91.25,12.14,732.89,-2.85,0.7,57.39,0
2020-03-25T23:51:00-05:00,91.64,12.15,733.15,-3.73,0.57,53.13,0
2020-03-25T23:52:00-05:00,91.6,12.14,733.09,-3.58,0.53,116.25,0
2020-03-25T23:53:00-05:00,91.65,12.12,733.96,-1.67,0.56,91.01,0
2020-03-25T23:54:00-05:00,91.74,12.15,732.25,-3.44,0.34,115.66,0
2020-03-25T23:55:00-05:00,91.8,12.13,733.36,-2.7,0.23,96.36,0
2020-03-25T23:56:00-05:00,91.13,12.09,733.76,-2.99,0.39,37.61,0
2020-03-25T23:57:00-05:00,90.77,12.07,733.89,-3.88,0.45,167.11,0
2020-03-25T23:58:00-05:00,90.4,12.05,733.49,-1.97,0.57,218.9,0
2020-03-25T23:59:00-05:00,90.28,12.07,733.29,-2.55,0.39,123.01,0
