time,[HUME],[TEMP],[PRES],[RADI],[RAPV],[DIRV],[PREC]
2020-02-27T00:00:00-05:00,95.04,11.69,735.73,0.09,0.09,197.63,0
2020-02-27T00:01:00-05:00,95.38,11.69,735.5,-0.2,0.27,173.13,0
2020-02-27T00:02:00-05:00,95.3,11.69,735.5,1.27,0.25,182.38,0
2020-02-27T00:03:00-05:00,95.44,11.69,736.84,-0.05,0.53,195.89,0
2020-02-27T00:04:00-05:00,95.69,11.69,735.9,-0.2,0.59,219.23,0
2020-02-27T00:05:00-05:00,95.65,11.69,735.87,-0.64,0.56,197,0
2020-02-27T00:06:00-05:00,95.75,11.69,736.27,-0.49,0.42,211.29,0
2020-02-27T00:07:00-05:00,95.94,11.67,737.44,1.27,0.42,218.86,0
2020-02-27T00:08:00-05:00,95.97,11.67,737.1,0.09,0.16,305.92,0
2020-02-27T00:09:00-05:00,95.95,11.67,736.5,-0.64,0.22,184.05,0
2020-02-27T00:10:00-05:00,96.04,11.67,735.53,-0.79,0.27,200.98,0
2020-02-27T00:11:00-05:00,96.08,11.68,737,1.42,0.23,237.78,0
2020-02-27T00:12:00-05:00,96.08,11.68,736.07,-0.79,0.25,186,0
2020-02-27T00:13:00-05:00,96.02,11.67,736.77,-0.49,0.21,218.91,0
2020-02-27T00:14:00-05:00,96.13,11.67,737,-1.23,0.18,150.2,0
2020-02-27T00:15:00-05:00,96.15,11.67,736.33,-0.94,0.33,147.23,0
2020-02-27T00:16:00-05:00,96.17,11.68,736.07,0.24,0.3,129.28,0
2020-02-27T00:17:00-05:00,96.14,11.69,736.97,-0.2,0.37,158.17,0
2020-02-27T00:18:00-05:00,96.19,11.68,737.14,-0.49,0.29,166.14,0
2020-02-27T00:19:00-05:00,96,11.67,735.67,0.68,0.4,188.08,0
2020-02-27T00:20:00-05:00,95.97,11.67,736.43,-0.64,0.44,161.11,0
2020-02-27T00:21:00-05:00,96.04,11.69,735.67,0.68,0.3,149.5,0
2020-02-27T00:22:00-05:00,96.03,11.69,736.3,-0.94,0.15,83.99,0
2020-02-27T00:23:00-05:00,96.05,11.69,736.9,-1.08,0.25,74.12,0
2020-02-27T00:24:00-05:00,96.18,11.69,736.17,0.09,0.19,102.3,0
2020-02-27T00:25:00-05:00,96.24,11.71,735.63,-0.94,0.25,166.46,0
2020-02-27T00:26:00-05:00,96.08,11.71,735.43,-0.49,0.39,149.19,0
2020-02-27T00:27:00-05:00,96.05,11.71,736.23,0.09,0.44,173.48,0
2020-02-27T00:28:00-05:00,96.02,11.71,735.36,0.24,0.52,220.83,0
2020-02-27T00:29:00-05:00,95.93,11.68,735.43,-0.35,0.56,224.9,0
2020-02-27T00:30:00-05:00,96.06,11.7,735.53,1.12,0.07,171.15,0
2020-02-27T00:31:00-05:00,95.95,11.7,736.33,-1.52,0.25,259.75,0
2020-02-27T00:32:00-05:00,95.97,11.7,735.7,0.09,0.16,200.26,0
2020-02-27T00:33:00-05:00,96.13,11.69,736.74,0.09,0.28,250.09,0
2020-02-27T00:34:00-05:00,96.02,11.69,736.07,-0.49,0.23,179.13,0
2020-02-27T00:35:00-05:00,96.11,11.7,736.87,-0.49,0.28,264.79,0
2020-02-27T00:36:00-05:00,96.04,11.69,735.53,-0.64,0.39,207.99,0
2020-02-27T00:37:00-05:00,96.22,11.69,735.8,-0.35,0.25,233.86,0
2020-02-27T00:38:00-05:00,96.06,11.69,736,-0.05,0.1,312.59,0
2020-02-27T00:39:00-05:00,96.15,11.69,736.4,1.12,0.18,170.08,0
2020-02-27T00:40:00-05:00,96.11,11.69,735.33,1.86,0.32,146.59,0
2020-02-27T00:41:00-05:00,96.31,11.68,735.87,-0.35,0.33,198.02,0
2020-02-27T00:42:00-05:00,96.26,11.69,737.47,-0.64,0.68,154.54,0
2020-02-27T00:43:00-05:00,96.17,11.67,736.03,1.71,0.3,177.04,0
2020-02-27T00:44:00-05:00,96.37,11.69,737.54,0.24,0.57,186.31,0
2020-02-27T00:45:00-05:00,96.12,11.69,737.24,0.53,0.22,102.56,0
2020-02-27T00:46:00-05:00,96.23,11.69,735.87,-0.35,0.64,168.45,0
2020-02-27T00:47:00-05:00,96.23,11.68,737.17,1.56,0.24,146.27,0
2020-02-27T00:48:00-05:00,96.41,11.69,736.8,-0.49,0.52,138.51,0
2020-02-27T00:49:00-05:00,96.28,11.69,737.1,0.98,0.2,194.93,0
2020-02-27T00:50:00-05:00,96.29,11.7,737.37,0.98,0.29,232.86,0
2020-02-27T00:51:00-05:00,96.3,11.71,736.8,1.86,0.14,45.33,0
2020-02-27T00:52:00-05:00,96.28,11.7,737.44,0.09,0.57,254.76,0
2020-02-27T00:53:00-05:00,96.41,11.69,735.63,1.71,0.06,330.51,0
2020-02-27T00:54:00-05:00,96.23,11.7,737.17,0.53,0.55,228.81,0
2020-02-27T00:55:00-05:00,96.06,11.67,737.47,-0.05,0.48,215.96,0
2020-02-27T00:56:00-05:00,95.95,11.65,736.7,-0.2,0.56,199.96,0
2020-02-27T00:57:00-05:00,96.08,11.65,736.27,0.39,0.62,239.87,0
2020-02-27T00:58:00-05:00,95.98,11.63,736.84,-0.49,0.21,200.96,0
2020-02-27T00:59:00-05:00,95.99,11.63,735.67,0.98,0.16,8.77,0
2020-02-27T01:00:00-05:00,96.13,11.63,737.14,0.24,0.23,249.8,0
2020-02-27T01:01:00-05:00,96.16,11.63,736.57,0.24,0.09,128.27,0
2020-02-27T01:02:00-05:00,96.26,11.63,735.93,-0.49,0.23,197.01,0
2020-02-27T01:03:00-05:00,96.21,11.65,737.47,-0.49,0.24,158.5,0
2020-02-27T01:04:00-05:00,96.21,11.64,736.77,1.12,0.56,182.07,0
2020-02-27T01:05:00-05:00,96.14,11.61,736.23,2.59,0.59,280.94,0
2020-02-27T01:06:00-05:00,96.17,11.61,735.73,1.71,0.61,198.28,0
2020-02-27T01:07:00-05:00,96.15,11.59,737.1,-0.64,0.36,206.27,0
2020-02-27T01:08:00-05:00,95.95,11.58,736.5,0.24,0.58,202.92,0
2020-02-27T01:09:00-05:00,95.93,11.56,736.33,2.3,0.54,271.7,0
2020-02-27T01:10:00-05:00,None,None,None,None,None,None,None
2020-02-27T01:11:00-05:00,96.07,11.57,737.34,1.86,0.55,222.91,0
2020-02-27T01:12:00-05:00,95.99,11.57,735.43,1.27,0.58,188.08,0
2020-02-27T01:13:00-05:00,96.03,11.55,736.4,-0.2,0.56,148.24,0
2020-02-27T01:14:00-05:00,95.95,11.56,736.74,0.98,0.55,162.2,0
2020-02-27T01:15:00-05:00,96.07,11.54,737.27,1.12,0.62,229.82,0
2020-02-27T01:16:00-05:00,95.93,11.52,736.33,0.68,0.1,255.15,0
2020-02-27T01:17:00-05:00,95.99,11.54,735.36,1.71,0.37,200.97,0
2020-02-27T01:18:00-05:00,96.01,11.52,736.43,-0.35,0.4,218.26,0
2020-02-27T01:19:00-05:00,95.89,11.51,735.63,1.86,0.34,207.98,0
2020-02-27T01:20:00-05:00,95.85,11.49,736.33,-0.64,0.63,279.02,0
2020-02-27T01:21:00-05:00,95.74,11.49,735.43,-0.05,0.3,60.16,0
2020-02-27T01:22:00-05:00,95.71,11.46,735.8,1.71,0.37,39.15,0
2020-02-27T01:23:00-05:00,95.8,11.48,735.2,2.3,0.25,330.55,0
2020-02-27T01:24:00-05:00,95.83,11.48,735.7,0.09,0.31,37.32,0
2020-02-27T01:25:00-05:00,95.8,11.5,735.53,0.83,0.07,205.06,0
2020-02-27T01:26:00-05:00,95.76,11.51,736.97,1.86,0.26,236.84,0
2020-02-27T01:27:00-05:00,95.79,11.5,735.5,0.98,0.39,252.77,0
2020-02-27T01:28:00-05:00,95.68,11.49,736.54,0.68,0.32,106.72,0
2020-02-27T01:29:00-05:00,95.61,11.5,735.33,2,0.22,27.77,0
2020-02-27T01:30:00-05:00,95.62,11.49,735.5,2,0.23,37.02,0
2020-02-27T01:31:00-05:00,95.73,11.49,736.67,2.15,0.14,353.48,0
2020-02-27T01:32:00-05:00,95.65,11.51,735.87,-0.35,0.13,212.87,0
2020-02-27T01:33:00-05:00,95.72,11.51,735.77,-0.35,0.22,337.51,0
2020-02-27T01:34:00-05:00,95.38,11.49,735.33,2.3,0.28,64.5,0
2020-02-27T01:35:00-05:00,95.4,11.48,736.64,2.45,0.53,73.68,0
2020-02-27T01:36:00-05:00,95.61,11.5,736.13,0.24,0.39,127.66,0
2020-02-27T01:37:00-05:00,95.5,11.54,737,0.39,0.55,161.45,0
2020-02-27T01:38:00-05:00,95.55,11.52,735.53,-0.05,0.57,147.2,0
2020-02-27T01:39:00-05:00,95.36,11.5,736.4,0.53,0.46,229.19,0
2020-02-27T01:40:00-05:00,95.33,11.51,736.97,0.98,0.52,193.26,0
2020-02-27T01:41:00-05:00,95.38,11.5,736.97,-0.2,0.34,187.32,0
2020-02-27T01:42:00-05:00,95.22,11.49,735.67,0.39,0.3,167.13,0
2020-02-27T01:43:00-05:00,95.29,11.48,735.87,1.86,0.09,121.58,0
2020-02-27T01:44:00-05:00,95.28,11.49,736.84,1.12,0.22,124.16,0
2020-02-27T01:45:00-05:00,95.37,11.5,737.2,0.09,0.21,81.58,0
2020-02-27T01:46:00-05:00,95.55,11.5,737.04,1.27,0.15,149.19,0
2020-02-27T01:47:00-05:00,95.31,11.52,736.67,-0.05,0.46,165.17,0
2020-02-27T01:48:00-05:00,95.23,11.5,736.47,1.71,0.55,209.94,0
2020-02-27T01:49:00-05:00,95.06,11.48,736.87,0.39,0.39,160.16,0
2020-02-27T01:50:00-05:00,95.22,11.5,735.43,-0.2,0.16,124.21,0
2020-02-27T01:51:00-05:00,95.3,11.5,736.74,1.42,0.33,104.94,0
2020-02-27T01:52:00-05:00,95.6,11.53,735.6,0.53,0.25,163.21,0
2020-02-27T01:53:00-05:00,95.54,11.54,735.63,-0.49,0.22,164.18,0
2020-02-27T01:54:00-05:00,95.27,11.52,736.87,-0.94,0.41,159.01,0
2020-02-27T01:55:00-05:00,95.43,11.52,735.87,2,0.06,118.77,0
2020-02-27T01:56:00-05:00,95.32,11.52,736.64,0.68,0.24,146.59,0
2020-02-27T01:57:00-05:00,95.52,11.54,736.8,1.12,0.3,118.15,0
2020-02-27T01:58:00-05:00,95.48,11.53,736.74,-0.05,0.25,183.39,0
2020-02-27T01:59:00-05:00,95.36,11.53,736.7,0.39,0.15,53.85,0
2020-02-27T02:00:00-05:00,95.59,11.54,735.2,1.27,0.24,341.94,0
2020-02-27T02:01:00-05:00,95.71,11.56,735.6,0.83,0.21,242.79,0
2020-02-27T02:02:00-05:00,95.77,11.56,736.9,-0.64,0.13,240.17,0
2020-02-27T02:03:00-05:00,95.65,11.58,735.23,-1.38,0.13,157.17,0
2020-02-27T02:04:00-05:00,95.6,11.58,735.2,-0.2,0.45,167.12,0
2020-02-27T02:05:00-05:00,95.38,11.58,735.36,-0.35,0.55,171.16,0
2020-02-27T02:06:00-05:00,95.43,11.55,735.33,1.42,0.31,166.17,0
2020-02-27T02:07:00-05:00,95.49,11.52,735.1,-0.49,0.32,162.19,0
2020-02-27T02:08:00-05:00,95.18,11.5,735.73,1.42,0.25,236.8,0
2020-02-27T02:09:00-05:00,95.23,11.49,736.27,0.98,0.19,177.09,0
2020-02-27T02:10:00-05:00,95.37,11.49,736.47,-0.94,0.18,148.28,0
2020-02-27T02:11:00-05:00,95.3,11.47,734.86,-1.38,0.24,175.12,0
2020-02-27T02:12:00-05:00,95.22,11.48,736.57,-1.38,0.15,132.83,0
2020-02-27T02:13:00-05:00,95.22,11.46,736.64,-0.94,0.23,150.55,0
2020-02-27T02:14:00-05:00,95.24,11.44,734.93,-1.08,0.25,103.06,0
2020-02-27T02:15:00-05:00,95.44,11.48,735.3,-0.49,0.59,71.65,0
2020-02-27T02:16:00-05:00,95.53,11.46,736.1,-0.49,0.49,81.42,0
2020-02-27T02:17:00-05:00,95.4,11.48,734.96,-0.2,0.42,95.45,0
2020-02-27T02:18:00-05:00,95.34,11.48,735.46,0.24,0.46,106.81,0
2020-02-27T02:19:00-05:00,95.35,11.5,736.33,1.27,0.63,115.87,0
2020-02-27T02:20:00-05:00,95.34,11.5,736.23,0.09,0.2,147.23,0
2020-02-27T02:21:00-05:00,95.37,11.51,735.9,-1.08,0.33,155.57,0
2020-02-27T02:22:00-05:00,95.33,11.5,736.6,0.09,0.5,86.91,0
2020-02-27T02:23:00-05:00,95.37,11.5,736.9,0.98,0.36,167.13,0
2020-02-27T02:24:00-05:00,95.3,11.5,734.59,0.39,0.56,155.21,0
2020-02-27T02:25:00-05:00,95.08,11.48,734.9,1.27,0.56,154.26,0
2020-02-27T02:26:00-05:00,94.89,11.46,736.5,-0.35,0.69,167.11,0
2020-02-27T02:27:00-05:00,94.67,11.44,735.5,0.09,0.56,141.25,0
2020-02-27T02:28:00-05:00,94.74,11.45,736.54,0.09,0.55,134.21,0
2020-02-27T02:29:00-05:00,94.85,11.44,735.06,1.42,0.22,102.56,0
2020-02-27T02:30:00-05:00,94.91,11.45,734.96,1.27,0.06,61.55,0
2020-02-27T02:31:00-05:00,95.08,11.47,736.77,-1.08,0.21,108.38,0
2020-02-27T02:32:00-05:00,95.06,11.5,735.23,-1.08,0.24,126.23,0
2020-02-27T02:33:00-05:00,94.82,11.5,736.54,-0.35,0.16,139.27,0
2020-02-27T02:34:00-05:00,94.73,11.49,734.96,0.24,0.25,167.42,0
2020-02-27T02:35:00-05:00,94.54,11.48,736.2,-0.05,0.49,141.23,0
2020-02-27T02:36:00-05:00,94.38,11.46,736.37,-0.64,0.27,145.62,0
2020-02-27T02:37:00-05:00,94.4,11.48,736.3,0.53,0.16,158.16,0
2020-02-27T02:38:00-05:00,94.22,11.48,736.47,-0.94,0.25,86.59,0
2020-02-27T02:39:00-05:00,94.02,11.48,736.64,0.98,0.34,108.76,0
2020-02-27T02:40:00-05:00,93.97,11.48,735.33,0.98,0.33,77.62,0
2020-02-27T02:41:00-05:00,93.91,11.48,736.23,-0.05,0.21,115.54,0
2020-02-27T02:42:00-05:00,93.85,11.49,735,-0.2,0.5,140.24,0
2020-02-27T02:43:00-05:00,93.6,11.48,735.77,0.83,0.31,121.24,0
2020-02-27T02:44:00-05:00,93.39,11.5,735.06,-0.05,0.33,104.67,0
2020-02-27T02:45:00-05:00,93.61,11.51,736.3,-0.35,0.23,147.25,0
2020-02-27T02:46:00-05:00,93.46,11.53,736.07,-1.82,0.36,113.67,0
2020-02-27T02:47:00-05:00,93.41,11.52,736.13,-1.67,0.53,110.42,0
2020-02-27T02:48:00-05:00,93.58,11.52,736.03,-0.49,0.57,94.01,0
2020-02-27T02:49:00-05:00,93.15,11.52,734.59,-0.49,0.49,117.19,0
2020-02-27T02:50:00-05:00,93.28,11.51,734.53,-0.79,0.51,134.22,0
2020-02-27T02:51:00-05:00,93.2,11.54,734.73,-0.94,0.37,128.34,0
2020-02-27T02:52:00-05:00,93.33,11.55,736.54,1.42,0.23,86.33,0
2020-02-27T02:53:00-05:00,93.45,11.56,735.83,1.27,0.17,128.87,0
2020-02-27T02:54:00-05:00,93.33,11.57,735.03,1.42,0.1,94.23,0
2020-02-27T02:55:00-05:00,93.55,11.58,735.87,0.53,0.57,116.81,0
2020-02-27T02:56:00-05:00,93.61,11.58,734.36,-1.08,0.48,144.19,0
2020-02-27T02:57:00-05:00,93.49,11.57,735,-0.64,0.29,161.48,0
2020-02-27T02:58:00-05:00,93.1,11.54,736.07,0.09,0.53,160.16,0
2020-02-27T02:59:00-05:00,92.68,11.52,735.9,0.53,0.39,124.51,0
2020-02-27T03:00:00-05:00,92.74,11.5,734.86,1.27,0.26,101.41,0
2020-02-27T03:01:00-05:00,93.01,11.54,734.76,-0.64,0.29,179.16,0
2020-02-27T03:02:00-05:00,92.95,11.53,735.3,0.83,0.51,135.2,0
2020-02-27T03:03:00-05:00,92.8,11.52,736.2,0.98,0.38,100.73,0
2020-02-27T03:04:00-05:00,92.85,11.5,734.9,0.09,0.41,89.71,0
2020-02-27T03:05:00-05:00,92.81,11.5,735.56,0.98,0.14,110.14,0
2020-02-27T03:06:00-05:00,92.65,11.51,735.97,-0.49,0.21,124.03,0
2020-02-27T03:07:00-05:00,92.56,11.54,735.73,0.39,0.3,138.45,0
2020-02-27T03:08:00-05:00,92.66,11.52,735.06,0.83,0.45,154.26,0
2020-02-27T03:09:00-05:00,92.48,11.53,735,1.56,0.56,156.22,0
2020-02-27T03:10:00-05:00,92.25,11.52,734.46,1.71,0.56,160.17,0
2020-02-27T03:11:00-05:00,92.3,11.52,735.87,0.24,0.53,163.2,0
2020-02-27T03:12:00-05:00,92.15,11.52,736.5,-0.2,0.58,153.49,0
2020-02-27T03:13:00-05:00,92.33,11.52,735.53,0.24,0.57,142.23,0
2020-02-27T03:14:00-05:00,92.49,11.53,735.06,-0.35,0.4,137.65,0
2020-02-27T03:15:00-05:00,92.93,11.55,736.27,-0.35,0.26,82.05,0
2020-02-27T03:16:00-05:00,93.17,11.54,734.86,1.27,0.47,114.57,0
2020-02-27T03:17:00-05:00,93.25,11.56,736.23,-0.35,0.51,53.99,0
2020-02-27T03:18:00-05:00,93.22,11.56,735.3,-0.94,0.23,28.11,0
2020-02-27T03:19:00-05:00,93.19,11.55,736.07,0.68,0.5,41.78,0
2020-02-27T03:20:00-05:00,92.99,11.54,735.46,0.98,0.59,90.83,0
2020-02-27T03:21:00-05:00,93.13,11.54,736.4,-0.49,0.6,103.94,0
2020-02-27T03:22:00-05:00,93.26,11.54,735.36,2.45,0.48,96.62,0
2020-02-27T03:23:00-05:00,93.1,11.52,736.17,1.12,0.4,90.81,0
2020-02-27T03:24:00-05:00,93.03,11.52,735.33,2.59,0.25,67.35,0
2020-02-27T03:25:00-05:00,92.92,11.54,736.17,0.39,0.26,123.21,0
2020-02-27T03:26:00-05:00,93,11.55,736.3,2.15,0.27,93.49,0
2020-02-27T03:27:00-05:00,93.14,11.55,736.47,1.42,0.44,123.5,0
2020-02-27T03:28:00-05:00,92.93,11.56,734.9,0.39,0.26,114.24,0
2020-02-27T03:29:00-05:00,92.9,11.56,734.96,1.71,0.56,81.3,0
2020-02-27T03:30:00-05:00,92.85,11.55,735.1,0.98,0.49,103.25,0
2020-02-27T03:31:00-05:00,92.58,11.6,735.06,0.09,0.57,107.82,0
2020-02-27T03:32:00-05:00,92.36,11.6,735.43,0.39,0.43,112.54,0
2020-02-27T03:33:00-05:00,92.2,11.59,735.83,2.3,0.58,90,0
2020-02-27T03:34:00-05:00,92.06,11.62,736.13,1.12,0.56,111.15,0
2020-02-27T03:35:00-05:00,92.18,11.65,735.23,-0.05,0.44,131.44,0
2020-02-27T03:36:00-05:00,92.49,11.65,736.4,0.24,0.35,93.07,0
2020-02-27T03:37:00-05:00,92.74,11.67,736.94,0.53,0.59,111.98,0
2020-02-27T03:38:00-05:00,92.68,11.68,735.26,1.71,0.51,106.28,0
2020-02-27T03:39:00-05:00,92.87,11.69,735.3,1.86,0.43,118.91,0
2020-02-27T03:40:00-05:00,93.04,11.69,736.1,2,0.45,89.47,0
2020-02-27T03:41:00-05:00,93.15,11.69,735.63,-0.05,0.62,104.18,0
2020-02-27T03:42:00-05:00,92.78,11.67,735.33,2.45,0.57,94.4,0
2020-02-27T03:43:00-05:00,92.89,11.66,735.93,0.68,0.57,111.27,0
2020-02-27T03:44:00-05:00,92.75,11.67,735.26,0.68,0.22,93.93,0
2020-02-27T03:45:00-05:00,93.05,11.67,736.37,0.24,0.53,109.13,0
2020-02-27T03:46:00-05:00,92.93,11.67,735.26,0.98,0.54,111.15,0
2020-02-27T03:47:00-05:00,93.03,11.68,736.8,0.53,0.27,89.11,0
2020-02-27T03:48:00-05:00,93.28,11.67,735.36,1.27,0.42,92.98,0
2020-02-27T03:49:00-05:00,93.29,11.68,736.7,0.53,0.32,88.61,0
2020-02-27T03:50:00-05:00,93.47,11.69,736.6,-0.64,0.26,97.48,0
2020-02-27T03:51:00-05:00,93.41,11.69,736.94,0.09,0.27,109.82,0
2020-02-27T03:52:00-05:00,93.67,11.69,735.53,0.83,0.35,101.73,0
2020-02-27T03:53:00-05:00,93.66,11.69,736.4,0.39,0.27,87.51,0
2020-02-27T03:54:00-05:00,93.67,11.68,735.36,-1.67,0.25,100.05,0
2020-02-27T03:55:00-05:00,93.73,11.67,736.23,-1.23,0.53,107.47,0
2020-02-27T03:56:00-05:00,93.55,11.63,735.87,0.83,0.27,100.3,0
2020-02-27T03:57:00-05:00,93.61,11.63,735.13,0.83,0.35,119.17,0
2020-02-27T03:58:00-05:00,93.79,11.63,734.59,0.09,0.42,101.37,0
2020-02-27T03:59:00-05:00,93.89,11.61,736.43,0.24,0.31,92.7,0
2020-02-27T04:00:00-05:00,93.86,11.62,736.2,-1.38,0.32,107.47,0
2020-02-27T04:01:00-05:00,94.09,11.6,735.83,0.68,0.21,79.32,0
2020-02-27T04:02:00-05:00,93.86,11.6,734.93,-0.64,0.54,86.08,0
2020-02-27T04:03:00-05:00,94.05,11.57,735.3,-0.35,0.58,102.34,0
2020-02-27T04:04:00-05:00,93.84,11.54,736.4,-0.79,0.57,99.95,0
2020-02-27T04:05:00-05:00,94.05,11.56,734.76,-0.79,0.64,98.25,0
2020-02-27T04:06:00-05:00,93.81,11.53,736,-1.08,0.56,78.15,0
2020-02-27T04:07:00-05:00,93.99,11.53,736,-0.64,0.3,80.35,0
2020-02-27T04:08:00-05:00,94.1,11.52,734.36,0.39,0.54,81.57,0
2020-02-27T04:09:00-05:00,93.95,11.51,736.1,-1.08,0.54,91.77,0
2020-02-27T04:10:00-05:00,93.79,11.49,734.9,0.98,0.51,93.13,0
2020-02-27T04:11:00-05:00,93.54,11.49,736.37,0.39,0.21,104.66,0
2020-02-27T04:12:00-05:00,93.65,11.5,734.79,-0.35,0.22,75.13,0
2020-02-27T04:13:00-05:00,93.61,11.49,734.83,0.09,0.23,101.74,0
2020-02-27T04:14:00-05:00,93.85,11.5,734.39,-1.97,0.2,91.6,0
2020-02-27T04:15:00-05:00,93.91,11.5,734.76,-1.97,0.15,87.99,0
2020-02-27T04:16:00-05:00,93.83,11.5,735.43,-2.99,0.24,101.56,0
2020-02-27T04:17:00-05:00,93.6,11.48,735.77,-3.29,0.43,117.91,0
2020-02-27T04:18:00-05:00,93.52,11.47,735,-2.7,0.28,79.91,0
2020-02-27T04:19:00-05:00,93.62,11.44,735,-3.29,0.45,86.96,0
2020-02-27T04:20:00-05:00,93.77,11.42,734.86,-2.85,0.35,96.75,0
2020-02-27T04:21:00-05:00,93.71,11.42,734.36,-3.44,0.24,61.75,0
2020-02-27T04:22:00-05:00,93.54,11.39,734.96,-4.32,0.19,118.15,0
2020-02-27T04:23:00-05:00,93.69,11.37,733.29,-4.32,0.16,56.39,0
2020-02-27T04:24:00-05:00,93.51,11.32,733.32,-3.44,0.12,52.05,0
2020-02-27T04:25:00-05:00,93.49,11.31,734.23,-5.2,0.17,151.16,0
2020-02-27T04:26:00-05:00,93.25,11.28,733.32,-3.14,0.42,100.45,0
2020-02-27T04:27:00-05:00,93.11,11.23,733.19,-3.88,0.55,120.56,0
2020-02-27T04:28:00-05:00,93.13,11.2,733.96,-4.46,0.61,129.73,0
2020-02-27T04:29:00-05:00,93.1,11.16,732.62,-5.05,0.65,129.26,0
2020-02-27T04:30:00-05:00,93.23,11.13,733.62,-3.88,0.67,143.93,0
2020-02-27T04:31:00-05:00,93.24,11.1,733.72,-4.61,0.43,120.16,0
2020-02-27T04:32:00-05:00,93.29,11.08,732.72,-2.41,0.61,123.77,0
2020-02-27T04:33:00-05:00,93.29,11.06,733.32,-5.64,0.22,109.99,0
2020-02-27T04:34:00-05:00,93.47,11.03,731.78,-3.58,0.33,136.39,0
2020-02-27T04:35:00-05:00,93.47,11,733.12,-5.2,0.58,124.21,0
2020-02-27T04:36:00-05:00,93.49,10.98,731.55,-5.05,0.69,150.24,0
2020-02-27T04:37:00-05:00,93.59,10.94,731.01,-4.32,0.51,115.45,0
2020-02-27T04:38:00-05:00,93.61,10.9,732.15,-4.32,0.55,99.1,0
2020-02-27T04:39:00-05:00,93.59,10.88,732.08,-2.41,0.64,115.13,0
2020-02-27T04:40:00-05:00,93.93,10.85,731.41,-3.44,0.69,112.46,0
2020-02-27T04:41:00-05:00,93.93,10.84,731.68,-4.17,0.62,130.27,0
2020-02-27T04:42:00-05:00,94.15,10.84,732.75,-4.02,0.54,138.29,0
2020-02-27T04:43:00-05:00,94.27,10.82,732.02,-4.17,0.65,129.2,0
2020-02-27T04:44:00-05:00,94.5,10.82,733.22,-1.97,0.66,112.81,0
2020-02-27T04:45:00-05:00,94.64,10.8,733.12,-1.82,0.62,105,0
2020-02-27T04:46:00-05:00,94.54,10.8,734.26,-3.29,0.56,92.67,0
2020-02-27T04:47:00-05:00,94.74,10.79,734.13,-3.29,0.97,120.09,0
2020-02-27T04:48:00-05:00,94.83,10.77,734.46,-2.7,0.66,101.55,0
2020-02-27T04:49:00-05:00,94.92,10.78,732.72,-3.58,0.68,115.37,0
2020-02-27T04:50:00-05:00,94.86,10.76,734.36,-2.55,0.58,118,0
2020-02-27T04:51:00-05:00,94.84,10.76,732.95,-3.88,0.67,89.36,0
2020-02-27T04:52:00-05:00,94.81,10.74,734.16,-3.88,0.57,62.49,0
2020-02-27T04:53:00-05:00,94.95,10.74,733.72,-3.29,0.62,81.27,0
2020-02-27T04:54:00-05:00,94.8,10.7,732.82,-4.32,0.64,94.38,0
2020-02-27T04:55:00-05:00,94.82,10.7,733.99,-4.32,0.76,101.63,0
2020-02-27T04:56:00-05:00,94.74,10.66,732.48,-3.29,0.36,136.2,0
2020-02-27T04:57:00-05:00,94.84,10.66,734.13,-4.17,0.68,114.1,0
2020-02-27T04:58:00-05:00,95.02,10.66,733.36,-3.73,0.53,80.23,0
2020-02-27T04:59:00-05:00,94.82,10.64,733.82,-3.73,0.26,45.51,0
2020-02-27T05:00:00-05:00,94.92,10.61,733.86,-4.76,0.54,90.39,0
2020-02-27T05:01:00-05:00,94.86,10.6,733.02,-4.02,0.61,121.07,0
2020-02-27T05:02:00-05:00,94.9,10.56,732.89,-4.46,0.56,125.8,0
2020-02-27T05:03:00-05:00,94.7,10.56,732.32,-3.29,0.58,94.8,0
2020-02-27T05:04:00-05:00,94.77,10.52,733.39,-3.44,0.6,108.16,0
2020-02-27T05:05:00-05:00,94.8,10.5,732.18,-2.11,0.64,59.77,0
2020-02-27T05:06:00-05:00,94.8,10.48,732.08,-3.88,0.75,86.38,0
2020-02-27T05:07:00-05:00,94.85,10.45,733.29,-2.55,1.13,45.49,0
2020-02-27T05:08:00-05:00,94.86,10.44,731.58,-2.11,0.65,67.83,0
2020-02-27T05:09:00-05:00,94.64,10.4,732.22,-4.91,0.52,90.4,0
2020-02-27T05:10:00-05:00,94.66,10.38,733.52,-4.76,0.8,70.17,0
2020-02-27T05:11:00-05:00,94.7,10.33,732.12,-3.29,0.56,115.64,0
2020-02-27T05:12:00-05:00,95.09,10.34,732.79,-3.58,0.63,122.31,0
2020-02-27T05:13:00-05:00,94.94,10.32,733.02,-4.32,0.77,75.17,0
2020-02-27T05:14:00-05:00,94.88,10.3,731.98,-4.61,0.69,51.43,0
2020-02-27T05:15:00-05:00,94.98,10.3,730.81,-2.11,0.77,76.61,0
2020-02-27T05:16:00-05:00,95.02,10.3,731.31,-2.85,0.59,70.56,0
2020-02-27T05:17:00-05:00,94.94,10.28,731.68,-2.11,0.67,145.24,0
2020-02-27T05:18:00-05:00,94.8,10.28,732.52,-3.73,0.39,155.23,0
2020-02-27T05:19:00-05:00,94.84,10.26,731.55,-4.17,0.56,146.28,0
2020-02-27T05:20:00-05:00,94.62,10.23,733.29,-2.85,0.81,118.4,0
2020-02-27T05:21:00-05:00,94.68,10.24,733.72,-3.14,0.57,82.65,0
2020-02-27T05:22:00-05:00,94.6,10.21,732.99,-2.26,0.83,130.75,0
2020-02-27T05:23:00-05:00,94.7,10.21,732.08,-4.02,0.94,84.67,0
2020-02-27T05:24:00-05:00,94.45,10.23,732.92,-1.67,0.62,63.23,0
2020-02-27T05:25:00-05:00,94.48,10.26,731.61,-4.17,0.62,81.34,0
2020-02-27T05:26:00-05:00,94.18,10.26,731.18,-2.11,0.7,70.1,0
2020-02-27T05:27:00-05:00,94.07,10.28,731.55,-2.11,0.66,76.97,0
2020-02-27T05:28:00-05:00,94.01,10.31,731.08,-4.46,0.58,106.4,0
2020-02-27T05:29:00-05:00,93.78,10.28,732.08,-2.55,0.62,120.58,0
2020-02-27T05:30:00-05:00,93.63,10.29,732.62,-2.55,0.46,83.33,0
2020-02-27T05:31:00-05:00,93.65,10.26,732.79,-3.58,0.59,93.51,0
2020-02-27T05:32:00-05:00,93.46,10.26,732.62,-4.46,0.56,93.92,0
2020-02-27T05:33:00-05:00,93.44,10.23,731.18,-3.44,0.64,94.55,0
2020-02-27T05:34:00-05:00,93.5,10.23,731.21,-4.17,0.87,91.26,0
2020-02-27T05:35:00-05:00,93.49,10.22,731.15,-3.44,0.67,92.35,0
2020-02-27T05:36:00-05:00,93.48,10.21,731.85,-4.46,0.59,60.14,0
2020-02-27T05:37:00-05:00,93.68,10.21,732.62,-1.97,0.59,76.12,0
2020-02-27T05:38:00-05:00,93.83,10.21,732.55,-3.58,0.63,85.47,0
2020-02-27T05:39:00-05:00,93.66,10.19,730.84,-3.44,0.12,101.43,0
2020-02-27T05:40:00-05:00,93.63,10.15,730.51,-3.58,0.58,127.1,0
2020-02-27T05:41:00-05:00,93.7,10.14,732.55,-4.02,0.56,124.62,0
2020-02-27T05:42:00-05:00,93.77,10.11,732.45,-2.99,0.71,110.74,0
2020-02-27T05:43:00-05:00,93.97,10.1,732.75,-3.73,0.69,72.32,0
2020-02-27T05:44:00-05:00,94.02,10.07,731.65,-1.67,0.65,84.19,0
2020-02-27T05:45:00-05:00,94.11,10.08,732.38,-1.67,0.78,103.63,0
2020-02-27T05:46:00-05:00,94.3,10.09,730.44,-3.73,1,48.97,0
2020-02-27T05:47:00-05:00,94.26,10.08,731.21,-3.44,1,59.6,0
2020-02-27T05:48:00-05:00,94.32,10.05,732.35,-3.58,1.04,57.88,0
2020-02-27T05:49:00-05:00,94.49,10.03,731.08,-3.14,0.73,53.88,0
2020-02-27T05:50:00-05:00,94.55,10.03,730.95,-4.02,1.02,68.14,0
2020-02-27T05:51:00-05:00,94.76,10.05,730.91,-2.55,0.77,61.6,0
2020-02-27T05:52:00-05:00,94.76,10.03,731.65,-4.02,0.81,58.3,0
2020-02-27T05:53:00-05:00,94.84,10.05,730.41,-1.82,0.74,81.63,0
2020-02-27T05:54:00-05:00,94.74,10.03,732.02,-1.97,0.68,109.39,0
2020-02-27T05:55:00-05:00,94.64,10.03,731.61,-3.44,0.76,86.71,0
2020-02-27T05:56:00-05:00,94.88,10.01,729.84,-3.44,0.6,81.72,0
2020-02-27T05:57:00-05:00,94.68,10.01,731.28,-1.52,0.58,17.05,0
2020-02-27T05:58:00-05:00,94.6,10,737,-3.29,0.66,97.46,0
2020-02-27T05:59:00-05:00,94.9,10.01,736.5,-2.7,0.57,63.29,0
2020-02-27T06:00:00-05:00,94.88,9.99,737.51,-1.23,0.64,66.52,0
2020-02-27T06:01:00-05:00,94.66,9.99,736.84,0.09,0.89,42.07,0
2020-02-27T06:02:00-05:00,94.66,9.95,736.94,-2.26,0.92,42.76,0
2020-02-27T06:03:00-05:00,94.58,9.91,736.47,-0.49,1.06,42.45,0
2020-02-27T06:04:00-05:00,95,9.93,737.2,0.98,0.96,62.16,0
2020-02-27T06:05:00-05:00,95.22,9.95,736.5,1.71,0.86,50.55,0
2020-02-27T06:06:00-05:00,95.36,9.97,738.04,0.24,0.89,48.14,0
2020-02-27T06:07:00-05:00,95.18,9.96,738.41,-0.05,0.66,61.09,0
2020-02-27T06:08:00-05:00,95.09,9.93,737.17,2.59,0.62,76.94,0
2020-02-27T06:09:00-05:00,95.09,9.92,737.44,0.83,0.89,89.34,0
2020-02-27T06:10:00-05:00,95.21,9.93,736.23,3.18,0.59,100.92,0
2020-02-27T06:11:00-05:00,95.21,9.91,737.84,2.74,0.75,114.51,0
2020-02-27T06:12:00-05:00,95,9.91,736.8,3.18,0.73,109.13,0
2020-02-27T06:13:00-05:00,95.16,9.93,738.41,4.06,0.63,109.59,0
2020-02-27T06:14:00-05:00,95.1,9.93,738.44,7,0.74,119.27,0
2020-02-27T06:15:00-05:00,95.11,9.97,736.4,6.12,0.71,123.44,0
2020-02-27T06:16:00-05:00,95.09,9.99,737.74,8.33,0.78,119.75,0
2020-02-27T06:17:00-05:00,95.1,10.01,736.27,7.3,0.76,116.65,0
2020-02-27T06:18:00-05:00,94.88,10.03,738.44,8.47,0.71,107.85,0
2020-02-27T06:19:00-05:00,94.89,10.05,737.61,9.5,1.09,115.63,0
2020-02-27T06:20:00-05:00,95.03,10.07,737.81,12.15,0.6,87.72,0
2020-02-27T06:21:00-05:00,95.04,10.08,738.81,12.59,0.86,103.96,0
2020-02-27T06:22:00-05:00,95.02,10.13,736.23,11.27,0.6,82.26,0
2020-02-27T06:23:00-05:00,94.96,10.13,737.81,14.35,0.65,63.33,0
2020-02-27T06:24:00-05:00,94.9,10.14,737.74,13.33,0.61,71.1,0
2020-02-27T06:25:00-05:00,94.49,10.12,735.97,14.5,0.63,57.64,0
2020-02-27T06:26:00-05:00,94.29,10.09,736,14.94,0.78,63.58,0
2020-02-27T06:27:00-05:00,94.32,10.06,736.57,17.88,0.78,68.16,0
2020-02-27T06:28:00-05:00,94.44,10.07,736.03,15.82,0.79,75.1,0
2020-02-27T06:29:00-05:00,94.64,10.05,737.34,18.47,0.63,63.51,0
2020-02-27T06:30:00-05:00,94.55,10.05,736.37,17.44,0.66,37.89,0
2020-02-27T06:31:00-05:00,94.45,10.05,737.07,19.94,0.56,22.57,0
2020-02-27T06:32:00-05:00,94.11,10.01,736,21.12,0.7,34.96,0
2020-02-27T06:33:00-05:00,94.09,9.99,737.1,21.12,0.68,69.56,0
2020-02-27T06:34:00-05:00,94.3,9.97,737.34,21.26,0.64,67.55,0
2020-02-27T06:35:00-05:00,94.31,9.96,736.23,23.47,0.59,55.43,0
2020-02-27T06:36:00-05:00,94.06,9.97,737.14,24.06,0.59,52.56,0
2020-02-27T06:37:00-05:00,94.13,9.97,736.5,25.82,0.95,48.03,0
2020-02-27T06:38:00-05:00,94.02,9.97,738.95,24.94,0.64,5.73,0
2020-02-27T06:39:00-05:00,93.73,10.02,736.47,25.82,0.88,29.28,0
2020-02-27T06:40:00-05:00,93.53,10.04,738.04,27.59,1.11,47.32,0
2020-02-27T06:41:00-05:00,93.31,10.1,738.81,29.64,1.24,55.15,0
2020-02-27T06:42:00-05:00,92.48,10.2,738.11,32.29,0.83,57.7,0
2020-02-27T06:43:00-05:00,91.82,10.28,737.41,39.35,0.73,37.07,0
2020-02-27T06:44:00-05:00,91.47,10.28,737.14,59.93,0.69,47.87,0
2020-02-27T06:45:00-05:00,91.37,10.28,738.18,81.84,0.84,55.3,0
2020-02-27T06:46:00-05:00,91.46,10.3,737.37,63.17,1.02,43.2,0
2020-02-27T06:47:00-05:00,91.79,10.34,738.48,45.23,0.69,70.87,0
2020-02-27T06:48:00-05:00,92.16,10.36,739.92,28.47,0.81,64.24,0
2020-02-27T06:49:00-05:00,92.08,10.38,740.38,22.15,1.03,71.51,0
2020-02-27T06:50:00-05:00,92.18,10.43,740.65,17.44,0.59,80.67,0
2020-02-27T06:51:00-05:00,92.33,10.46,739.85,18.03,0.6,65.35,0
2020-02-27T06:52:00-05:00,92.55,10.49,738.28,18.03,0.31,57.45,0
2020-02-27T06:53:00-05:00,92.8,10.56,740.65,19.94,0.59,74.65,0
2020-02-27T06:54:00-05:00,92.98,10.55,740.79,21.71,0.46,60.71,0
2020-02-27T06:55:00-05:00,92.86,10.56,738.68,22.44,0.06,71.6,0
2020-02-27T06:56:00-05:00,92.66,10.6,738.95,20.38,0.57,122.59,0
2020-02-27T06:57:00-05:00,92.66,10.62,738.74,22,0.62,115.83,0
2020-02-27T06:58:00-05:00,92.75,10.64,741.02,21.71,0.23,143.21,0
2020-02-27T06:59:00-05:00,93.14,10.68,739.82,23.32,0.33,52.71,0
2020-02-27T07:00:00-05:00,93.39,10.7,738.88,25.82,0.68,58.29,0
2020-02-27T07:01:00-05:00,93.66,10.74,738.24,26.41,0.61,54.28,0
2020-02-27T07:02:00-05:00,93.93,10.79,740.79,29.06,0.75,61.3,0
2020-02-27T07:03:00-05:00,93.68,10.82,740.05,29.64,0.77,65.33,0
2020-02-27T07:04:00-05:00,93.51,10.82,739.85,31.56,0.63,58.94,0
2020-02-27T07:05:00-05:00,93.3,10.82,740.99,31.41,1.31,55.95,0
2020-02-27T07:06:00-05:00,92.76,10.8,737.87,36.26,0.82,52.12,0
2020-02-27T07:07:00-05:00,93.15,10.82,738.48,38.61,0.76,73.64,0
2020-02-27T07:08:00-05:00,93.21,10.87,737.84,44.2,1.1,67.2,0
2020-02-27T07:09:00-05:00,93.01,10.92,740.28,46.11,0.48,49.27,0
2020-02-27T07:10:00-05:00,93.11,10.97,740.92,48.61,0.22,61.12,0
2020-02-27T07:11:00-05:00,93.12,11,738.81,46.11,0.37,9.37,0
2020-02-27T07:12:00-05:00,93.26,11.03,737.64,45.52,0.75,40.96,0
2020-02-27T07:13:00-05:00,92.93,11.05,738.61,47.88,0.22,319.58,0
2020-02-27T07:14:00-05:00,92.91,11.11,738.71,49.79,0.5,92.83,0
2020-02-27T07:15:00-05:00,92.88,11.14,738.85,53.46,0.39,292.7,0
2020-02-27T07:16:00-05:00,93.12,11.17,738.21,57.14,0.48,30.01,0
2020-02-27T07:17:00-05:00,92.95,11.19,740.42,58.61,0.67,25.09,0
2020-02-27T07:18:00-05:00,92.62,11.22,740.55,58.61,0.19,17.33,0
2020-02-27T07:19:00-05:00,92.78,11.24,738.44,61.11,0.6,62.49,0
2020-02-27T07:20:00-05:00,92.97,11.3,737.91,64.78,0.69,65.13,0
2020-02-27T07:21:00-05:00,92.85,11.31,740.42,63.9,0.18,243.16,0
2020-02-27T07:22:00-05:00,92.8,11.36,738.74,66.55,0.3,236.8,0
2020-02-27T07:23:00-05:00,92.88,11.38,739.75,68.46,0.25,2.09,0
2020-02-27T07:24:00-05:00,92.51,11.38,738.01,71.11,0.64,49.62,0
2020-02-27T07:25:00-05:00,91.96,11.42,739.41,70.81,0.59,36.32,0
2020-02-27T07:26:00-05:00,91.41,11.44,738.21,73.16,0.67,50.21,0
2020-02-27T07:27:00-05:00,91.12,11.48,739.35,71.84,0.65,98.62,0
2020-02-27T07:28:00-05:00,91.01,11.52,740.18,71.84,0.64,59.96,0
2020-02-27T07:29:00-05:00,90.87,11.54,737.87,75.22,0.66,70.14,0
2020-02-27T07:30:00-05:00,90.75,11.57,738.98,82.43,0.54,36.08,0
2020-02-27T07:31:00-05:00,90.88,11.61,737.41,89.92,0.49,335.58,0
2020-02-27T07:32:00-05:00,91.21,11.65,737,100.8,0.11,264.77,0
2020-02-27T07:33:00-05:00,91.31,11.71,738.21,107.13,0.58,298.74,0
2020-02-27T07:34:00-05:00,91.08,11.74,737.77,114.48,0.27,17.05,0
2020-02-27T07:35:00-05:00,91,11.77,737.67,119.33,0.52,17.97,0
2020-02-27T07:36:00-05:00,90.63,11.81,737.47,121.53,0.28,263.08,0
2020-02-27T07:37:00-05:00,90.88,11.86,737.2,125.65,0.43,58.76,0
2020-02-27T07:38:00-05:00,90.79,11.91,738.24,131.38,0.64,23.08,0
2020-02-27T07:39:00-05:00,90.86,11.96,738.01,139.18,0.23,330.53,0
2020-02-27T07:40:00-05:00,90.04,11.92,737.34,145.21,0.81,43.56,0
2020-02-27T07:41:00-05:00,89.8,11.93,738.54,152.12,0.59,35.67,0
2020-02-27T07:42:00-05:00,90.15,11.96,739.08,157.26,0.92,19.31,0
2020-02-27T07:43:00-05:00,89.9,11.98,737.94,161.38,0.9,320.57,0
2020-02-27T07:44:00-05:00,90.57,12,739.11,166.08,0.6,15.71,0
2020-02-27T07:45:00-05:00,90.43,12.04,737.64,167.41,0.4,332.5,0
2020-02-27T07:46:00-05:00,90.67,12.09,739.21,171.67,0.43,17.23,0
2020-02-27T07:47:00-05:00,90.93,12.16,739.75,171.82,0.78,30.92,0
2020-02-27T07:48:00-05:00,90.82,12.21,739.51,176.37,0.44,266.73,0
2020-02-27T07:49:00-05:00,91.5,12.26,739.15,176.82,0.12,341.59,0
2020-02-27T07:50:00-05:00,90.58,12.3,740.02,171.38,0.41,336.5,0
2020-02-27T07:51:00-05:00,90.69,12.35,739.58,165.94,0.78,45.59,0
2020-02-27T07:52:00-05:00,90.09,12.37,739.51,160.05,0.75,77.28,0
2020-02-27T07:53:00-05:00,88.82,12.38,741.02,158.14,0.59,56.94,0
2020-02-27T07:54:00-05:00,88.67,12.4,741.22,149.47,0.48,75.04,0
2020-02-27T07:55:00-05:00,88.68,12.43,741.29,137.41,0.23,272,0
2020-02-27T07:56:00-05:00,88.92,12.47,741.89,123.89,0.39,304.61,0
2020-02-27T07:57:00-05:00,89.12,12.52,740.89,109.63,0.63,24.97,0
2020-02-27T07:58:00-05:00,88.64,12.51,740.85,102.13,0.61,301.65,0
2020-02-27T07:59:00-05:00,88.91,12.55,742.36,95.95,0.66,28.66,0
2020-02-27T08:00:00-05:00,88.86,12.53,741.22,95.51,0.34,63.47,0
2020-02-27T08:01:00-05:00,88.83,12.53,742.66,97.13,0.26,249.19,0
2020-02-27T08:02:00-05:00,89.7,12.57,741.86,102.72,0.44,258.8,0
2020-02-27T08:03:00-05:00,90.12,12.62,741.15,109.92,0.29,280.71,0
2020-02-27T08:04:00-05:00,90.35,12.66,742.73,120.51,0.61,90.27,0
2020-02-27T08:05:00-05:00,89.72,12.65,743.1,126.39,0.2,334.62,0
2020-02-27T08:06:00-05:00,89.67,12.69,742.69,125.21,0.13,154.23,0
2020-02-27T08:07:00-05:00,89.38,12.69,743.1,122.12,0.22,304.64,0
2020-02-27T08:08:00-05:00,89.06,12.72,743.4,117.27,0.57,92.76,0
2020-02-27T08:09:00-05:00,88.38,12.7,743.2,122.71,0.24,146.25,0
2020-02-27T08:10:00-05:00,87.76,12.71,741.99,129.91,0.14,49.66,0
2020-02-27T08:11:00-05:00,88.24,12.73,742.49,136.82,0.33,185.97,0
2020-02-27T08:12:00-05:00,88.37,12.79,739.11,143.88,0.58,324.01,0
2020-02-27T08:13:00-05:00,88.01,12.8,738.14,141.09,0.29,64.67,0
2020-02-27T08:14:00-05:00,87.32,12.79,739.51,143.44,0.41,15.15,0
2020-02-27T08:15:00-05:00,87.9,12.79,739.35,152.85,0.56,57.94,0
2020-02-27T08:16:00-05:00,87.95,12.79,738.14,176.52,0.9,15.17,0
2020-02-27T08:17:00-05:00,87.49,12.78,739.62,190.64,0.23,322.53,0
2020-02-27T08:18:00-05:00,87.32,12.79,738.91,185.05,0.58,62.54,0
2020-02-27T08:19:00-05:00,87.35,12.8,738.88,178.87,0.93,39.09,0
2020-02-27T08:20:00-05:00,86.72,12.79,739.55,172.4,1.19,33.38,0
2020-02-27T08:21:00-05:00,86.42,12.79,740.18,173.58,0.71,27.13,0
2020-02-27T08:22:00-05:00,86.06,12.77,738.41,180.93,0.75,54.7,0
2020-02-27T08:23:00-05:00,86.56,12.78,739.51,185.34,0.95,65.01,0
2020-02-27T08:24:00-05:00,85.92,12.75,739.25,186.37,0.76,55.86,0
2020-02-27T08:25:00-05:00,85.98,12.75,739.62,184.61,0.46,68.43,0
2020-02-27T08:26:00-05:00,85.67,12.75,739.11,183.87,0.09,320.59,0
2020-02-27T08:27:00-05:00,85.77,12.82,740.28,186.37,0.06,124.21,0
2020-02-27T08:28:00-05:00,86.46,12.88,740.92,181.96,0.58,71.11,0
2020-02-27T08:29:00-05:00,86.2,12.93,740.85,173.87,0.51,109.16,0
2020-02-27T08:30:00-05:00,85.37,12.92,740.55,161.97,0.61,66.61,0
2020-02-27T08:31:00-05:00,85.72,12.95,739.95,159.32,0.66,81.39,0
2020-02-27T08:32:00-05:00,86.17,12.99,740.08,158.88,0.66,90.12,0
2020-02-27T08:33:00-05:00,86.34,13.02,739.82,159.91,0.6,23.91,0
2020-02-27T08:34:00-05:00,86.26,13.04,739.98,167.26,0.6,47.83,0
2020-02-27T08:35:00-05:00,85.8,13.07,741.26,173.43,2.66,52.07,0
2020-02-27T08:36:00-05:00,84.67,13.04,741.02,177.99,0.86,357.45,0
2020-02-27T08:37:00-05:00,83.72,13.02,739.51,185.78,1.54,26.44,0
2020-02-27T08:38:00-05:00,84.97,13.04,740.95,195.49,1.19,14.09,0
2020-02-27T08:39:00-05:00,83.55,13.01,740.82,211.81,0.55,24.87,0
2020-02-27T08:40:00-05:00,83.74,13.03,740.59,219.89,1.99,40.55,0
2020-02-27T08:41:00-05:00,82.37,12.99,739.62,219.45,1.33,45.4,0
2020-02-27T08:42:00-05:00,83.38,12.97,739.75,221.51,1.01,42.66,0
2020-02-27T08:43:00-05:00,83.96,13,739.92,230.04,0.49,16.97,0
2020-02-27T08:44:00-05:00,84.26,13.06,739.92,243.42,0.97,55.92,0
2020-02-27T08:45:00-05:00,83.54,13.1,741.56,244.89,1.03,44.47,0
2020-02-27T08:46:00-05:00,83.99,13.16,741.76,245.33,0.73,46.11,0
2020-02-27T08:47:00-05:00,83.11,13.19,740.62,246.8,0.24,105.2,0
2020-02-27T08:48:00-05:00,83.65,13.26,741.62,253.86,0.39,306.6,0
2020-02-27T08:49:00-05:00,83.34,13.32,741.02,260.32,1.02,349.43,0
2020-02-27T08:50:00-05:00,81.1,13.36,741.46,269,0.57,337.85,0
2020-02-27T08:51:00-05:00,81.94,13.4,742.29,280.03,0.07,235.83,0
2020-02-27T08:52:00-05:00,81.99,13.46,742.46,307.67,0.43,245.1,0
2020-02-27T08:53:00-05:00,81.48,13.54,741.59,322.07,0.6,41,0
2020-02-27T08:54:00-05:00,81.71,13.63,741.66,686.84,0.82,10.72,0
2020-02-27T08:55:00-05:00,80.86,13.74,742.13,794.02,0.56,48.92,0
2020-02-27T08:56:00-05:00,80.76,13.97,744.5,643.91,0.84,312.9,0
2020-02-27T08:57:00-05:00,78.02,14.12,744.5,749.03,0.59,36.42,0
2020-02-27T08:58:00-05:00,78.28,14.33,740.89,741.39,0.17,272.91,0
2020-02-27T08:59:00-05:00,79.97,14.59,739.08,753.59,0.3,275.69,0
2020-02-27T09:00:00-05:00,77.53,14.81,738.98,722.42,0.14,95.64,0
2020-02-27T09:01:00-05:00,77.98,15.09,738.18,707.28,0.55,15.36,0
2020-02-27T09:02:00-05:00,73.65,15.32,737.67,300.76,0.21,2.74,0
2020-02-27T09:03:00-05:00,74.35,15.47,737.81,193.58,0.24,190.98,0
2020-02-27T09:04:00-05:00,72.34,15.48,737.94,308.4,0.27,154.25,0
2020-02-27T09:05:00-05:00,73.75,15.47,739.25,279.73,0.5,72.23,0
2020-02-27T09:06:00-05:00,75.41,15.5,739.45,250.77,0.27,115.13,0
2020-02-27T09:07:00-05:00,75.14,15.59,739.18,647.88,0.32,4.97,0
2020-02-27T09:08:00-05:00,76.97,15.71,739.15,749.18,0.54,148.44,0
2020-02-27T09:09:00-05:00,74.85,15.85,739.21,767.56,0.52,41.05,0
2020-02-27T09:10:00-05:00,73.74,16.02,738.78,760.94,0.33,268.72,0
2020-02-27T09:11:00-05:00,74.81,16.15,738.54,766.23,0.81,197.36,0
2020-02-27T09:12:00-05:00,73.76,16.21,737.67,788.87,0.56,168.1,0
2020-02-27T09:13:00-05:00,72.23,16.26,738.41,629.06,0.16,95.36,0
2020-02-27T09:14:00-05:00,73.57,16.31,738.54,778.44,0.23,55.86,0
2020-02-27T09:15:00-05:00,70.66,16.4,737.67,782.26,0.35,94.03,0
2020-02-27T09:16:00-05:00,72.62,16.52,739.08,789.46,0.51,133.64,0
2020-02-27T09:17:00-05:00,70.48,16.71,741.32,786.23,1.27,23.79,0
2020-02-27T09:18:00-05:00,71.62,16.86,742.26,778.44,0.95,39.76,0
2020-02-27T09:19:00-05:00,67.7,16.82,741.79,784.17,0.85,32.37,0
2020-02-27T09:20:00-05:00,66.41,16.73,742.66,789.17,0.85,36.42,0
2020-02-27T09:21:00-05:00,70.33,16.73,743.53,791.81,0.58,99.42,0
2020-02-27T09:22:00-05:00,68.48,16.78,743.57,786.52,0.55,82.79,0
2020-02-27T09:23:00-05:00,70.31,16.92,737.24,772.55,0.55,82.79,0
2020-02-27T09:24:00-05:00,69.41,16.96,738.51,760.94,0.75,35.68,0
2020-02-27T09:25:00-05:00,66.41,16.84,737.61,674.78,0.58,46.41,0
2020-02-27T09:26:00-05:00,67.28,16.84,739.05,787.26,0.82,32.75,0
2020-02-27T09:27:00-05:00,67.75,16.86,739.68,782.55,0.8,20.47,0
2020-02-27T09:28:00-05:00,67.42,16.88,739.45,786.67,0.51,27.16,0
2020-02-27T09:29:00-05:00,68.44,16.88,740.45,795.49,0.48,42.6,0
2020-02-27T09:30:00-05:00,68.59,17.01,738.24,801.81,1.07,48.26,0
2020-02-27T09:31:00-05:00,67.65,17.04,737.54,675.67,0.53,189.99,0
2020-02-27T09:32:00-05:00,66.9,17.01,737.87,829.31,0.73,323.73,0
2020-02-27T09:33:00-05:00,64.92,17,737.61,840.63,0.55,309.62,0
2020-02-27T09:34:00-05:00,67.02,16.99,738.61,210.19,0.82,173.11,0
2020-02-27T09:35:00-05:00,66.03,16.78,738.71,231.8,0.49,168.08,0
2020-02-27T09:36:00-05:00,69.62,16.74,738.68,617,0.55,270.67,0
2020-02-27T09:37:00-05:00,68.13,16.74,737.34,589.95,0.35,192.95,0
2020-02-27T09:38:00-05:00,67.81,16.76,737.41,861.94,0.59,173.13,0
2020-02-27T09:39:00-05:00,69.53,16.76,737.24,724.92,0.76,201.91,0
2020-02-27T09:40:00-05:00,65.11,16.68,737.57,160.05,0.65,88.11,0
2020-02-27T09:41:00-05:00,65.35,16.45,738.51,423.96,0.78,104.52,0
2020-02-27T09:42:00-05:00,67.04,16.34,738.71,174.9,0.54,301.92,0
2020-02-27T09:43:00-05:00,69.15,16.36,737.97,918.4,0.25,349.74,0
2020-02-27T09:44:00-05:00,70.08,16.42,738.61,918.7,0.52,293.67,0
2020-02-27T09:45:00-05:00,71.24,16.54,738.71,569.81,0.5,71.44,0
2020-02-27T09:46:00-05:00,71.95,16.64,737.44,820.04,0.61,118.65,0
2020-02-27T09:47:00-05:00,72.17,16.78,738.58,184.02,0.38,273,0
2020-02-27T09:48:00-05:00,72.96,16.92,738.44,189.9,0.22,183.99,0
2020-02-27T09:49:00-05:00,71.57,16.97,737.71,882.82,0.63,275.07,0
2020-02-27T09:50:00-05:00,70.85,17.02,737.37,905.91,0.11,146.25,0
2020-02-27T09:51:00-05:00,70.44,17.13,738.64,901.64,0.37,37.31,0
2020-02-27T09:52:00-05:00,68.51,17.23,738.41,907.82,1.17,40.75,0
2020-02-27T09:53:00-05:00,67.56,17.15,738.21,911.34,0.37,163.14,0
2020-02-27T09:54:00-05:00,67.94,17.27,738.48,910.9,0.57,87.32,0
2020-02-27T09:55:00-05:00,63.66,17.25,738.01,921.2,1.21,41.23,0
2020-02-27T09:56:00-05:00,65.7,17.16,738.58,931.63,0.55,66.14,0
2020-02-27T09:57:00-05:00,65.73,17.23,737.1,951.48,0.61,322.49,0
2020-02-27T09:58:00-05:00,68.01,17.37,738.48,959.57,0.26,317.59,0
2020-02-27T09:59:00-05:00,66.15,17.55,738.48,952.51,0.77,17.35,0
2020-02-27T10:00:00-05:00,65.81,17.78,737.44,950.16,0.57,316.96,0
2020-02-27T10:01:00-05:00,64.59,18.01,738.08,955.01,0.19,79.64,0
2020-02-27T10:02:00-05:00,61.36,18.06,736.97,955.45,0.76,46.36,0
2020-02-27T10:03:00-05:00,64.44,18.11,738.41,950.16,0.21,175.05,0
2020-02-27T10:04:00-05:00,63.11,18.23,738.44,957.66,0.54,199.33,0
2020-02-27T10:05:00-05:00,60.43,18.28,737.64,960.6,0.3,275.69,0
2020-02-27T10:06:00-05:00,63.17,18.4,737.34,966.04,0.66,18.91,0
2020-02-27T10:07:00-05:00,62.15,18.51,737.81,966.48,0.71,207.98,0
2020-02-27T10:08:00-05:00,58.47,18.58,737.14,978.68,0.88,134.95,0
2020-02-27T10:09:00-05:00,58.96,18.57,737.24,980.45,0.24,214.93,0
2020-02-27T10:10:00-05:00,57.97,18.61,737.84,969.86,0.77,223.91,0
2020-02-27T10:11:00-05:00,60.38,18.43,737.91,975.74,0.25,152.06,0
2020-02-27T10:12:00-05:00,62.65,18.43,738.31,967.95,0.21,225.84,0
2020-02-27T10:13:00-05:00,67.53,18.6,737.61,972.65,0.81,189,0
2020-02-27T10:14:00-05:00,61.45,18.75,738.31,887.23,0.56,113.99,0
2020-02-27T10:15:00-05:00,62.41,18.79,737.07,852.39,0.87,6.81,0
2020-02-27T10:16:00-05:00,62.39,18.81,738.34,1032.64,0.7,236.06,0
2020-02-27T10:17:00-05:00,60.33,18.78,737.1,1022.79,0.57,249.15,0
2020-02-27T10:18:00-05:00,61.25,18.83,737.41,1015.73,1.52,35.01,0
2020-02-27T10:19:00-05:00,62.96,18.86,737.47,1004.41,0.66,72.9,0
2020-02-27T10:20:00-05:00,63.65,19.04,738.34,1023.52,1.52,5.61,0
2020-02-27T10:21:00-05:00,60.89,19.02,736.87,1049.4,2.6,16.07,0
2020-02-27T10:22:00-05:00,59.48,18.93,738.28,1029.11,1.67,354.44,0
2020-02-27T10:23:00-05:00,60.57,18.8,738.28,1028.23,0.84,5.79,0
2020-02-27T10:24:00-05:00,61.42,18.74,737,1037.2,0.91,56.34,0
2020-02-27T10:25:00-05:00,59.55,18.59,737.97,1008.23,2.42,49.28,0
2020-02-27T10:26:00-05:00,61.15,18.36,738.21,1052.34,1.5,84.23,0
2020-02-27T10:27:00-05:00,61.81,18.36,736.77,1056.02,1.53,4.68,0
2020-02-27T10:28:00-05:00,61.49,18.52,738.14,1060.13,1.25,64.39,0
2020-02-27T10:29:00-05:00,62.15,18.49,738.41,1071.75,0.9,35.56,0
2020-02-27T10:30:00-05:00,63.38,18.62,737.64,245.48,0.26,284.65,0
2020-02-27T10:31:00-05:00,60.97,18.71,737.81,643.61,1.75,42.8,0
2020-02-27T10:32:00-05:00,62.3,18.6,737.17,1015.14,1.83,18.52,0
2020-02-27T10:33:00-05:00,62.07,18.58,736.74,1056.46,0.75,78.43,0
2020-02-27T10:34:00-05:00,59.22,18.44,737.2,455.72,1.89,42.59,0
2020-02-27T10:35:00-05:00,63.01,18.4,737.2,1069.4,1.15,354.44,0
2020-02-27T10:36:00-05:00,63.71,18.5,737.2,262.68,0.79,58.83,0
2020-02-27T10:37:00-05:00,60.11,18.39,737.61,1089.39,0.89,55.62,0
2020-02-27T10:38:00-05:00,61.69,18.45,737.77,1112.18,2.62,61.5,0
2020-02-27T10:39:00-05:00,60.19,18.35,738.41,1132.62,2.23,62.9,0
2020-02-27T10:40:00-05:00,60.09,18.15,737.57,1108.06,0.85,7.74,0
2020-02-27T10:41:00-05:00,62.38,18.23,737.41,1099.83,1.99,41.71,0
2020-02-27T10:42:00-05:00,62.83,18.38,738.11,1102.92,0.57,105.19,0
2020-02-27T10:43:00-05:00,63.27,18.64,736.97,1093.65,0.3,73.01,0
2020-02-27T10:44:00-05:00,60.48,18.8,738.11,1083.95,1.37,2.74,0
2020-02-27T10:45:00-05:00,59.49,18.87,737.17,1087.63,0.54,115.17,0
2020-02-27T10:46:00-05:00,58.21,18.91,737.51,1100.86,2.14,21.13,0
2020-02-27T10:47:00-05:00,59.07,18.86,737.47,1091.01,1.74,52.66,0
2020-02-27T10:48:00-05:00,55.9,18.8,737,1122.62,0.49,115.12,0
2020-02-27T10:49:00-05:00,58.98,18.78,737.14,1064.1,2.19,21.6,0
2020-02-27T10:50:00-05:00,58.65,18.84,738.21,1093.36,1.96,6.92,0
2020-02-27T10:51:00-05:00,56.78,18.92,736.43,1106.74,1.59,30.59,0
2020-02-27T10:52:00-05:00,57.3,18.82,737.47,1116,0.62,38.93,0
2020-02-27T10:53:00-05:00,55.25,18.71,738.31,1118.21,0.31,352.82,0
2020-02-27T10:54:00-05:00,55.59,18.79,737.34,1121.44,0.56,44.79,0
2020-02-27T10:55:00-05:00,54.29,18.86,737.77,1139.97,0.63,61.21,0
2020-02-27T10:56:00-05:00,53.39,18.93,738.11,1149.38,0.38,106.96,0
2020-02-27T10:57:00-05:00,54.93,19.1,738.11,1133.79,2.52,59.13,0
2020-02-27T10:58:00-05:00,55.38,19.06,737.04,1121.15,1.72,51.67,0
2020-02-27T10:59:00-05:00,54.62,19,737.41,1117.77,1.55,52.87,0
2020-02-27T11:00:00-05:00,57.48,19.1,737.04,1123.5,0.58,292.68,0
2020-02-27T11:01:00-05:00,54.96,19.28,738.34,460.42,1.67,0.82,0
2020-02-27T11:02:00-05:00,53.9,19.26,738.14,1171.87,0.71,356.44,0
2020-02-27T11:03:00-05:00,56.08,19.3,736.94,1183.93,0.57,94.13,0
2020-02-27T11:04:00-05:00,55.05,19.4,738.04,1191.28,0.97,30.65,0
2020-02-27T11:05:00-05:00,57.18,19.47,737.24,570.1,2.24,63.51,0
2020-02-27T11:06:00-05:00,54.56,19.46,736.97,1190.84,0.59,8.42,0
2020-02-27T11:07:00-05:00,56.72,19.56,737.04,1199.22,0.72,240.82,0
2020-02-27T11:08:00-05:00,54.07,19.72,737.97,1188.48,0.94,247.08,0
2020-02-27T11:09:00-05:00,57.56,19.86,737.31,1195.54,0.7,276.73,0
2020-02-27T11:10:00-05:00,50.61,19.95,738.01,410.29,0.22,233.21,0
2020-02-27T11:11:00-05:00,52.55,19.99,736.87,1153.93,0.57,210.9,0
2020-02-27T11:12:00-05:00,51.81,20.05,736.67,1128.2,0.64,323.89,0
2020-02-27T11:13:00-05:00,51.3,20.06,737.81,1102.77,0.66,41.59,0
2020-02-27T11:14:00-05:00,50.61,20.11,736.54,1101.01,1.19,284.69,0
2020-02-27T11:15:00-05:00,51.44,20.12,736.57,1110.27,0.56,184.03,0
2020-02-27T11:16:00-05:00,49.5,20.11,737.37,1093.65,0.56,36.08,0
2020-02-27T11:17:00-05:00,51.52,20.11,737.57,1111.15,0.61,198,0
2020-02-27T11:18:00-05:00,55.17,20.27,737.54,1132.17,0.6,266.78,0
2020-02-27T11:19:00-05:00,56.2,20.43,737.47,1143.49,0.85,271.65,0
2020-02-27T11:20:00-05:00,49.85,20.55,737.71,1161.58,0.24,50.16,0
2020-02-27T11:21:00-05:00,48.41,20.35,736.33,1150.11,0.61,338.49,0
2020-02-27T11:22:00-05:00,48.5,20.27,736.1,1161.14,0.59,73.26,0
2020-02-27T11:23:00-05:00,53.05,20.33,737.17,1166.87,0.61,231.22,0
2020-02-27T11:24:00-05:00,54.21,20.52,737.04,1127.91,0.8,222.91,0
2020-02-27T11:25:00-05:00,52.73,20.67,736.54,1209.8,1.08,218.25,0
2020-02-27T11:26:00-05:00,49.49,20.67,737.17,1151.14,0.64,231.85,0
2020-02-27T11:27:00-05:00,47.43,20.65,736.8,1150.7,0.62,69.49,0
2020-02-27T11:28:00-05:00,52.6,20.7,737.2,1159.08,0.69,197.01,0
2020-02-27T11:29:00-05:00,52.01,20.79,736.23,449.25,0.62,256.09,0
2020-02-27T11:30:00-05:00,53.8,20.86,737.14,320.6,0.65,218.86,0
2020-02-27T11:31:00-05:00,54.87,20.82,736.37,1182.46,1.4,225.86,0
2020-02-27T11:32:00-05:00,51.23,20.71,736.27,1106,0.58,211.23,0
2020-02-27T11:33:00-05:00,48.51,20.7,736.7,821.22,0.93,261.64,0
2020-02-27T11:34:00-05:00,49.21,20.73,736.7,950.01,2.05,213.91,0
2020-02-27T11:35:00-05:00,50.11,20.65,736.1,1177.16,0.42,6.45,0
2020-02-27T11:36:00-05:00,54.07,20.71,736.5,334.13,0.55,334.58,0
2020-02-27T11:37:00-05:00,51.95,20.75,736.84,426.76,0.35,238.85,0
2020-02-27T11:38:00-05:00,54.55,20.83,736.43,692.28,0.62,191.01,0
2020-02-27T11:39:00-05:00,48.06,20.81,737.47,1069.54,1.01,212.86,0
2020-02-27T11:40:00-05:00,48.51,20.56,735.93,1175.69,0.92,190.35,0
2020-02-27T11:41:00-05:00,51.18,20.45,736.43,674.64,0.57,280.6,0
2020-02-27T11:42:00-05:00,50.21,20.39,736.6,1145.99,1.11,278,0
2020-02-27T11:43:00-05:00,50.31,20.53,736.27,917.23,1.45,312.59,0
2020-02-27T11:44:00-05:00,51.53,20.59,736.54,1129.53,0.17,272.04,0
2020-02-27T11:45:00-05:00,46.6,20.69,737,1136,2.15,274.73,0
2020-02-27T11:46:00-05:00,47.39,20.72,737.27,1140.26,1.35,327.83,0
2020-02-27T11:47:00-05:00,45.02,20.72,736.94,1179.52,1.23,175.09,0
2020-02-27T11:48:00-05:00,49.55,20.59,736.5,1208.48,1.9,249.79,0
2020-02-27T11:49:00-05:00,49.01,20.71,736.87,1215.83,0.71,208.94,0
2020-02-27T11:50:00-05:00,47.31,20.72,735.93,1232.15,0.67,206.02,0
2020-02-27T11:51:00-05:00,45.9,20.76,735.97,1274.35,2.08,251.76,0
2020-02-27T11:52:00-05:00,46.51,20.84,736.54,717.57,0.7,321.53,0
2020-02-27T11:53:00-05:00,43.67,20.87,736.97,890.47,0.82,321.54,0
2020-02-27T11:54:00-05:00,45.96,20.93,735.8,1215.24,0.55,68.81,0
2020-02-27T11:55:00-05:00,47.49,21,736.2,694.04,0.65,60.35,0
2020-02-27T11:56:00-05:00,46.67,21.18,736.6,467.33,2.36,290.71,0
2020-02-27T11:57:00-05:00,47.6,21.17,736.23,593.48,0.72,283.04,0
2020-02-27T11:58:00-05:00,45.68,21.21,737.04,1259.5,0.85,227.82,0
2020-02-27T11:59:00-05:00,48.24,21.25,736.77,447.78,0.68,236.15,0
2020-02-27T12:00:00-05:00,50.4,21.32,735.97,453.07,0.59,113.14,0
2020-02-27T12:01:00-05:00,51.27,21.37,737.1,444.55,0.52,250.15,0
2020-02-27T12:02:00-05:00,46.79,21.32,737.37,408.08,2.58,307.63,0
2020-02-27T12:03:00-05:00,46,21.13,737.64,408.38,1.19,287.65,0
2020-02-27T12:04:00-05:00,47.42,21.03,737.24,1084.69,2.49,308.64,0
2020-02-27T12:05:00-05:00,48.68,21,735.77,936.04,0.62,152.17,0
2020-02-27T12:06:00-05:00,46.21,21.03,736.87,1277.73,0.88,152.28,0
2020-02-27T12:07:00-05:00,44.56,20.99,736.64,1292.58,0.48,15.28,0
2020-02-27T12:08:00-05:00,45.3,21.02,737.17,1302.72,0.47,13.4,0
2020-02-27T12:09:00-05:00,46,21.14,736.13,1285.08,0.65,56.97,0
2020-02-27T12:10:00-05:00,49.84,21.35,736.3,1315.07,0.67,278.64,0
2020-02-27T12:11:00-05:00,45.51,21.54,736.37,1336.24,0.61,28.71,0
2020-02-27T12:12:00-05:00,49.67,21.68,736.13,1206.72,1.29,350.86,0
2020-02-27T12:13:00-05:00,50.85,21.94,735.97,569.96,0.49,245.74,0
2020-02-27T12:14:00-05:00,46.49,22.22,736.54,1308.75,0.3,35.52,0
2020-02-27T12:15:00-05:00,46.33,22.31,735.97,506.15,0.35,269.69,0
2020-02-27T12:16:00-05:00,44.42,22.4,736.87,420.87,1.31,250.19,0
2020-02-27T12:17:00-05:00,44.15,22.26,735.36,379.12,1.2,225.87,0
2020-02-27T12:18:00-05:00,45.2,22.01,736,349.13,1.07,326.92,0
2020-02-27T12:19:00-05:00,44.07,21.69,736.3,325.75,0.64,280.6,0
2020-02-27T12:20:00-05:00,43.75,21.44,736.94,291.35,0.48,321.54,0
2020-02-27T12:21:00-05:00,45.83,21.3,736.77,263.27,0.88,127.15,0
2020-02-27T12:22:00-05:00,49.47,21.16,736.64,244.3,0.22,302.63,0
2020-02-27T12:23:00-05:00,46.89,21.07,736.37,239.01,0.32,120.67,0
2020-02-27T12:24:00-05:00,46.93,20.97,736.97,245.33,0.19,310.63,0
2020-02-27T12:25:00-05:00,46.39,20.91,736.37,256.65,0.57,234.81,0
2020-02-27T12:26:00-05:00,47.15,20.81,736.3,266.35,0.55,317.59,0
2020-02-27T12:27:00-05:00,48.9,20.66,736.17,279.73,0.33,315.56,0
2020-02-27T12:28:00-05:00,46.91,20.52,735.93,302.23,1.04,232.87,0
2020-02-27T12:29:00-05:00,45.34,20.35,736.4,275.17,0.56,159.49,0
2020-02-27T12:30:00-05:00,47.52,20.17,736.07,257.38,0.79,166.14,0
2020-02-27T12:31:00-05:00,53.07,20.1,736.7,269.44,0.65,170.44,0
2020-02-27T12:32:00-05:00,51.69,20.07,736.03,323.4,0.7,231.87,0
2020-02-27T12:33:00-05:00,52.67,20.03,735.9,284.29,0.29,196.23,0
2020-02-27T12:34:00-05:00,56.68,20.03,735.77,282.23,0.62,244.75,0
2020-02-27T12:35:00-05:00,53.34,19.99,736.1,277.67,0.45,335.88,0
2020-02-27T12:36:00-05:00,56.48,19.92,735.8,877.82,1.78,207.98,0
2020-02-27T12:37:00-05:00,58,19.78,736.64,287.38,2.49,190.03,0
2020-02-27T12:38:00-05:00,57.72,19.52,737.1,346.33,1.94,158.17,0
2020-02-27T12:39:00-05:00,59.97,19.34,737,472.63,1.01,201.91,0
2020-02-27T12:40:00-05:00,60.74,19.28,735.83,345.75,0.79,177.35,0
2020-02-27T12:41:00-05:00,61.09,19.21,736,461.75,1.77,103.58,0
2020-02-27T12:42:00-05:00,63.49,19.18,736,338.98,0.76,196.99,0
2020-02-27T12:43:00-05:00,60.07,19.14,736.47,298.26,0.97,218.87,0
2020-02-27T12:44:00-05:00,62.04,19.1,736.54,263.12,0.57,251.77,0
2020-02-27T12:45:00-05:00,63.62,19.11,736.97,225.48,0.26,112.21,0
2020-02-27T12:46:00-05:00,62.15,19.15,736.33,202.69,0.69,58.88,0
2020-02-27T12:47:00-05:00,59.84,19.09,736.84,182.4,0.97,181.07,0
2020-02-27T12:48:00-05:00,60.2,19.02,736.97,170.05,3.26,193.31,0
2020-02-27T12:49:00-05:00,60.28,18.87,735.87,148,1.1,175.08,0
2020-02-27T12:50:00-05:00,61.9,18.76,736.9,127.12,0.55,206.34,0
2020-02-27T12:51:00-05:00,63.03,18.65,736.67,110.51,0.64,151.91,0
2020-02-27T12:52:00-05:00,64.01,18.6,736.23,93.45,0.59,243.19,0
2020-02-27T12:53:00-05:00,61.84,18.52,736.07,79.63,0.68,228.84,0
2020-02-27T12:54:00-05:00,60.69,18.39,736.27,70.37,0.6,331.51,0
2020-02-27T12:55:00-05:00,61.89,18.31,735.93,61.55,0.81,17.09,0
2020-02-27T12:56:00-05:00,63.17,18.25,736.94,58.76,0.78,120.23,0
2020-02-27T12:57:00-05:00,63.33,18.13,736.43,50.23,2.03,214.93,0
2020-02-27T12:58:00-05:00,64.61,18.02,736,44.49,0.23,191.01,0
2020-02-27T12:59:00-05:00,65.28,17.95,735.97,41.7,0.86,290.71,0
2020-02-27T13:00:00-05:00,65.19,17.86,735.93,33.47,2.29,152.14,0
2020-02-27T13:01:00-05:00,65.59,17.66,736.7,31.11,2.3,196.99,0
2020-02-27T13:02:00-05:00,67.46,17.53,736.07,34.5,0.94,212.87,0
2020-02-27T13:03:00-05:00,67.42,17.37,737,30.67,1.04,168.45,0
2020-02-27T13:04:00-05:00,68.72,17.33,736.07,28.03,0.42,7.49,0
2020-02-27T13:05:00-05:00,67.92,17.31,736.87,26.41,1.37,64.35,0
2020-02-27T13:06:00-05:00,69.13,17.26,737.07,28.62,0.38,237.75,0
2020-02-27T13:07:00-05:00,69.27,17.21,737.04,28.03,1.26,193.32,0
2020-02-27T13:08:00-05:00,68.2,17.13,736.94,25.68,2.2,88.58,0
2020-02-27T13:09:00-05:00,69.09,17.05,736.94,21.56,2.07,167.48,0
2020-02-27T13:10:00-05:00,70.14,16.96,737,22.73,0.73,122.96,0
2020-02-27T13:11:00-05:00,70.48,16.9,736.07,22.15,0.77,227.15,0
2020-02-27T13:12:00-05:00,70.54,16.84,736.84,24.94,0.57,227.81,0
2020-02-27T13:13:00-05:00,70.62,16.83,737.24,23.62,0.2,250.8,0
2020-02-27T13:14:00-05:00,72.15,16.82,736.64,22.15,0.6,192.23,0
2020-02-27T13:15:00-05:00,72.3,16.77,736.33,20.24,0.26,253.39,0
2020-02-27T13:16:00-05:00,71.77,16.74,736.1,19.5,0.63,242.82,0
2020-02-27T13:17:00-05:00,71.95,16.69,735.93,17.88,2.03,280.62,0
2020-02-27T13:18:00-05:00,71.71,16.64,735.97,18.18,1,242.79,0
2020-02-27T13:19:00-05:00,71.55,16.6,736.77,18.18,0.73,190.03,0
2020-02-27T13:20:00-05:00,73.09,16.56,735.93,17.15,1.93,161.13,0
2020-02-27T13:21:00-05:00,73.28,16.47,736.97,18.77,0.65,188.07,0
2020-02-27T13:22:00-05:00,73.44,16.4,735.67,16.56,0.81,212.25,0
2020-02-27T13:23:00-05:00,72.3,16.36,736.07,17.29,0.74,206.01,0
2020-02-27T13:24:00-05:00,73.18,16.33,736.94,18.03,0.59,97.85,0
2020-02-27T13:25:00-05:00,74.93,16.34,736.03,18.62,0.59,186.97,0
2020-02-27T13:26:00-05:00,75.07,16.26,736.64,17.88,0.39,189.39,0
2020-02-27T13:27:00-05:00,76.02,16.23,735.93,21.41,0.3,218.89,0
2020-02-27T13:28:00-05:00,75.7,16.16,736.84,21.41,0.74,245.15,0
2020-02-27T13:29:00-05:00,75.94,16.12,736.64,23.32,0.44,203.9,0
2020-02-27T13:30:00-05:00,77.91,16.1,737.04,23.32,0.57,118.16,0.1
2020-02-27T13:31:00-05:00,78.03,16,736.97,26.7,1.15,89.93,0.4
2020-02-27T13:32:00-05:00,80.19,15.87,737.34,31.56,0.86,199.98,0.3
2020-02-27T13:33:00-05:00,83.12,15.74,737.31,34.5,0.12,289.58,0.6
2020-02-27T13:34:00-05:00,85,15.69,736.03,39.2,0.45,85.64,0.4
2020-02-27T13:35:00-05:00,85.37,15.58,736.27,39.2,0.56,174.12,0.7
2020-02-27T13:36:00-05:00,85.38,15.42,737.81,42.88,0.67,48.25,0.6
2020-02-27T13:37:00-05:00,85.59,15.22,736.97,46.26,0.92,177.04,0.2
2020-02-27T13:38:00-05:00,87.16,15.03,737.2,48.32,0.73,193.95,0.2
2020-02-27T13:39:00-05:00,89.2,14.93,737.64,52.29,0.93,97.05,0.4
2020-02-27T13:40:00-05:00,89.58,14.84,737.47,54.93,0.7,180.13,0.3
2020-02-27T13:41:00-05:00,89.55,14.69,736.7,55.67,0.73,187.27,0.4
2020-02-27T13:42:00-05:00,89.78,14.55,736.47,56.11,0.82,184.04,0.2
2020-02-27T13:43:00-05:00,90.26,14.4,736.27,61.25,0.78,77.26,0.2
2020-02-27T13:44:00-05:00,90.3,14.26,736.87,66.55,0.62,191.01,0.1
2020-02-27T13:45:00-05:00,90.58,14.18,737.07,73.9,0.83,218.2,0.2
2020-02-27T13:46:00-05:00,91.34,14.1,736.87,80.07,0.58,124.21,0.1
2020-02-27T13:47:00-05:00,91.48,14.04,736.33,82.72,0.93,57.67,0
2020-02-27T13:48:00-05:00,91.52,14,736.1,87.28,0.63,73.46,0.1
2020-02-27T13:49:00-05:00,92.15,14,736.37,85.95,0.39,176.4,0
2020-02-27T13:50:00-05:00,91.84,13.96,737.2,91.98,1.25,79.62,0
2020-02-27T13:51:00-05:00,91.24,13.9,736,95.66,0.84,61.19,0
2020-02-27T13:52:00-05:00,91.86,13.94,737.17,103.89,0.65,99.15,0
2020-02-27T13:53:00-05:00,92.06,13.96,736.1,115.51,0.28,12.66,0
2020-02-27T13:54:00-05:00,92.48,14,736.33,125.5,0.3,186,0
2020-02-27T13:55:00-05:00,92.7,14.02,736.77,131.97,0.58,151.17,0.1
2020-02-27T13:56:00-05:00,92.36,14.03,737.2,138.15,0.68,104.26,0
2020-02-27T13:57:00-05:00,92.02,14,736.1,145.94,1.36,67.48,0
2020-02-27T13:58:00-05:00,91.94,13.98,735.87,141.68,0.24,214.93,0
2020-02-27T13:59:00-05:00,92.91,14.09,736.2,123.59,0.63,100.08,0.1
2020-02-27T14:00:00-05:00,93.32,14.16,737.51,110.65,0.94,26.8,0
2020-02-27T14:01:00-05:00,93.12,14.16,737.27,90.81,0.62,97.06,0
2020-02-27T14:02:00-05:00,92.76,14.16,736.27,73.31,0.82,24.98,0
2020-02-27T14:03:00-05:00,92.8,14.15,736.13,62.58,0.57,153.16,0
2020-02-27T14:04:00-05:00,93.23,14.2,737.57,64.64,0.24,130.97,0
2020-02-27T14:05:00-05:00,93.11,14.19,736.23,62.58,0.56,90.39,0
2020-02-27T14:06:00-05:00,92.68,14.18,737.44,59.64,0.74,19.13,0
2020-02-27T14:07:00-05:00,92.34,14.16,737,54.34,0.6,99.36,0
2020-02-27T14:08:00-05:00,91.48,14.12,735.9,50.08,0.65,42.84,0.1
2020-02-27T14:09:00-05:00,91.37,14.14,735.83,44.64,0.57,330.54,0
2020-02-27T14:10:00-05:00,91.62,14.16,737.17,41.55,0.38,338.79,0
2020-02-27T14:11:00-05:00,91.94,14.19,735.87,42.58,0.17,139.05,0
2020-02-27T14:12:00-05:00,91.6,14.17,735.9,43.02,0.86,171.16,0
2020-02-27T14:13:00-05:00,91.3,14.13,737.2,38.91,0.79,29.54,0
2020-02-27T14:14:00-05:00,90.81,14.1,736.77,35.82,0.6,49.21,0
2020-02-27T14:15:00-05:00,90.82,14.08,735.56,34.64,0.23,220.85,0
2020-02-27T14:16:00-05:00,91.27,14.06,736.84,32.14,0.94,102.5,0
2020-02-27T14:17:00-05:00,90.44,13.98,736.43,37.14,1.45,86.06,0.1
2020-02-27T14:18:00-05:00,89.92,13.94,736.43,33.91,0.61,68.12,0
2020-02-27T14:19:00-05:00,89.4,13.94,735.5,36.55,1.06,115.06,0
2020-02-27T14:20:00-05:00,89.53,13.96,736.47,40.97,0.6,144.5,0
2020-02-27T14:21:00-05:00,90.25,13.98,736.6,47.73,0.61,73.05,0.1
2020-02-27T14:22:00-05:00,90.95,14.02,735.8,53.9,0.76,65.63,0
2020-02-27T14:23:00-05:00,91.46,14.06,735.43,61.99,0.92,132.57,0.1
2020-02-27T14:24:00-05:00,91.49,14.02,735.7,63.02,0.68,84.28,0.1
2020-02-27T14:25:00-05:00,92.01,14.03,735.83,54.2,0.86,84.01,0.1
2020-02-27T14:26:00-05:00,91.27,13.96,736.47,43.02,0.62,153.13,0.1
2020-02-27T14:27:00-05:00,91.46,13.97,736.7,41.7,2.19,50.51,0
2020-02-27T14:28:00-05:00,91.78,13.92,736.54,49.05,0.26,252.75,0.1
2020-02-27T14:29:00-05:00,91.86,13.93,736.5,58.9,0.28,96.3,0
2020-02-27T14:30:00-05:00,91.62,13.9,735.46,66.25,0.56,195.91,0
2020-02-27T14:31:00-05:00,91.66,13.87,736.33,73.9,1.09,57.14,0
2020-02-27T14:32:00-05:00,92.37,13.88,737.07,85.22,0.62,241.82,0.1
2020-02-27T14:33:00-05:00,92.18,13.86,736.64,96.39,0.58,16.6,0.1
2020-02-27T14:34:00-05:00,91.23,13.8,735.33,105.07,0.85,170.08,0
2020-02-27T14:35:00-05:00,91.25,13.83,736.57,110.65,0.75,182.45,0.1
2020-02-27T14:36:00-05:00,91.8,13.84,735.9,113.45,0.64,174.09,0
2020-02-27T14:37:00-05:00,92.02,13.83,735.73,114.04,1.7,71.53,0.1
2020-02-27T14:38:00-05:00,92.25,13.83,736.77,112.71,0.57,252.78,0.1
2020-02-27T14:39:00-05:00,92.14,13.8,736.6,110.07,0.64,158.16,0
2020-02-27T14:40:00-05:00,92.63,13.81,736.03,98.6,0.27,153.49,0
2020-02-27T14:41:00-05:00,93.11,13.86,735.53,87.57,0.07,245.73,0
2020-02-27T14:42:00-05:00,93.07,13.87,735.7,80.81,0.6,73.62,0.1
2020-02-27T14:43:00-05:00,93.59,13.91,736.84,78.02,0.57,84.01,0
2020-02-27T14:44:00-05:00,94.38,14.02,737.07,80.96,0.63,101.65,0
2020-02-27T14:45:00-05:00,94.1,14.03,736.84,86.98,0.6,106.1,0
2020-02-27T14:46:00-05:00,93.71,14.02,735.77,94.63,0.2,185.38,0
2020-02-27T14:47:00-05:00,92.5,13.98,736.1,97.57,0.59,184,0
2020-02-27T14:48:00-05:00,92.08,13.88,736.37,100.66,0.76,197.3,0
2020-02-27T14:49:00-05:00,92.66,13.84,736.13,110.36,0.7,183.03,0.1
2020-02-27T14:50:00-05:00,92.68,13.8,735.67,120.36,0.47,184.03,0
2020-02-27T14:51:00-05:00,93.33,13.8,736.03,134.18,0.24,215.94,0
2020-02-27T14:52:00-05:00,93.79,13.83,736.94,148.15,0.54,17.35,0.1
2020-02-27T14:53:00-05:00,94.07,13.88,735.9,151.23,0.75,184.05,0
2020-02-27T14:54:00-05:00,94.02,13.88,736.57,133.15,0.25,100.54,0.1
2020-02-27T14:55:00-05:00,94.68,13.94,735.56,113.3,0.17,208.27,0
2020-02-27T14:56:00-05:00,94.56,13.97,737.14,93.31,0.21,105.53,0.1
2020-02-27T14:57:00-05:00,94.3,13.96,736.67,78.16,0.48,89.2,0
2020-02-27T14:58:00-05:00,93.88,13.94,736.6,73.9,0.28,123.23,0
2020-02-27T14:59:00-05:00,93.95,13.94,737.07,81.99,0.86,205.36,0
2020-02-27T15:00:00-05:00,93.53,13.9,735.87,95.95,0.97,74.37,0
2020-02-27T15:01:00-05:00,94.26,13.94,736.54,112.13,0.59,154.58,0.1
2020-02-27T15:02:00-05:00,94.08,13.94,736.54,130.65,0.65,124.62,0
2020-02-27T15:03:00-05:00,93.92,13.92,735.7,144.18,0.28,239.18,0
2020-02-27T15:04:00-05:00,93.18,13.89,735.73,148.29,0.42,220.83,0
2020-02-27T15:05:00-05:00,92.89,13.86,736.54,135.94,0.75,215.27,0
2020-02-27T15:06:00-05:00,93.23,13.87,735.9,121.24,0.6,179.13,0
2020-02-27T15:07:00-05:00,93.21,13.87,735.33,111.83,0.66,182.31,0
2020-02-27T15:08:00-05:00,93.4,13.88,736.77,115.95,0.52,179.12,0
2020-02-27T15:09:00-05:00,92.87,13.86,735.43,129.47,0.6,165.16,0
2020-02-27T15:10:00-05:00,93.33,13.87,736.6,136.53,0.25,74.92,0
2020-02-27T15:11:00-05:00,93.83,13.91,736.8,142.56,0.46,193,0
2020-02-27T15:12:00-05:00,93.83,13.95,735.33,146.23,0.56,161.12,0
2020-02-27T15:13:00-05:00,93.88,13.96,736.5,145.06,0.58,165.13,0
2020-02-27T15:14:00-05:00,94.6,13.99,735.73,133.88,0.61,60.13,0
2020-02-27T15:15:00-05:00,94.2,14.02,736.43,120.65,0.63,100.22,0
2020-02-27T15:16:00-05:00,93.61,13.99,735.53,107.27,0.66,77.53,0
2020-02-27T15:17:00-05:00,93.67,14,736.5,95.22,0.56,35.12,0
2020-02-27T15:18:00-05:00,93.51,14,736.9,81.84,0.37,7.69,0
2020-02-27T15:19:00-05:00,93.65,14.01,735.46,74.78,0.18,47.76,0
2020-02-27T15:20:00-05:00,93.74,14.06,737,73.46,0.22,213.23,0
2020-02-27T15:21:00-05:00,93.94,14.1,736,69.19,0.46,50.62,0
2020-02-27T15:22:00-05:00,93.47,14.11,736.6,63.61,0.72,339.85,0
2020-02-27T15:23:00-05:00,92.24,14.04,736.13,56.11,1.09,49.73,0
2020-02-27T15:24:00-05:00,91.74,14.01,735.87,50.23,0.63,20.36,0
2020-02-27T15:25:00-05:00,92.18,14.04,736.67,49.79,0.66,351.51,0
2020-02-27T15:26:00-05:00,92.18,14.04,736.97,55.08,0.59,148.25,0
2020-02-27T15:27:00-05:00,91.45,14.02,736.43,69.93,0.54,53.21,0
2020-02-27T15:28:00-05:00,91.62,14.02,735.43,79.04,0.49,91.95,0
2020-02-27T15:29:00-05:00,91.73,14.06,736.7,82.72,0.26,200.25,0
2020-02-27T15:30:00-05:00,92,14.08,735.6,94.78,0.74,50.05,0
2020-02-27T15:31:00-05:00,92.25,14.08,735.7,110.65,0.36,169.09,0
2020-02-27T15:32:00-05:00,92.44,14.11,736.37,114.18,0.16,13.39,0
2020-02-27T15:33:00-05:00,92.45,14.13,735.8,115.07,0.19,51.79,0
2020-02-27T15:34:00-05:00,92.75,14.17,736.57,115.8,0.23,92.18,0
2020-02-27T15:35:00-05:00,93.16,14.22,735.9,118.15,0.55,55.91,0
2020-02-27T15:36:00-05:00,92.72,14.21,736.8,125.21,0.62,50.42,0
2020-02-27T15:37:00-05:00,92.71,14.22,736.94,141.09,0.5,89.23,0
2020-02-27T15:38:00-05:00,92.7,14.2,737.1,147.41,0.61,121.47,0
2020-02-27T15:39:00-05:00,93.14,14.23,737.17,141.82,0.62,64.5,0
2020-02-27T15:40:00-05:00,93.07,14.24,736.8,141.09,0.58,52.17,0
2020-02-27T15:41:00-05:00,92.72,14.22,736.3,133.59,0.71,135.55,0
2020-02-27T15:42:00-05:00,92.25,14.22,737.14,110.36,0.57,107.05,0
2020-02-27T15:43:00-05:00,92.52,14.24,737.31,95.22,0.32,68.99,0
2020-02-27T15:44:00-05:00,92.72,14.29,737.31,103.74,0.45,49.68,0
2020-02-27T15:45:00-05:00,93.23,14.32,737.44,119.04,0.62,94.15,0
2020-02-27T15:46:00-05:00,92.46,14.32,736.3,130.21,0.63,58.28,0
2020-02-27T15:47:00-05:00,92.34,14.31,736.23,131.97,0.58,105.87,0
2020-02-27T15:48:00-05:00,92.39,14.35,736.1,120.8,0.62,85.06,0
2020-02-27T15:49:00-05:00,92.91,14.38,736.4,98.3,0.57,63.03,0
2020-02-27T15:50:00-05:00,93.1,14.43,737.54,73.02,0.35,130.06,0
2020-02-27T15:51:00-05:00,92.72,14.44,735.93,52.14,0.26,193.96,0
2020-02-27T15:52:00-05:00,91.46,14.41,736.84,40.67,0.59,76.91,0
2020-02-27T15:53:00-05:00,91.5,14.42,737.17,31.56,0.55,178.03,0
2020-02-27T15:54:00-05:00,91.75,14.42,735.93,26.26,0.54,139.05,0
2020-02-27T15:55:00-05:00,91.37,14.42,737.64,21.41,0.59,148.23,0
2020-02-27T15:56:00-05:00,92.08,14.43,737.31,16.71,0.57,66.77,0
2020-02-27T15:57:00-05:00,92.68,14.46,736.3,13.47,0.64,71.98,0
2020-02-27T15:58:00-05:00,92.23,14.42,736.03,13.62,0.58,88.19,0
2020-02-27T15:59:00-05:00,91.25,14.37,737.24,13.03,0.83,106.82,0
2020-02-27T16:00:00-05:00,91.54,14.33,736.43,12.59,0.61,186.35,0
2020-02-27T16:01:00-05:00,91.76,14.32,736.6,10.38,0.78,169.08,0
2020-02-27T16:02:00-05:00,91.7,14.28,736.87,10.68,0.66,187.33,0
2020-02-27T16:03:00-05:00,91.22,14.14,735.7,10.38,0.63,177.03,0
2020-02-27T16:04:00-05:00,91.18,14.06,736.3,10.83,0.71,155.48,0
2020-02-27T16:05:00-05:00,91.42,14,736.3,12.44,0.26,136.61,0
2020-02-27T16:06:00-05:00,92,14.02,736.33,11.86,0.17,104.22,0
2020-02-27T16:07:00-05:00,92.38,14.02,736.4,13.77,0.56,62.89,0
2020-02-27T16:08:00-05:00,92.36,14,734.86,16.27,0.89,83.05,0
2020-02-27T16:09:00-05:00,91.34,13.92,736.27,14.5,1.19,115.93,0
2020-02-27T16:10:00-05:00,91.1,13.87,734.83,14.8,0.6,132.43,0
2020-02-27T16:11:00-05:00,91.15,13.84,735.16,16.41,0.6,108.06,0
2020-02-27T16:12:00-05:00,91.94,13.86,734.59,19.21,0.6,113.78,0
2020-02-27T16:13:00-05:00,91.77,13.84,734.96,21.71,0.37,69.52,0
2020-02-27T16:14:00-05:00,91.36,13.81,734.76,18.47,0.65,220.88,0
2020-02-27T16:15:00-05:00,91.34,13.8,735.63,17.15,0.64,123.54,0.1
2020-02-27T16:16:00-05:00,91.68,13.84,734.49,14.8,0.75,66.2,0
2020-02-27T16:17:00-05:00,91.98,13.88,734.49,14.5,0.31,2.15,0
2020-02-27T16:18:00-05:00,91.92,13.86,734.93,14.06,0.33,121.22,0
2020-02-27T16:19:00-05:00,92.41,13.88,735.3,15.24,0.28,144.5,0
2020-02-27T16:20:00-05:00,92.38,13.88,735.6,19.21,0.71,148.22,0
2020-02-27T16:21:00-05:00,92.44,13.86,734.46,20.68,1.23,114.77,0
2020-02-27T16:22:00-05:00,92.57,13.84,735.73,26.85,0.23,105.2,0
2020-02-27T16:23:00-05:00,92.92,13.82,735.97,29.64,0.31,99.29,0
2020-02-27T16:24:00-05:00,93.1,13.84,734.9,31.41,0.57,156.19,0
2020-02-27T16:25:00-05:00,93.3,13.83,734.53,32.44,0.54,68.4,0
2020-02-27T16:26:00-05:00,93.17,13.81,735.9,31.7,0.33,142.18,0
2020-02-27T16:27:00-05:00,93.38,13.81,735.83,29.5,0.52,116.7,0
2020-02-27T16:28:00-05:00,93.52,13.82,735.06,27.29,0.58,66.26,0
2020-02-27T16:29:00-05:00,93.84,13.85,735.9,25.23,0.6,104.66,0
2020-02-27T16:30:00-05:00,93.28,13.82,735.97,22.73,0.7,119.25,0
2020-02-27T16:31:00-05:00,93.31,13.8,736.2,18.77,0.63,80.13,0
2020-02-27T16:32:00-05:00,93.56,13.84,735.6,14.65,1.42,64.94,0
2020-02-27T16:33:00-05:00,93.01,13.82,736.07,13.18,0.17,71.87,0
2020-02-27T16:34:00-05:00,93.25,13.86,734.53,9.5,0.58,211.23,0
2020-02-27T16:35:00-05:00,93.15,13.88,736.1,10.68,0.61,269.72,0
2020-02-27T16:36:00-05:00,93.24,13.9,734.59,8.77,0.56,352.85,0
2020-02-27T16:37:00-05:00,92.57,13.88,735.06,8.47,0.42,356.44,0
2020-02-27T16:38:00-05:00,92.5,13.9,734.66,7.59,0.23,16.3,0
2020-02-27T16:39:00-05:00,92.76,13.9,735.9,7.89,0.2,311.62,0
2020-02-27T16:40:00-05:00,92.55,13.92,734.53,10.09,0.6,324.96,0
2020-02-27T16:41:00-05:00,92.68,13.96,736.03,10.09,1.08,54.23,0
2020-02-27T16:42:00-05:00,92.31,13.95,735,9.94,0.72,25.62,0
2020-02-27T16:43:00-05:00,92.2,13.98,736.17,6.56,0.54,317.61,0
2020-02-27T16:44:00-05:00,92.38,13.99,735.2,4.8,0.57,75.7,0
2020-02-27T16:45:00-05:00,92.09,14,734.69,2.89,1.49,343.8,0
2020-02-27T16:46:00-05:00,92.25,14.01,734.63,2.3,0.55,56.2,0
2020-02-27T16:47:00-05:00,91.61,14,735.93,2,2.55,26.18,0
2020-02-27T16:48:00-05:00,89.82,13.93,734.19,3.92,2.9,353.48,0
2020-02-27T16:49:00-05:00,89.53,13.9,734.83,1.56,0.59,49.96,0
2020-02-27T16:50:00-05:00,90.19,13.88,736,1.86,0.74,54.64,0
2020-02-27T16:51:00-05:00,90.53,13.86,735.1,4.06,0.68,53.96,0
2020-02-27T16:52:00-05:00,90.73,13.82,735.2,2.59,0.48,332.51,0
2020-02-27T16:53:00-05:00,90.93,13.83,735.63,1.27,1.18,262.08,0
2020-02-27T16:54:00-05:00,91.06,13.81,734.93,3.62,0.34,130.17,0
2020-02-27T16:55:00-05:00,91.37,13.77,734.9,2.59,1.64,47.72,0.1
2020-02-27T16:56:00-05:00,90.47,13.71,735.73,2.89,0.7,281.73,0.1
2020-02-27T16:57:00-05:00,90.9,13.7,735.4,4.06,0.59,21.22,0
2020-02-27T16:58:00-05:00,90.89,13.65,735.73,1.56,0.63,41.44,0
2020-02-27T16:59:00-05:00,91.17,13.65,734.59,2.74,0.67,332.76,0.1
2020-02-27T17:00:00-05:00,91.07,13.61,735.73,2,1.2,19.49,0
2020-02-27T17:01:00-05:00,91.5,13.6,734.86,3.47,0.7,355.47,0
2020-02-27T17:02:00-05:00,91.38,13.58,734.43,4.21,0.56,353.51,0
2020-02-27T17:03:00-05:00,91.93,13.57,735.36,4.8,0.22,96.99,0
2020-02-27T17:04:00-05:00,92.01,13.56,734.46,3.18,0.21,63.31,0
2020-02-27T17:05:00-05:00,91.86,13.54,734.26,4.5,0.16,298.7,0
2020-02-27T17:06:00-05:00,91.97,13.52,735.16,3.03,0.59,170.08,0
2020-02-27T17:07:00-05:00,91.98,13.5,734.56,2.45,0.19,67.65,0
2020-02-27T17:08:00-05:00,92.23,13.48,735.4,3.62,0.6,107.8,0
2020-02-27T17:09:00-05:00,92.62,13.46,734.36,3.92,0.14,121.94,0
2020-02-27T17:10:00-05:00,92.7,13.45,734.23,4.94,0.08,131.72,0
2020-02-27T17:11:00-05:00,92.92,13.44,734.76,4.65,0.57,133.75,0
2020-02-27T17:12:00-05:00,93.21,13.4,734.79,3.18,0.59,159.48,0
2020-02-27T17:13:00-05:00,93.53,13.39,735.6,2.74,0.22,69.05,0
2020-02-27T17:14:00-05:00,93.76,13.38,734.36,3.62,0.13,128.64,0
2020-02-27T17:15:00-05:00,93.74,13.36,735,5.53,0.57,184,0
2020-02-27T17:16:00-05:00,93.57,13.3,735.73,3.92,0.15,156.55,0
2020-02-27T17:17:00-05:00,93.77,13.26,735.26,4.06,1.08,129.3,0
2020-02-27T17:18:00-05:00,93.72,13.22,734.43,4.94,0.8,135.48,0
2020-02-27T17:19:00-05:00,93.26,13.16,734.36,4.94,0.63,172.4,0
2020-02-27T17:20:00-05:00,93.28,13.13,735.6,7,0.69,164.48,0
2020-02-27T17:21:00-05:00,93.05,13.11,734.66,5.24,0.61,185.99,0
2020-02-27T17:22:00-05:00,93.19,13.07,734.13,4.21,0.54,155.24,0
2020-02-27T17:23:00-05:00,93.22,13.08,735.5,5.39,0.67,147.27,0.1
2020-02-27T17:24:00-05:00,93.4,13.03,734.33,3.18,0.58,97.34,0
2020-02-27T17:25:00-05:00,93.85,13.04,735.23,4.36,0.71,160.16,0
2020-02-27T17:26:00-05:00,93.91,13.04,735.46,4.06,0.46,98.26,0
2020-02-27T17:27:00-05:00,93.93,13.02,734.26,3.62,0.2,173.14,0
2020-02-27T17:28:00-05:00,93.86,13.03,735.26,2.45,1.06,138.22,0
2020-02-27T17:29:00-05:00,93.95,13.03,735,4.06,0.74,110.29,0
2020-02-27T17:30:00-05:00,93.92,13.02,734.46,3.18,0.66,90.84,0
2020-02-27T17:31:00-05:00,94.45,13.04,734.79,4.5,0.65,181.43,0
2020-02-27T17:32:00-05:00,93.97,13.03,734.49,5.09,1.39,171.19,0
2020-02-27T17:33:00-05:00,93.81,12.97,735.36,5.97,1.58,184.36,0
2020-02-27T17:34:00-05:00,93.9,12.97,734.19,5.39,0.93,145.28,0
2020-02-27T17:35:00-05:00,93.99,12.98,734.39,7,0.77,171.51,0
2020-02-27T17:36:00-05:00,93.8,12.99,735.26,5.83,0.44,248.8,0
2020-02-27T17:37:00-05:00,93.74,12.97,735.23,6.27,0.74,108.59,0
2020-02-27T17:38:00-05:00,93.41,13.01,734.26,4.36,1.41,49.56,0
2020-02-27T17:39:00-05:00,93.31,13.06,735.53,5.97,0.26,64.29,0
2020-02-27T17:40:00-05:00,93.21,13.1,735.97,2.89,0.62,227.84,0
2020-02-27T17:41:00-05:00,93.13,13.1,734.43,5.68,0.66,221.96,0
2020-02-27T17:42:00-05:00,93.23,13.06,735.3,3.47,0.6,284.7,0
2020-02-27T17:43:00-05:00,93.73,13.06,735.63,6.12,0.58,197.99,0
2020-02-27T17:44:00-05:00,93.91,13.02,734.46,5.68,0.6,178.05,0
2020-02-27T17:45:00-05:00,94.28,13,735.43,5.39,0.64,98.61,0
2020-02-27T17:46:00-05:00,94.48,12.98,735.6,5.83,1.74,109.25,0
2020-02-27T17:47:00-05:00,94.52,12.97,736.2,5.53,1.52,203.95,0
2020-02-27T17:48:00-05:00,94.42,12.91,734.86,6.27,1,179.46,0
2020-02-27T17:49:00-05:00,94.36,12.91,735,5.83,0.87,180.11,0
2020-02-27T17:50:00-05:00,94.52,12.88,734.69,5.83,0.67,166.47,0
2020-02-27T17:51:00-05:00,94.82,12.88,735.13,3.03,0.58,0.82,0
2020-02-27T17:52:00-05:00,94.95,12.88,735.77,3.92,0.69,177.39,0
2020-02-27T17:53:00-05:00,94.82,12.89,734.76,0.53,0.3,175.39,0
2020-02-27T17:54:00-05:00,94.73,12.87,736.4,0.09,0.65,171.53,0
2020-02-27T17:55:00-05:00,94.87,12.85,734.83,0.83,0.94,178.06,0
2020-02-27T17:56:00-05:00,94.9,12.84,734.93,-0.49,0.6,169.4,0
2020-02-27T17:57:00-05:00,94.88,12.85,735.06,0.24,0.77,170.04,0
2020-02-27T17:58:00-05:00,94.82,12.82,734.76,1.56,0.7,186.01,0
2020-02-27T17:59:00-05:00,94.93,12.81,734.66,1.86,0.83,180.13,0
2020-02-27T18:00:00-05:00,94.91,12.79,736.3,1.71,0.7,177.04,0
2020-02-27T18:01:00-05:00,95.08,12.8,734.96,0.09,0.56,175.1,0
2020-02-27T18:02:00-05:00,95.18,12.79,736.4,2.45,0.62,150.19,0
2020-02-27T18:03:00-05:00,95.26,12.77,735.7,-0.05,0.59,183.05,0
2020-02-27T18:04:00-05:00,95.25,12.77,735.9,-0.35,0.69,190.04,0
2020-02-27T18:05:00-05:00,95.24,12.75,734.83,-0.49,0.86,203.94,0
2020-02-27T18:06:00-05:00,95.45,12.73,736.17,-0.35,1.01,205.02,0
2020-02-27T18:07:00-05:00,95.51,12.72,735.97,-0.49,0.89,190.39,0
2020-02-27T18:08:00-05:00,95.75,12.71,735.5,0.39,0.7,216.93,0
2020-02-27T18:09:00-05:00,95.96,12.73,735.67,-0.64,0.59,196.28,0
2020-02-27T18:10:00-05:00,96.02,12.71,734.49,-0.35,0.84,184.01,0
2020-02-27T18:11:00-05:00,95.89,12.69,735.83,2,1.46,157.58,0
2020-02-27T18:12:00-05:00,95.94,12.69,735.97,0.09,0.66,189.05,0
2020-02-27T18:13:00-05:00,95.95,12.69,735.7,1.42,0.34,233.23,0
2020-02-27T18:14:00-05:00,95.96,12.69,736.03,-1.23,0.71,225.88,0
2020-02-27T18:15:00-05:00,96.22,12.7,735.33,-1.08,0.81,211.25,0
2020-02-27T18:16:00-05:00,96.15,12.67,736,1.42,0.87,190.05,0
2020-02-27T18:17:00-05:00,96.14,12.67,736.54,-0.64,0.56,182.09,0
2020-02-27T18:18:00-05:00,96.11,12.68,735.16,1.12,0.28,191.02,0
2020-02-27T18:19:00-05:00,96.12,12.66,735.33,0.09,0.31,175.14,0
2020-02-27T18:20:00-05:00,96.23,12.65,735.73,1.42,0.58,354.49,0
2020-02-27T18:21:00-05:00,96.21,12.65,735.56,-0.79,0.88,5.6,0
2020-02-27T18:22:00-05:00,96.39,12.7,734.56,0.83,2.14,324.61,0
2020-02-27T18:23:00-05:00,96.47,12.73,736.13,-0.94,1.64,339.49,0
2020-02-27T18:24:00-05:00,96.27,12.75,736.4,-0.79,1.98,42.84,0
2020-02-27T18:25:00-05:00,96.25,12.8,736.57,0.53,0.6,49.89,0
2020-02-27T18:26:00-05:00,96.13,12.84,735.5,-0.64,0.64,311.95,0
2020-02-27T18:27:00-05:00,95.95,12.85,735.36,0.39,0.67,339.76,0
2020-02-27T18:28:00-05:00,95.52,12.87,735.63,1.56,0.77,3.06,0
2020-02-27T18:29:00-05:00,95.54,12.89,735.46,-0.64,1.07,36.48,0
2020-02-27T18:30:00-05:00,95.24,12.92,735.93,0.09,0.63,101.49,0
2020-02-27T18:31:00-05:00,95.1,12.95,736.23,0.83,0.58,0.72,0
2020-02-27T18:32:00-05:00,94.98,12.98,736.2,1.12,1.19,96.99,0
2020-02-27T18:33:00-05:00,94.03,12.95,735.9,-0.05,0.57,55.02,0
2020-02-27T18:34:00-05:00,94.03,12.98,735.33,0.68,0.73,77.93,0
2020-02-27T18:35:00-05:00,93.57,12.99,736.9,0.83,0.56,100.17,0
2020-02-27T18:36:00-05:00,93.57,13.01,735.36,-1.38,0.32,357.47,0
2020-02-27T18:37:00-05:00,93.29,13,735.26,-1.23,0.35,56.33,0
2020-02-27T18:38:00-05:00,92.73,12.99,736.77,-0.79,1.49,30.29,0
2020-02-27T18:39:00-05:00,91.98,12.95,735.23,-0.05,1.05,51.03,0
2020-02-27T18:40:00-05:00,91.94,12.96,736,-1.52,1.27,17.39,0
2020-02-27T18:41:00-05:00,91.76,12.97,736.37,-0.2,1.27,67.12,0
2020-02-27T18:42:00-05:00,91.47,12.96,736.2,-0.94,0.86,35.26,0.1
2020-02-27T18:43:00-05:00,91.83,12.97,736.27,-0.35,0.74,51.62,0
2020-02-27T18:44:00-05:00,92.49,12.99,735.53,-1.23,0.61,36.75,0
2020-02-27T18:45:00-05:00,92.41,12.97,736.27,1.56,2.17,107.68,0
2020-02-27T18:46:00-05:00,92.06,12.95,736.6,0.68,0.88,21.36,0
2020-02-27T18:47:00-05:00,92.04,12.93,736.57,1.12,1.51,44.49,0
2020-02-27T18:48:00-05:00,91.68,12.89,735,-0.05,0.31,126.49,0
2020-02-27T18:49:00-05:00,91.28,12.9,735.26,-0.64,1.18,29.96,0
2020-02-27T18:50:00-05:00,91.52,12.9,736.23,-0.2,0.7,41.1,0
2020-02-27T18:51:00-05:00,91.6,12.91,736.54,0.53,0.85,88.31,0
2020-02-27T18:52:00-05:00,91.21,12.88,735.9,0.53,1.69,56.06,0
2020-02-27T18:53:00-05:00,90.74,12.88,736.47,-1.52,0.63,52.47,0
2020-02-27T18:54:00-05:00,90.93,12.9,735.03,-0.35,1.63,57.02,0
2020-02-27T18:55:00-05:00,91.11,12.88,736.23,0.98,2.47,54.32,0
2020-02-27T18:56:00-05:00,90.64,12.87,736.07,-0.05,2.38,49.45,0
2020-02-27T18:57:00-05:00,90.3,12.86,736.07,-0.94,2.34,45.56,0.1
2020-02-27T18:58:00-05:00,90.12,12.86,734.86,-0.79,0.78,43.71,0
2020-02-27T18:59:00-05:00,90.07,12.86,734.83,0.98,2.77,27.09,0
2020-02-27T19:00:00-05:00,89.75,12.85,736.23,-0.2,1.93,51.18,0
2020-02-27T19:01:00-05:00,89.96,12.85,735.87,-0.35,1.01,4.91,0
2020-02-27T19:02:00-05:00,89.88,12.85,735.1,-0.64,0.94,26.65,0
2020-02-27T19:03:00-05:00,90.35,12.84,735.4,-2.11,0.43,311.6,0
2020-02-27T19:04:00-05:00,90.09,12.81,735.6,0.53,1.09,29.67,0
2020-02-27T19:05:00-05:00,89.98,12.82,735.06,-1.23,1.4,95.76,0
2020-02-27T19:06:00-05:00,89.98,12.82,734.43,-0.35,2.11,93.62,0
2020-02-27T19:07:00-05:00,89.55,12.79,735.63,-2.55,0.63,339.49,0
2020-02-27T19:08:00-05:00,90.09,12.81,735.63,-1.67,0.85,101.65,0
2020-02-27T19:09:00-05:00,90.1,12.77,734.36,-1.67,1.92,40.87,0
2020-02-27T19:10:00-05:00,89.99,12.79,734.63,-0.2,1.32,84.23,0
2020-02-27T19:11:00-05:00,89.98,12.76,735.43,-0.79,0.13,31.82,0
2020-02-27T19:12:00-05:00,89.98,12.77,735.67,-1.52,0.69,36.26,0
2020-02-27T19:13:00-05:00,90.61,12.76,735.7,-0.05,0.46,349.45,0
2020-02-27T19:14:00-05:00,91.25,12.77,734.93,-1.82,0.77,38.19,0
2020-02-27T19:15:00-05:00,90.84,12.73,734.26,-2.11,0.95,92.76,0
2020-02-27T19:16:00-05:00,90.73,12.73,735.16,-0.05,0.98,34.16,0
2020-02-27T19:17:00-05:00,90.96,12.71,735.56,-1.23,0.55,59.99,0
2020-02-27T19:18:00-05:00,91.12,12.7,735,-1.97,0.49,163.19,0.1
2020-02-27T19:19:00-05:00,91.19,12.67,734.23,0.39,0.52,101.08,0
2020-02-27T19:20:00-05:00,91.28,12.65,735.03,-0.79,0.65,191,0
2020-02-27T19:21:00-05:00,90.93,12.58,735.2,-1.82,0.43,124.07,0
2020-02-27T19:22:00-05:00,91.35,12.58,734.26,-1.67,0.67,179.12,0
2020-02-27T19:23:00-05:00,91.41,12.53,733.72,-1.82,0.56,73.31,0
2020-02-27T19:24:00-05:00,91.96,12.53,733.92,-0.64,0.22,163.21,0.1
2020-02-27T19:25:00-05:00,92.19,12.49,733.32,0.24,0.33,176.45,0
2020-02-27T19:26:00-05:00,92.38,12.46,733.76,-2.11,0.25,143.04,0
2020-02-27T19:27:00-05:00,92.3,12.43,733.49,0.09,0.39,140.13,0
2020-02-27T19:28:00-05:00,92.83,12.42,733.52,-1.82,0.58,56.6,0
2020-02-27T19:29:00-05:00,93.39,12.41,734.43,-0.05,0.25,32.82,0
2020-02-27T19:30:00-05:00,93.3,12.38,734.29,-1.38,0.32,138.28,0.1
2020-02-27T19:31:00-05:00,93.35,12.36,734.29,-1.52,0.45,78.82,0
2020-02-27T19:32:00-05:00,93.59,12.34,733.86,-0.49,0.53,78.17,0
2020-02-27T19:33:00-05:00,93.68,12.33,734.73,-1.52,0.29,17.66,0
2020-02-27T19:34:00-05:00,93.85,12.31,734.66,-1.38,0.21,14.77,0
2020-02-27T19:35:00-05:00,93.95,12.31,733.36,-1.23,0.14,199.3,0
2020-02-27T19:36:00-05:00,94.18,12.31,733.25,-0.64,0.2,156.21,0.1
2020-02-27T19:37:00-05:00,94.03,12.3,733.66,0.68,0.51,70.74,0
2020-02-27T19:38:00-05:00,93.84,12.22,734.23,0.68,0.24,154.22,0
2020-02-27T19:39:00-05:00,94.06,12.22,734.36,-0.64,0.73,122.16,0
2020-02-27T19:40:00-05:00,93.92,12.2,735,-0.35,0.56,120.27,0
2020-02-27T19:41:00-05:00,94.05,12.16,734.59,-1.97,0.21,134.71,0
2020-02-27T19:42:00-05:00,94.16,12.15,735.6,-2.11,0.29,181.4,0.1
2020-02-27T19:43:00-05:00,94.47,12.15,735.77,0.24,0.62,109.18,0
2020-02-27T19:44:00-05:00,94.43,12.13,735.3,0.24,0.53,127.53,0
2020-02-27T19:45:00-05:00,94.45,12.13,735.2,0.39,0.72,148.23,0.1
2020-02-27T19:46:00-05:00,94.28,12.07,735.63,-1.97,0.64,132.86,0
2020-02-27T19:47:00-05:00,94.31,12.04,734.69,-0.2,0.53,147.24,0
2020-02-27T19:48:00-05:00,94.41,12.01,734.69,-2.7,0.7,164.52,0
2020-02-27T19:49:00-05:00,94.58,11.99,734.46,-1.38,0.62,139.29,0
2020-02-27T19:50:00-05:00,94.62,11.95,734.56,-0.94,0.74,145.52,0.1
2020-02-27T19:51:00-05:00,94.54,11.91,734.33,-1.82,0.95,151.17,0
2020-02-27T19:52:00-05:00,94.74,11.89,734.53,-1.52,0.9,137.26,0
2020-02-27T19:53:00-05:00,94.75,11.87,735.6,-1.67,0.61,144.21,0
2020-02-27T19:54:00-05:00,95.18,11.88,734.96,-2.41,0.37,135.81,0
2020-02-27T19:55:00-05:00,95.19,11.87,735.87,-1.23,0.51,78.45,0
2020-02-27T19:56:00-05:00,95.32,11.88,735.16,-0.2,0.25,137.63,0
2020-02-27T19:57:00-05:00,95.42,11.85,735.6,1.27,0.69,173.11,0
2020-02-27T19:58:00-05:00,95.35,11.86,736.2,-1.38,0.62,154.22,0
2020-02-27T19:59:00-05:00,95.32,11.83,735.13,-1.38,0.61,161.14,0
2020-02-27T20:00:00-05:00,95.22,11.82,735.9,-1.82,0.64,151.15,0
2020-02-27T20:01:00-05:00,95.15,11.79,735.73,-1.23,0.62,137.58,0
2020-02-27T20:02:00-05:00,95.45,11.79,734.63,-1.67,0.54,111.41,0
2020-02-27T20:03:00-05:00,95.4,11.79,736.64,-1.23,0.27,83.27,0
2020-02-27T20:04:00-05:00,95.69,11.79,735.36,-1.08,0.35,148.25,0
2020-02-27T20:05:00-05:00,95.64,11.8,736.37,-1.08,0.29,155.61,0
2020-02-27T20:06:00-05:00,95.82,11.81,735.26,-0.2,0.33,157.23,0
2020-02-27T20:07:00-05:00,95.59,11.81,735.16,-2.11,0.26,152.5,0
2020-02-27T20:08:00-05:00,95.77,11.79,736.03,0.98,0.4,90.83,0
2020-02-27T20:09:00-05:00,95.69,11.79,736.2,-1.38,0.32,129.58,0
2020-02-27T20:10:00-05:00,95.79,11.78,736.13,-0.94,0.17,107.16,0
2020-02-27T20:11:00-05:00,96.11,11.81,736.54,-1.08,0.2,115.09,0
2020-02-27T20:12:00-05:00,96,11.83,735.06,1.12,0.27,49.49,0
2020-02-27T20:13:00-05:00,95.92,11.81,736.6,0.39,0.23,118.15,0
2020-02-27T20:14:00-05:00,95.97,11.82,735.67,-1.38,0.19,111.48,0
2020-02-27T20:15:00-05:00,96.17,11.83,735.43,0.09,0.09,15.28,0
2020-02-27T20:16:00-05:00,96.03,11.84,736.2,-0.05,0.12,31.99,0
2020-02-27T20:17:00-05:00,96.25,11.85,736.6,-1.52,0.58,69.7,0
2020-02-27T20:18:00-05:00,96.06,11.83,735.26,-1.23,0.57,67.76,0
2020-02-27T20:19:00-05:00,96.08,11.83,735.87,0.83,0.38,149.21,0
2020-02-27T20:20:00-05:00,96.06,11.83,736.33,-0.35,0.67,142.53,0
2020-02-27T20:21:00-05:00,95.95,11.81,736,-0.05,0.65,138.28,0
2020-02-27T20:22:00-05:00,95.91,11.81,736,-0.49,0.48,159.49,0
2020-02-27T20:23:00-05:00,95.91,11.78,735.77,1.12,0.57,144.19,0
2020-02-27T20:24:00-05:00,96.01,11.8,735.56,-0.49,0.4,110.28,0
2020-02-27T20:25:00-05:00,96.06,11.79,735.63,-0.35,0.25,66.24,0
2020-02-27T20:26:00-05:00,96.09,11.79,736.5,1.42,0.6,90.96,0
2020-02-27T20:27:00-05:00,96.27,11.79,735.56,1.12,0.35,45.4,0
2020-02-27T20:28:00-05:00,96.2,11.82,737.04,0.83,0.53,143.55,0
2020-02-27T20:29:00-05:00,96.27,11.83,735.73,0.39,0.23,144.55,0
2020-02-27T20:30:00-05:00,96.3,11.83,736.94,-1.08,0.27,128.52,0
2020-02-27T20:31:00-05:00,96.18,11.83,736.84,-1.38,0.27,121.69,0
2020-02-27T20:32:00-05:00,96.31,11.85,736.8,0.09,0.31,143.21,0
2020-02-27T20:33:00-05:00,96.33,11.83,736.33,-0.05,0.58,148.23,0
2020-02-27T20:34:00-05:00,96.15,11.83,735.7,-1.23,0.46,130.27,0
2020-02-27T20:35:00-05:00,96.25,11.83,735.67,0.09,0.55,45.35,0
2020-02-27T20:36:00-05:00,96.4,11.87,735.67,-0.79,0.41,129.29,0
2020-02-27T20:37:00-05:00,96.47,11.87,737.27,0.24,0.56,95.33,0
2020-02-27T20:38:00-05:00,96.29,11.85,736.7,-0.05,0.59,69.23,0
2020-02-27T20:39:00-05:00,96.26,11.86,736.57,-1.97,0.47,126.43,0
2020-02-27T20:40:00-05:00,96.21,11.89,736.27,-1.67,0.24,120.76,0
2020-02-27T20:41:00-05:00,96.24,11.91,737.14,-0.49,0.41,136.55,0
2020-02-27T20:42:00-05:00,96.39,11.91,735.6,0.98,0.59,130.44,0
2020-02-27T20:43:00-05:00,96.41,11.93,736.23,1.42,0.38,157.51,0
2020-02-27T20:44:00-05:00,96.39,11.96,737.64,-0.79,0.12,150.21,0
2020-02-27T20:45:00-05:00,96.38,11.97,737.04,-0.79,0.17,83.23,0
2020-02-27T20:46:00-05:00,96.39,11.99,736.94,0.53,0.45,79.31,0
2020-02-27T20:47:00-05:00,96.33,12.02,736.2,-0.64,0.22,142.19,0
2020-02-27T20:48:00-05:00,96.4,12.02,737.61,-0.79,0.2,163.19,0
2020-02-27T20:49:00-05:00,96.17,12.02,737.37,-1.38,0.67,166.1,0
2020-02-27T20:50:00-05:00,96,11.97,737.31,-1.08,0.12,127.54,0
2020-02-27T20:51:00-05:00,95.89,11.99,737.07,0.68,0.16,45.36,0
2020-02-27T20:52:00-05:00,96.02,12,737.41,-0.05,0.31,26.61,0
2020-02-27T20:53:00-05:00,96.23,12.01,737.17,-0.64,0.5,181.09,0
2020-02-27T20:54:00-05:00,96.13,12.02,737.44,0.98,0.22,133,0
2020-02-27T20:55:00-05:00,96.15,12.01,737.14,-1.23,0.09,70.85,0
2020-02-27T20:56:00-05:00,96.01,12.03,737.31,-1.08,0.12,17.56,0
2020-02-27T20:57:00-05:00,95.97,12.03,737.24,-1.52,0.22,145.11,0
2020-02-27T20:58:00-05:00,95.93,12.03,736.23,-0.94,0.56,148.55,0
2020-02-27T20:59:00-05:00,95.69,12.01,737.31,-0.35,0.53,149.19,0
2020-02-27T21:00:00-05:00,95.71,11.99,736.1,-0.94,0.22,129.02,0
2020-02-27T21:01:00-05:00,95.89,12.01,736.94,-1.52,0.18,30.71,0
2020-02-27T21:02:00-05:00,95.87,12.04,735.93,-1.52,0.48,95.69,0
2020-02-27T21:03:00-05:00,95.89,12.03,737.37,-0.49,0.56,85.62,0
2020-02-27T21:04:00-05:00,95.84,12.03,737.34,-1.52,0.26,123.26,0
2020-02-27T21:05:00-05:00,95.87,12.03,736.87,0.53,0.55,136.18,0
2020-02-27T21:06:00-05:00,95.57,12.03,737.07,-1.52,0.45,127.51,0
2020-02-27T21:07:00-05:00,95.54,12.03,736.5,0.39,0.41,65.69,0
2020-02-27T21:08:00-05:00,95.5,12.05,737.51,-0.35,0.57,70.65,0
2020-02-27T21:09:00-05:00,95.46,12.07,737,-1.82,0.78,26.16,0
2020-02-27T21:10:00-05:00,95.79,12.09,736.64,0.83,0.64,59.65,0
2020-02-27T21:11:00-05:00,95.47,12.09,737.34,0.09,0.67,68.74,0
2020-02-27T21:12:00-05:00,95.63,12.12,736,-1.38,0.3,109.16,0
2020-02-27T21:13:00-05:00,95.46,12.11,736.94,-1.23,0.19,114.11,0
2020-02-27T21:14:00-05:00,95.41,12.13,737.27,-0.49,0.24,63.86,0
2020-02-27T21:15:00-05:00,95.59,12.13,737.64,-0.79,0.29,85.84,0
2020-02-27T21:16:00-05:00,95.42,12.12,736.13,0.53,0.21,180.38,0
2020-02-27T21:17:00-05:00,95.55,12.15,736.6,-1.52,0.26,111.67,0
2020-02-27T21:18:00-05:00,95.52,12.16,735.97,-2.55,0.12,147.24,0
2020-02-27T21:19:00-05:00,95.39,12.13,736.8,-1.82,0.59,136.47,0
2020-02-27T21:20:00-05:00,95.28,12.12,737.41,0.68,0.56,172.16,0
2020-02-27T21:21:00-05:00,95.37,12.1,736.13,-2.55,0.22,40.09,0
2020-02-27T21:22:00-05:00,95.27,12.1,736.37,-2.26,0.48,14.02,0
2020-02-27T21:23:00-05:00,95.42,12.1,736.37,-0.64,0.92,59.17,0
2020-02-27T21:24:00-05:00,95.29,12.13,737.04,-0.35,0.67,136.73,0
2020-02-27T21:25:00-05:00,95,12.09,735.87,-0.79,0.62,143.51,0
2020-02-27T21:26:00-05:00,94.99,12.07,736.07,-1.97,0.87,100.14,0
2020-02-27T21:27:00-05:00,94.78,12.07,737.51,-1.97,0.54,60.6,0
2020-02-27T21:28:00-05:00,94.71,12.07,736.74,-1.52,0.49,167.12,0
2020-02-27T21:29:00-05:00,94.76,12.07,737.24,-3.44,0.63,138.87,0
2020-02-27T21:30:00-05:00,94.42,12.03,735.83,-1.97,0.61,158.17,0
2020-02-27T21:31:00-05:00,94.22,12.03,736,-1.97,1.12,191.01,0
2020-02-27T21:32:00-05:00,93.95,11.99,736.97,-1.23,1.01,149.19,0
2020-02-27T21:33:00-05:00,93.49,11.99,735.93,-1.52,0.66,172.17,0
2020-02-27T21:34:00-05:00,92.68,12.03,736.87,-2.26,1.05,192,0
2020-02-27T21:35:00-05:00,92.23,12.03,737.07,-2.41,1.79,160.13,0
2020-02-27T21:36:00-05:00,91.63,12.03,735.97,-0.2,1.34,185.36,0
2020-02-27T21:37:00-05:00,90.26,12.07,737.2,-2.11,1.06,176.08,0
2020-02-27T21:38:00-05:00,90.19,12.09,736.37,0.09,0.96,191.36,0
2020-02-27T21:39:00-05:00,89.62,12.12,736.4,-0.05,2.21,154.23,0
2020-02-27T21:40:00-05:00,89.78,12.13,736.23,-1.97,0.62,134.78,0
2020-02-27T21:41:00-05:00,90.21,12.14,736.47,-0.35,0.58,167.12,0
2020-02-27T21:42:00-05:00,90.89,12.17,735.8,-0.79,0.59,164.55,0
2020-02-27T21:43:00-05:00,90.49,12.16,735.9,-0.79,0.65,121.34,0
2020-02-27T21:44:00-05:00,91.31,12.15,737.47,-1.82,0.67,53.48,0
2020-02-27T21:45:00-05:00,91.52,12.17,737.31,-1.23,0.22,99.19,0
2020-02-27T21:46:00-05:00,91.12,12.15,737.07,-0.05,0.68,79.96,0
2020-02-27T21:47:00-05:00,90.49,12.13,736.54,-1.52,1.43,64.38,0
2020-02-27T21:48:00-05:00,88.93,12.26,737.34,-0.79,1.47,143.87,0
2020-02-27T21:49:00-05:00,86.51,12.39,738.01,0.53,0.55,125.38,0
2020-02-27T21:50:00-05:00,85.25,12.52,738.21,-1.08,0.84,95.34,0
2020-02-27T21:51:00-05:00,84.75,12.59,737.81,1.27,1.32,92.08,0
2020-02-27T21:52:00-05:00,85.83,12.67,736.8,-1.08,0.6,30.72,0
2020-02-27T21:53:00-05:00,85.8,12.69,736.94,-2.41,0.54,277.66,0
2020-02-27T21:54:00-05:00,85.32,12.67,737.84,-1.67,0.67,305.6,0
2020-02-27T21:55:00-05:00,85.41,12.65,737.94,-1.08,0.58,224.25,0
2020-02-27T21:56:00-05:00,86.09,12.63,737.61,0.09,1.03,61.96,0
2020-02-27T21:57:00-05:00,86.25,12.62,737.14,0.24,0.49,144.55,0
2020-02-27T21:58:00-05:00,86.41,12.58,736.5,-1.08,0.21,24.06,0
2020-02-27T21:59:00-05:00,87.1,12.57,736.9,-0.49,0.59,78.87,0
2020-02-27T22:00:00-05:00,87.51,12.51,737.07,-1.82,0.64,60.23,0
2020-02-27T22:01:00-05:00,87.84,12.47,737.24,-0.49,0.61,61.15,0
2020-02-27T22:02:00-05:00,88.54,12.43,736.3,0.68,0.52,5.72,0
2020-02-27T22:03:00-05:00,89.06,12.41,736.3,-0.35,0.9,43.81,0
2020-02-27T22:04:00-05:00,88.59,12.38,735.63,-0.79,0.56,28.97,0
2020-02-27T22:05:00-05:00,88.72,12.39,735.97,-0.2,0.59,45.17,0
2020-02-27T22:06:00-05:00,89.02,12.37,736.84,-1.08,0.43,124.9,0
2020-02-27T22:07:00-05:00,89.16,12.33,735.87,-2.26,0.4,149.19,0
2020-02-27T22:08:00-05:00,88.97,12.29,735.63,-0.05,0.68,136.2,0
2020-02-27T22:09:00-05:00,89.49,12.23,736.27,-2.26,0.68,144.2,0
2020-02-27T22:10:00-05:00,89.72,12.19,736.77,-2.11,0.61,105.86,0
2020-02-27T22:11:00-05:00,90.32,12.13,735.43,-0.64,0.59,105.56,0
2020-02-27T22:12:00-05:00,90.39,12.08,735.53,-0.94,0.56,116.23,0
2020-02-27T22:13:00-05:00,90.64,12.05,735.8,-0.94,0.56,132.91,0
2020-02-27T22:14:00-05:00,90.81,12.01,736.6,-1.82,0.8,138.61,0
2020-02-27T22:15:00-05:00,91.04,11.96,736.3,-2.99,0.57,130.26,0
2020-02-27T22:16:00-05:00,90.97,11.93,736.3,-2.26,0.61,39.8,0
2020-02-27T22:17:00-05:00,90.68,11.93,736.07,-3.14,0.64,66.46,0
2020-02-27T22:18:00-05:00,90.58,11.93,735.97,-2.41,0.59,115.47,0
2020-02-27T22:19:00-05:00,90.6,11.92,736.17,-3.88,0.61,150.2,0
2020-02-27T22:20:00-05:00,90.59,11.9,735.26,-1.82,0.48,132.58,0
2020-02-27T22:21:00-05:00,90.43,11.88,734.39,-1.82,0.19,70.52,0
2020-02-27T22:22:00-05:00,90.44,11.87,734.76,-2.11,0.27,55.11,0
2020-02-27T22:23:00-05:00,90.63,11.87,734.13,-1.67,0.27,68.87,0
2020-02-27T22:24:00-05:00,90.79,11.83,734.83,-3.14,0.71,128.83,0
2020-02-27T22:25:00-05:00,90.65,11.81,735.5,-1.52,0.57,99.87,0
2020-02-27T22:26:00-05:00,90.73,11.79,734.93,-4.46,0.59,134.17,0
2020-02-27T22:27:00-05:00,91,11.77,735.83,-1.67,0.56,135.11,0
2020-02-27T22:28:00-05:00,91.03,11.75,735.87,-2.99,0.66,138.31,0
2020-02-27T22:29:00-05:00,90.89,11.73,735.9,-3.14,0.72,134.21,0
2020-02-27T22:30:00-05:00,90.98,11.71,734.59,-3.58,0.61,126.53,0
2020-02-27T22:31:00-05:00,90.87,11.72,736.1,-4.02,1.47,101.63,0
2020-02-27T22:32:00-05:00,90.55,11.7,735.46,-3.58,1.44,80.44,0
2020-02-27T22:33:00-05:00,90.48,11.67,735.13,-0.64,0.93,99.43,0
2020-02-27T22:34:00-05:00,90.59,11.65,734.49,-3.88,0.72,100.81,0
2020-02-27T22:35:00-05:00,90.63,11.64,734.43,-3.58,0.63,77.24,0
2020-02-27T22:36:00-05:00,90.91,11.6,734.09,-3.73,0.58,97.82,0
2020-02-27T22:37:00-05:00,91.25,11.56,734.26,-3.44,1.14,56.25,0
2020-02-27T22:38:00-05:00,91.55,11.53,734.63,-1.67,0.58,50.37,0
2020-02-27T22:39:00-05:00,91.66,11.55,734.73,-3.73,0.1,344.86,0
2020-02-27T22:40:00-05:00,91.96,11.52,733.92,-1.97,1.54,49.48,0
2020-02-27T22:41:00-05:00,91.89,11.53,733.92,-2.99,1.4,76.45,0
2020-02-27T22:42:00-05:00,91.73,11.56,734.63,-3.29,0.76,76.32,0
2020-02-27T22:43:00-05:00,91.41,11.55,734.13,-1.23,1.16,34.75,0
2020-02-27T22:44:00-05:00,90.93,11.56,733.96,-2.85,2.21,82.5,0
2020-02-27T22:45:00-05:00,90.41,11.6,733.76,-3.29,2.38,65.53,0
2020-02-27T22:46:00-05:00,89.82,11.63,735.2,-3.44,2.21,50.64,0
2020-02-27T22:47:00-05:00,89.22,11.71,734.79,-2.11,2.46,78.04,0
2020-02-27T22:48:00-05:00,89.2,11.73,735.2,-3.44,1.3,69.94,0
2020-02-27T22:49:00-05:00,88.93,11.75,734.33,-1.97,0.9,66.41,0
2020-02-27T22:50:00-05:00,89,11.73,734.69,-1.08,0.64,42.26,0
2020-02-27T22:51:00-05:00,88.72,11.77,733.86,-2.55,1.36,84.84,0
2020-02-27T22:52:00-05:00,89.35,11.79,733.66,-2.85,1.62,46.66,0
2020-02-27T22:53:00-05:00,89.38,11.75,734.23,-3.44,2.14,66.85,0
2020-02-27T22:54:00-05:00,89.24,11.7,734.93,-4.02,0.99,46.66,0
2020-02-27T22:55:00-05:00,89.62,11.65,734.56,-4.02,1.2,53.93,0
2020-02-27T22:56:00-05:00,89.94,11.61,733.59,-1.38,2.06,40.19,0
2020-02-27T22:57:00-05:00,89.34,11.65,735.13,-0.94,3.84,56.91,0
2020-02-27T22:58:00-05:00,88.59,11.74,733.89,-1.23,2.32,89.3,0
2020-02-27T22:59:00-05:00,88.74,11.77,734.86,-2.26,0.54,95.74,0
2020-02-27T23:00:00-05:00,89.07,11.76,734.19,-2.99,0.92,46.04,0
2020-02-27T23:01:00-05:00,88.88,11.71,733.79,-3.44,1.83,42.64,0
2020-02-27T23:02:00-05:00,89.04,11.69,734.19,-3.44,0.42,131.97,0
2020-02-27T23:03:00-05:00,87.85,11.68,734.39,-2.26,0.62,59.9,0
2020-02-27T23:04:00-05:00,88.39,11.71,734.29,-3.88,0.53,118.55,0
2020-02-27T23:05:00-05:00,88.76,11.67,734.26,-4.02,1.79,62.33,0
2020-02-27T23:06:00-05:00,88.61,11.65,734.86,-2.41,1.29,90.09,0
2020-02-27T23:07:00-05:00,88.01,11.67,734.76,-1.23,1.23,135.82,0
2020-02-27T23:08:00-05:00,86.53,11.77,734.02,-1.23,0.66,191,0
2020-02-27T23:09:00-05:00,85.77,11.88,734.39,-1.67,0.77,156.21,0
2020-02-27T23:10:00-05:00,84.66,11.98,734.66,-1.82,2.25,56.12,0
2020-02-27T23:11:00-05:00,83.55,12.18,736.07,0.39,2.11,44.1,0
2020-02-27T23:12:00-05:00,83.03,12.25,734.76,0.53,2.1,37.84,0
2020-02-27T23:13:00-05:00,83.05,12.38,735.03,-0.79,0.63,106.55,0
2020-02-27T23:14:00-05:00,84.45,12.33,736,-1.97,1.19,66.48,0
2020-02-27T23:15:00-05:00,84,12.3,735.3,-0.35,1.01,326.9,0
2020-02-27T23:16:00-05:00,84.38,12.27,734.9,-0.2,2.87,145.99,0
2020-02-27T23:17:00-05:00,83.8,12.31,735.63,0.39,2.87,64.33,0
2020-02-27T23:18:00-05:00,83.97,12.31,736.57,-2.41,1.97,62.55,0
2020-02-27T23:19:00-05:00,84.43,12.25,735.36,-2.26,1.35,37.26,0
2020-02-27T23:20:00-05:00,84.57,12.25,735.87,-0.64,1.52,44.44,0
2020-02-27T23:21:00-05:00,82.87,12.31,736.03,0.39,1.4,138.27,0
2020-02-27T23:22:00-05:00,82.49,12.45,736.74,-0.64,0.7,130.6,0
2020-02-27T23:23:00-05:00,82.71,12.45,736.74,-0.05,0.86,86.59,0
2020-02-27T23:24:00-05:00,83.05,12.45,736.33,-2.41,0.66,62.24,0
2020-02-27T23:25:00-05:00,83.3,12.41,736.9,-2.26,0.62,77.93,0
2020-02-27T23:26:00-05:00,82.71,12.37,736.27,-2.55,0.63,127.22,0
2020-02-27T23:27:00-05:00,81.69,12.43,736.54,0.39,1.98,38.82,0
2020-02-27T23:28:00-05:00,83.07,12.46,735.67,-0.05,0.57,58.12,0
2020-02-27T23:29:00-05:00,83.76,12.41,735.53,-2.7,0.48,10.79,0
2020-02-27T23:30:00-05:00,84.61,12.29,734.96,-1.08,1.12,29.53,0
2020-02-27T23:31:00-05:00,84.3,12.23,736.13,-0.79,0.94,52.18,0
2020-02-27T23:32:00-05:00,85.01,12.17,735.1,-3.44,1.41,41.02,0
2020-02-27T23:33:00-05:00,85.04,12.1,735.23,-3.29,2.37,54.28,0
2020-02-27T23:34:00-05:00,83.84,12.18,736.37,-2.11,1.01,353.82,0
2020-02-27T23:35:00-05:00,83.53,12.29,734.66,-2.11,1.18,34.48,0
2020-02-27T23:36:00-05:00,82.95,12.35,736.47,-1.82,0.67,36.62,0
2020-02-27T23:37:00-05:00,83.52,12.33,736.47,-2.26,0.75,59.64,0
2020-02-27T23:38:00-05:00,82.86,12.31,734.83,0.09,1.43,101.06,0
2020-02-27T23:39:00-05:00,83.09,12.36,735.23,-1.82,0.79,32.05,0
2020-02-27T23:40:00-05:00,83.71,12.32,736.57,-0.94,2.76,59.65,0
2020-02-27T23:41:00-05:00,82.74,12.37,737,-0.64,0.99,30.61,0
2020-02-27T23:42:00-05:00,83.5,12.33,736.23,-1.67,1.58,49.12,0
2020-02-27T23:43:00-05:00,84.4,12.27,735.1,-2.55,0.71,45.85,0
2020-02-27T23:44:00-05:00,85.06,12.14,734.59,-1.67,2.63,64.23,0
2020-02-27T23:45:00-05:00,84.31,12.1,736.2,-2.26,0.58,59.77,0
2020-02-27T23:46:00-05:00,84.94,12.11,735.73,-2.55,0.53,151.19,0
2020-02-27T23:47:00-05:00,84.56,12.09,735.63,-1.52,0.19,118.07,0
2020-02-27T23:48:00-05:00,85.2,12.05,735,-0.94,0.95,65.66,0
2020-02-27T23:49:00-05:00,85.17,11.99,735.26,-3.29,1.4,4.96,0
2020-02-27T23:50:00-05:00,84.18,12.06,735.73,0.53,0.61,152.14,0
2020-02-27T23:51:00-05:00,84.24,12.08,734.76,-1.97,0.87,153.47,0
2020-02-27T23:52:00-05:00,83.92,12.11,736.07,-2.26,2.29,70.27,0
2020-02-27T23:53:00-05:00,83.24,12.21,735.2,0.09,2.14,41.4,0
2020-02-27T23:54:00-05:00,82.52,12.29,735.1,1.56,2.3,46.31,0
2020-02-27T23:55:00-05:00,82.29,12.39,736.67,2,1.33,73.01,0
2020-02-27T23:56:00-05:00,82.3,12.42,736,1.27,0.84,71.68,0
2020-02-27T23:57:00-05:00,81.68,12.43,736.23,-0.79,0.63,36.83,0
2020-02-27T23:58:00-05:00,82.23,12.45,736.9,-0.64,2.14,59.73,0
2020-02-27T23:59:00-05:00,82.95,12.42,736.43,0.09,0.73,100.67,0
