time,[HUME],[TEMP],[PRES],[RADI],[RAPV],[DIRV],[PREC]
2020-03-30T00:00:00-05:00,78.98,11.92,734.9,-2.7,0.85,151.5,0
2020-03-30T00:01:00-05:00,78.7,11.9,735.46,-4.46,0.12,24.96,0
2020-03-30T00:02:00-05:00,79.73,11.89,733.36,-3.44,0.27,111.57,0
2020-03-30T00:03:00-05:00,79.12,11.87,733.86,-3.29,0.24,346.52,0
2020-03-30T00:04:00-05:00,78.48,11.84,733.56,-4.17,0.63,12.14,0
2020-03-30T00:05:00-05:00,78.82,11.82,734.53,-3.29,0.15,291.72,0
2020-03-30T00:06:00-05:00,79.07,11.81,732.75,-3.88,0.57,5.07,0
2020-03-30T00:07:00-05:00,77.46,11.79,734.76,-2.99,0.64,318.62,0
2020-03-30T00:08:00-05:00,77.18,11.81,734.23,-4.46,0.64,352.56,0
2020-03-30T00:09:00-05:00,76.96,11.82,734.39,-3.58,0.66,35.96,0
2020-03-30T00:10:00-05:00,76.92,11.86,734.29,-2.26,0.64,37.16,0
2020-03-30T00:11:00-05:00,77.25,11.85,733.39,-2.85,0.29,29.68,0
2020-03-30T00:12:00-05:00,77.35,11.83,733.25,-3.88,0.58,105.43,0
2020-03-30T00:13:00-05:00,78.24,11.83,733.99,-3.73,0.54,88.94,0
2020-03-30T00:14:00-05:00,78.26,11.81,733.46,-1.38,0.72,47.3,0
2020-03-30T00:15:00-05:00,77.39,11.78,733.09,-2.55,0.09,111.24,0
2020-03-30T00:16:00-05:00,76.85,11.81,734.06,-2.11,1.13,52.63,0
2020-03-30T00:17:00-05:00,77.31,11.84,734.26,-1.67,0.1,10.38,0
2020-03-30T00:18:00-05:00,77.51,11.84,733.82,-2.99,0.61,113.67,0
2020-03-30T00:19:00-05:00,78.14,11.81,733.22,-1.52,0.61,144.56,0
2020-03-30T00:20:00-05:00,77.61,11.76,734.26,-2.99,0.6,139.26,0
2020-03-30T00:21:00-05:00,77.25,11.77,734.43,-3.58,0.59,91.04,0
2020-03-30T00:22:00-05:00,77.6,11.75,733.46,-1.97,0.69,90.53,0
2020-03-30T00:23:00-05:00,76.39,11.75,734.23,-3.44,0.62,49.84,0
2020-03-30T00:24:00-05:00,76.45,11.81,734.69,-1.97,0.26,1.75,0
2020-03-30T00:25:00-05:00,76.22,11.84,733.69,-2.85,0.82,43.33,0
2020-03-30T00:26:00-05:00,77.76,11.85,733.62,-0.94,0.86,46.31,0
2020-03-30T00:27:00-05:00,78.8,11.82,733.99,-1.82,0.68,73.64,0
2020-03-30T00:28:00-05:00,79.11,11.79,734.63,-1.97,0.54,72.2,0
2020-03-30T00:29:00-05:00,78.81,11.77,734.16,-2.11,0.26,114.15,0
2020-03-30T00:30:00-05:00,78.49,11.74,734.76,-2.85,0.2,138.31,0
2020-03-30T00:31:00-05:00,78.63,11.72,733.99,-2.99,0.25,65.49,0
2020-03-30T00:32:00-05:00,77.72,11.71,734.36,-2.85,0.25,87.08,0
2020-03-30T00:33:00-05:00,77.2,11.69,733.42,-0.94,0.19,122.43,0
2020-03-30T00:34:00-05:00,76.87,11.68,734.53,-0.05,0.13,49.59,0
2020-03-30T00:35:00-05:00,77.94,11.72,733.69,-1.38,0.67,50.54,0
2020-03-30T00:36:00-05:00,78.65,11.73,734.49,-2.55,0.67,58.83,0
2020-03-30T00:37:00-05:00,78.76,11.73,734.29,-1.82,0.63,62.8,0
2020-03-30T00:38:00-05:00,79.03,11.72,734.43,-1.38,0.72,55.84,0
2020-03-30T00:39:00-05:00,79.43,11.69,734.33,-2.99,0.65,76.62,0
2020-03-30T00:40:00-05:00,79.79,11.68,734.26,-3.14,0.59,88.44,0
2020-03-30T00:41:00-05:00,80.13,11.65,733.39,-4.17,0.63,57.28,0
2020-03-30T00:42:00-05:00,78.28,11.66,734.19,-2.99,0.72,69.92,0
2020-03-30T00:43:00-05:00,77.14,11.73,734.29,-2.26,0.62,48.19,0
2020-03-30T00:44:00-05:00,77.26,11.82,733.62,-3.14,1.02,46.34,0
2020-03-30T00:45:00-05:00,77.71,11.85,733.72,-3.44,0.67,47.55,0
2020-03-30T00:46:00-05:00,77.9,11.83,733.72,-2.41,0.62,19.8,0
2020-03-30T00:47:00-05:00,78.58,11.83,734.36,-1.67,0.25,50.44,0
2020-03-30T00:48:00-05:00,78.66,11.82,733.99,-2.41,0.43,143.65,0
2020-03-30T00:49:00-05:00,78.25,11.79,733.82,-2.26,0.22,109.46,0
2020-03-30T00:50:00-05:00,78.44,11.77,732.72,-2.55,0.37,60.06,0
2020-03-30T00:51:00-05:00,79.18,11.75,733.62,-3.44,0.5,66.46,0
2020-03-30T00:52:00-05:00,78.83,11.72,733.76,-2.85,0.62,86.6,0
2020-03-30T00:53:00-05:00,78.68,11.69,733.19,-4.32,0.44,63.74,0
2020-03-30T00:54:00-05:00,79.13,11.67,733.32,-3.44,0.75,36.97,0
2020-03-30T00:55:00-05:00,79.02,11.65,733.86,-1.52,1.07,63.76,0
2020-03-30T00:56:00-05:00,79.09,11.64,733.46,-3.29,0.29,70.4,0
2020-03-30T00:57:00-05:00,79.59,11.64,733.32,-2.55,0.27,77.65,0
2020-03-30T00:58:00-05:00,79.04,11.63,733.02,-1.67,0.59,353.49,0
2020-03-30T00:59:00-05:00,78.81,11.61,734.16,-3.44,0.6,30.53,0
2020-03-30T01:00:00-05:00,78.99,11.63,733.02,-2.99,1.24,32.05,0
2020-03-30T01:01:00-05:00,79.05,11.65,733.96,-1.82,0.94,43.04,0
2020-03-30T01:02:00-05:00,78.38,11.71,734.49,-1.08,0.62,7.89,0
2020-03-30T01:03:00-05:00,77.39,11.79,733.72,-0.05,1.11,41.25,0
2020-03-30T01:04:00-05:00,76.53,11.88,734.66,-1.38,1.59,55.98,0
2020-03-30T01:05:00-05:00,76.49,11.97,735.7,-2.26,1.25,37.24,0
2020-03-30T01:06:00-05:00,76.63,12,735.03,-1.38,0.62,59.84,0
2020-03-30T01:07:00-05:00,76.03,11.99,734.26,0.09,0.63,19.51,0
2020-03-30T01:08:00-05:00,76.14,12.04,735.5,-0.05,0.83,5.54,0
2020-03-30T01:09:00-05:00,76.65,12.07,734.79,-1.97,0.7,70.95,0
2020-03-30T01:10:00-05:00,76.42,12.1,735.63,-1.38,0.95,70.67,0
2020-03-30T01:11:00-05:00,76.61,12.09,734.9,-0.2,0.63,62.43,0
2020-03-30T01:12:00-05:00,76.89,12.08,734.56,-2.11,0.59,338.5,0
2020-03-30T01:13:00-05:00,76.71,12.07,735.7,-0.49,0.46,354.46,0
2020-03-30T01:14:00-05:00,77.06,12.04,734.46,-1.23,0.57,178.09,0
2020-03-30T01:15:00-05:00,76.74,12.03,734.9,-1.08,0.62,206.98,0
2020-03-30T01:16:00-05:00,76.62,12.01,735.03,-1.38,0.58,194.27,0
2020-03-30T01:17:00-05:00,77.1,12.01,734.63,-2.41,0.6,142.2,0
2020-03-30T01:18:00-05:00,77.82,12,735.26,-2.85,0.36,168.43,0
2020-03-30T01:19:00-05:00,78.48,11.95,734.29,-3.29,0.28,182.07,0
2020-03-30T01:20:00-05:00,78.92,11.87,734.46,-3.29,0.56,145.61,0
2020-03-30T01:21:00-05:00,79.51,11.83,734.02,-4.17,0.35,160.16,0
2020-03-30T01:22:00-05:00,79.36,11.78,733.62,-4.91,0.56,109.9,0
2020-03-30T01:23:00-05:00,78.89,11.74,733.46,-1.38,0.93,100.33,0
2020-03-30T01:24:00-05:00,78.22,11.74,735.16,-1.52,0.7,68.53,0
2020-03-30T01:25:00-05:00,79.04,11.72,734.49,-3.44,0.57,93.97,0
2020-03-30T01:26:00-05:00,78.54,11.69,734.9,-1.52,0.58,89.41,0
2020-03-30T01:27:00-05:00,79.17,11.69,734.86,-2.26,0.66,47.29,0
2020-03-30T01:28:00-05:00,80.07,11.67,734.19,-3.73,0.52,24,0
2020-03-30T01:29:00-05:00,80.13,11.65,734.93,-3.88,0.51,119.44,0
2020-03-30T01:30:00-05:00,79.77,11.63,734.09,-4.61,0.69,128.31,0
2020-03-30T01:31:00-05:00,79.74,11.59,734.43,-2.11,0.66,101.63,0
2020-03-30T01:32:00-05:00,79.44,11.55,733.62,-5.35,0.66,79.48,0
2020-03-30T01:33:00-05:00,79.47,11.55,733.92,-2.55,0.32,75.82,0
2020-03-30T01:34:00-05:00,79.77,11.53,733.12,-5.05,0.57,73.59,0
2020-03-30T01:35:00-05:00,79.41,11.52,733.89,-2.55,0.59,75.33,0
2020-03-30T01:36:00-05:00,78.92,11.51,734.26,-3.58,0.58,68.38,0
2020-03-30T01:37:00-05:00,80.13,11.52,733.59,-4.76,0.54,72.46,0
2020-03-30T01:38:00-05:00,80.39,11.5,733.56,-4.61,0.3,84.94,0
2020-03-30T01:39:00-05:00,79.85,11.46,732.55,-4.91,0.38,110.5,0
2020-03-30T01:40:00-05:00,79.37,11.43,732.48,-4.32,0.68,124.77,0
2020-03-30T01:41:00-05:00,78.62,11.41,732.79,-2.99,0.61,138.56,0
2020-03-30T01:42:00-05:00,77.65,11.41,732.52,-1.52,0.55,146.25,0
2020-03-30T01:43:00-05:00,77.64,11.4,733.86,-3.44,0.62,143.22,0
2020-03-30T01:44:00-05:00,78.13,11.42,733.52,-4.02,0.6,158.18,0
2020-03-30T01:45:00-05:00,78.38,11.4,732.92,-2.85,0.29,134.24,0
2020-03-30T01:46:00-05:00,78.26,11.4,732.72,-3.58,0.6,129.29,0
2020-03-30T01:47:00-05:00,78.49,11.39,732.99,-3.14,0.58,117.2,0
2020-03-30T01:48:00-05:00,78.62,11.38,733.86,-2.7,0.52,151.16,0
2020-03-30T01:49:00-05:00,77.59,11.4,733.42,-0.49,0.66,179.13,0
2020-03-30T01:50:00-05:00,77.28,11.38,733.29,-2.11,0.66,182.1,0
2020-03-30T01:51:00-05:00,76.91,11.43,733.36,-2.11,0.62,162.21,0
2020-03-30T01:52:00-05:00,76.79,11.45,733.86,-0.35,0.71,163.21,0
2020-03-30T01:53:00-05:00,77.09,11.48,734.09,-0.79,0.41,180.12,0
2020-03-30T01:54:00-05:00,77.03,11.5,733.89,-1.67,0.59,122.57,0
2020-03-30T01:55:00-05:00,77.95,11.5,734.19,0.39,0.25,218.18,0
2020-03-30T01:56:00-05:00,77.8,11.52,733.82,-1.38,0.64,205.36,0
2020-03-30T01:57:00-05:00,77.92,11.52,734.73,-0.05,0.59,167.12,0
2020-03-30T01:58:00-05:00,78.08,11.52,734.79,0.53,0.32,176.5,0
2020-03-30T01:59:00-05:00,78.25,11.5,735.1,-1.23,0.6,127.56,0
2020-03-30T02:00:00-05:00,77.95,11.56,735.2,-0.05,0.33,129.67,0
2020-03-30T02:01:00-05:00,77.97,11.55,734.86,-0.64,0.58,132.21,0
2020-03-30T02:02:00-05:00,77.78,11.58,734.19,-0.05,0.73,98.67,0
2020-03-30T02:03:00-05:00,77.24,11.63,734.23,0.98,0.99,103.28,0
2020-03-30T02:04:00-05:00,77.56,11.67,735.53,-0.49,0.92,61.49,0
2020-03-30T02:05:00-05:00,78.44,11.66,735.43,-0.79,0.24,61,0
2020-03-30T02:06:00-05:00,78.73,11.71,734.46,1.56,0.54,59.76,0
2020-03-30T02:07:00-05:00,78.78,11.69,735.16,0.53,0.81,97.36,0
2020-03-30T02:08:00-05:00,78.42,11.72,735.56,0.53,0.59,101.04,0
2020-03-30T02:09:00-05:00,78.03,11.7,734.83,0.09,0.58,87.2,0
2020-03-30T02:10:00-05:00,77.89,11.72,735.46,0.24,0.57,88.74,0
2020-03-30T02:11:00-05:00,78.01,11.75,735.83,-1.08,0.28,131.27,0
2020-03-30T02:12:00-05:00,78.27,11.76,734.86,0.98,0.37,61.98,0
2020-03-30T02:13:00-05:00,77.83,11.77,735.9,-1.38,0.28,202.28,0
2020-03-30T02:14:00-05:00,77.27,11.8,735.3,0.53,0.58,180.12,0
2020-03-30T02:15:00-05:00,77.28,11.81,735.26,-1.38,0.6,182.38,0
2020-03-30T02:16:00-05:00,76.91,11.81,736.43,1.12,0.7,177.09,0
2020-03-30T02:17:00-05:00,76.43,11.8,736.27,-0.94,0.62,162.55,0
2020-03-30T02:18:00-05:00,76.25,11.84,735.46,0.68,0.4,85.56,0
2020-03-30T02:19:00-05:00,77.86,11.86,736.23,-1.67,0.21,292.02,0
2020-03-30T02:20:00-05:00,77.49,11.86,736.7,-2.11,0.23,106.32,0
2020-03-30T02:21:00-05:00,77.22,11.89,735.1,-1.08,0.86,66.85,0
2020-03-30T02:22:00-05:00,76.84,11.9,735.26,-0.49,1.98,73.52,0
2020-03-30T02:23:00-05:00,76.94,11.95,735.87,-0.2,0.6,14.58,0
2020-03-30T02:24:00-05:00,77.01,11.97,735.13,-1.82,0.76,46,0
2020-03-30T02:25:00-05:00,76.99,12,736.3,-1.97,1,322.55,0
2020-03-30T02:26:00-05:00,76.45,11.98,736.27,-1.08,0.65,65.72,0
2020-03-30T02:27:00-05:00,76.73,12.01,736.13,0.09,0.53,68.48,0
2020-03-30T02:28:00-05:00,76.69,12,736.1,-1.97,1.48,51.32,0
2020-03-30T02:29:00-05:00,77.47,12.01,735.83,-2.85,1.84,60.7,0
2020-03-30T02:30:00-05:00,77.72,11.99,735.36,-2.7,0.75,12.98,0
2020-03-30T02:31:00-05:00,77.35,11.97,735.43,-1.08,2.45,330.53,0
2020-03-30T02:32:00-05:00,77.43,12.01,736.27,-0.64,2.26,262.06,0
2020-03-30T02:33:00-05:00,77.57,12.05,735.43,-1.82,2.79,29.94,0
2020-03-30T02:34:00-05:00,77.55,12.04,736.27,-2.11,1.77,350.89,0
2020-03-30T02:35:00-05:00,78.17,12.04,736.4,-1.97,2.37,45.81,0
2020-03-30T02:36:00-05:00,78.4,12.07,735.9,0.09,2.47,24.06,0
2020-03-30T02:37:00-05:00,78.62,12.05,735.56,-1.08,0.95,161.12,0
2020-03-30T02:38:00-05:00,78.44,12.05,736.43,-1.52,1.57,17.54,0
2020-03-30T02:39:00-05:00,78.4,12.07,737.04,-0.64,0.9,48.35,0
2020-03-30T02:40:00-05:00,77.96,12.1,737.04,-1.97,4.91,34.82,0
2020-03-30T02:41:00-05:00,78,12.11,736.33,-1.52,3.49,58.12,0
2020-03-30T02:42:00-05:00,77.64,12.12,736.4,-1.08,2.01,352.54,0
2020-03-30T02:43:00-05:00,77.84,12.13,737.1,-0.94,2.53,29.4,0
2020-03-30T02:44:00-05:00,77.94,12.13,736.13,-1.82,4.46,52.1,0
2020-03-30T02:45:00-05:00,77.58,12.15,736.23,0.68,4.11,22.77,0
2020-03-30T02:46:00-05:00,77.31,12.17,736.43,0.09,2.35,42.65,0
2020-03-30T02:47:00-05:00,76.65,12.21,737.31,0.24,3.47,7.49,0
2020-03-30T02:48:00-05:00,76.83,12.24,737,0.83,4.86,38.7,0
2020-03-30T02:49:00-05:00,76.18,12.28,737.2,0.53,2.62,11.67,0
2020-03-30T02:50:00-05:00,76.07,12.31,737.84,-0.2,1.07,85.97,0
2020-03-30T02:51:00-05:00,76.02,12.33,737.97,0.09,2.26,58.98,0
2020-03-30T02:52:00-05:00,76.41,12.36,736.9,-0.79,1.05,341.58,0
2020-03-30T02:53:00-05:00,76.4,12.33,738.08,-1.67,2.43,91.46,0
2020-03-30T02:54:00-05:00,76.45,12.35,737.94,0.24,3.11,34.61,0
2020-03-30T02:55:00-05:00,76.76,12.33,737.87,-2.85,3.97,42.65,0
2020-03-30T02:56:00-05:00,76.3,12.35,737.14,-1.67,2.32,25.15,0
2020-03-30T02:57:00-05:00,76.59,12.35,737.94,-1.67,2.17,31.58,0
2020-03-30T02:58:00-05:00,76.39,12.35,738.14,-1.67,2.21,21.23,0
2020-03-30T02:59:00-05:00,76.37,12.34,737.61,-1.82,1.5,4.66,0
2020-03-30T03:00:00-05:00,76.61,12.33,738.38,-2.26,4.26,36.85,0
2020-03-30T03:01:00-05:00,76.22,12.35,737.87,0.24,2.17,55.75,0
2020-03-30T03:02:00-05:00,76.12,12.35,737.31,-2.26,1.07,68.34,0
2020-03-30T03:03:00-05:00,76.81,12.37,738.58,-0.05,2.11,23.9,0
2020-03-30T03:04:00-05:00,76.46,12.35,738.51,-2.11,3,102.32,0
2020-03-30T03:05:00-05:00,76.59,12.35,738.01,-1.38,2.44,24.98,0
2020-03-30T03:06:00-05:00,76.71,12.34,737.31,0.09,1.65,38.88,0
2020-03-30T03:07:00-05:00,76.61,12.35,737.27,-1.52,0.57,51.95,0
2020-03-30T03:08:00-05:00,77.31,12.37,738.38,-2.11,0.11,162.56,0
2020-03-30T03:09:00-05:00,77.47,12.36,737.77,-1.08,1.91,57.29,0
2020-03-30T03:10:00-05:00,77.09,12.33,736.97,0.09,0.58,291.06,0
2020-03-30T03:11:00-05:00,77.63,12.32,737.91,0.09,0.27,328.55,0
2020-03-30T03:12:00-05:00,77.87,12.33,737.54,-0.35,0.34,248.16,0
2020-03-30T03:13:00-05:00,78.01,12.33,737.61,-0.49,0.2,190.03,0
2020-03-30T03:14:00-05:00,78.72,12.31,737.94,-0.94,0.38,189.41,0
2020-03-30T03:15:00-05:00,77.93,12.29,737.2,-2.7,0.57,149.21,0
2020-03-30T03:16:00-05:00,78.06,12.27,738.01,-2.7,0.59,297.89,0
2020-03-30T03:17:00-05:00,78.42,12.25,737.31,-1.52,0.53,295.64,0
2020-03-30T03:18:00-05:00,78.46,12.23,737.14,-3.73,0.59,326.59,0
2020-03-30T03:19:00-05:00,78.6,12.22,736.84,-1.97,0.66,322.53,0
2020-03-30T03:20:00-05:00,79.35,12.21,737.14,-4.76,0.59,23.6,0
2020-03-30T03:21:00-05:00,79.62,12.19,737.1,-5.79,0.58,0.79,0
2020-03-30T03:22:00-05:00,80.05,12.16,738.01,-3.44,0.68,1.76,0
2020-03-30T03:23:00-05:00,79.75,12.13,737.71,-3.44,2.89,33.62,0
2020-03-30T03:24:00-05:00,79.63,12.15,737.57,-4.17,0.68,350.56,0
2020-03-30T03:25:00-05:00,79.91,12.11,737.57,-4.76,0.8,29.41,0
2020-03-30T03:26:00-05:00,80.73,12.08,737.71,-5.35,0.75,14.33,0
2020-03-30T03:27:00-05:00,80.57,12.07,736.74,-5.35,0.77,306.92,0
2020-03-30T03:28:00-05:00,80.79,12.02,737.24,-6.08,0.77,9.83,0
2020-03-30T03:29:00-05:00,80.63,12.01,736.47,-4.61,0.71,3.12,0
2020-03-30T03:30:00-05:00,81.06,11.98,736.4,-4.32,0.74,8.1,0
2020-03-30T03:31:00-05:00,81.22,11.96,736.23,-4.91,2.55,2.18,0
2020-03-30T03:32:00-05:00,80.72,11.94,736.03,-3.14,0.8,348.46,0
2020-03-30T03:33:00-05:00,80.79,11.93,736.43,-5.49,0.78,302.98,0
2020-03-30T03:34:00-05:00,80.72,11.95,737,-4.91,1.09,338.52,0
2020-03-30T03:35:00-05:00,81.5,11.93,736.9,-2.55,2.2,9.33,0
2020-03-30T03:36:00-05:00,81.16,11.91,736.8,-2.99,0.93,19.29,0
2020-03-30T03:37:00-05:00,81.04,11.91,735.67,-2.41,1.38,328.55,0
2020-03-30T03:38:00-05:00,81.11,11.9,736.7,-2.55,0.48,30.32,0
2020-03-30T03:39:00-05:00,81.13,11.9,736.33,-2.55,0.57,278.69,0
2020-03-30T03:40:00-05:00,81.27,11.9,736.77,-2.41,0.27,194.22,0
2020-03-30T03:41:00-05:00,81.48,11.88,735.8,-1.52,0.26,222.22,0
2020-03-30T03:42:00-05:00,81.6,11.89,735.53,-0.64,0.57,251.79,0
2020-03-30T03:43:00-05:00,82.07,11.85,735.43,-2.7,0.92,341.58,0
2020-03-30T03:44:00-05:00,82.59,11.81,735.7,-0.49,0.6,166.12,0
2020-03-30T03:45:00-05:00,82.73,11.77,735.8,-1.23,0.84,27.3,0
2020-03-30T03:46:00-05:00,82.29,11.77,735.36,-0.79,0.29,3.08,0
2020-03-30T03:47:00-05:00,82.87,11.77,735.56,-0.35,0.44,164.17,0
2020-03-30T03:48:00-05:00,83.62,11.75,735.06,-0.94,0.42,219.26,0
2020-03-30T03:49:00-05:00,83.34,11.73,736.1,-2.26,0.2,201.94,0
2020-03-30T03:50:00-05:00,83.4,11.71,735.8,-0.79,0.28,285.96,0
2020-03-30T03:51:00-05:00,83.58,11.71,735.2,-2.11,0.7,63.53,0
2020-03-30T03:52:00-05:00,84.16,11.71,735.73,-1.97,0.56,103.81,0
2020-03-30T03:53:00-05:00,83.9,11.69,735.9,0.68,0.56,126.23,0
2020-03-30T03:54:00-05:00,83.08,11.67,735.36,-1.67,0.09,310.95,0
2020-03-30T03:55:00-05:00,83.36,11.67,735.83,-1.08,0.18,178.06,0
2020-03-30T03:56:00-05:00,83.32,11.68,735.46,-2.99,0.6,58.36,0
2020-03-30T03:57:00-05:00,83.8,11.68,735.83,-0.94,0.65,96.4,0
2020-03-30T03:58:00-05:00,83.38,11.65,734.86,-0.94,0.59,91.7,0
2020-03-30T03:59:00-05:00,83.8,11.65,734.83,-0.79,0.52,43.55,0
2020-03-30T04:00:00-05:00,84.08,11.65,735.03,-1.67,0.56,37.28,0
2020-03-30T04:01:00-05:00,83.84,11.64,735,-2.41,0.51,79.18,0
2020-03-30T04:02:00-05:00,84.41,11.65,734.83,-2.26,0.11,279.66,0
2020-03-30T04:03:00-05:00,84.38,11.67,734.46,-0.2,0.17,47.76,0
2020-03-30T04:04:00-05:00,84.09,11.64,735.2,-1.97,0.24,106.33,0
2020-03-30T04:05:00-05:00,83.71,11.61,735.4,-0.2,0.23,90.09,0
2020-03-30T04:06:00-05:00,83.58,11.62,734.79,-1.97,0.56,98.52,0
2020-03-30T04:07:00-05:00,83.05,11.6,735,-1.38,0.65,92.01,0
2020-03-30T04:08:00-05:00,83.05,11.59,734.66,-1.23,0.55,83.08,0
2020-03-30T04:09:00-05:00,83.42,11.6,734.33,-0.05,0.44,86.74,0
2020-03-30T04:10:00-05:00,83.82,11.6,735.6,-1.08,0.34,81.72,0
2020-03-30T04:11:00-05:00,84.02,11.6,735.1,0.39,0.46,106.9,0
2020-03-30T04:12:00-05:00,83.8,11.6,735.3,-0.64,0.21,115.77,0
2020-03-30T04:13:00-05:00,83.68,11.59,735.06,-0.94,0.33,133.51,0
2020-03-30T04:14:00-05:00,83.2,11.58,735.16,-1.67,0.58,198.29,0
2020-03-30T04:15:00-05:00,83.02,11.6,734.69,-2.26,0.58,196.22,0
2020-03-30T04:16:00-05:00,83.19,11.58,735.67,-0.94,0.32,172.17,0
2020-03-30T04:17:00-05:00,83.13,11.58,734.49,-2.41,0.55,190.05,0
2020-03-30T04:18:00-05:00,82.92,11.56,734.36,-3.14,0.49,187,0
2020-03-30T04:19:00-05:00,82.76,11.56,735.53,-2.41,0.12,200.98,0
2020-03-30T04:20:00-05:00,82.8,11.58,734.9,-1.97,0.55,351.55,0
2020-03-30T04:21:00-05:00,82.62,11.56,734.79,-2.55,0.57,14.12,0
2020-03-30T04:22:00-05:00,83.11,11.56,735.43,-2.41,0.66,110.55,0
2020-03-30T04:23:00-05:00,82.99,11.56,735.36,-2.11,0.55,86.06,0
2020-03-30T04:24:00-05:00,82.88,11.57,735.3,-1.08,0.55,114.57,0
2020-03-30T04:25:00-05:00,83.46,11.56,734.43,-2.11,0.21,106.49,0
2020-03-30T04:26:00-05:00,83.72,11.6,734.53,-0.05,0.32,103.76,0
2020-03-30T04:27:00-05:00,84,11.58,735,-0.05,0.62,110.54,0
2020-03-30T04:28:00-05:00,84.24,11.56,735.26,-1.38,0.27,44.15,0
2020-03-30T04:29:00-05:00,84.76,11.56,734.69,-2.26,0.39,78.11,0
2020-03-30T04:30:00-05:00,84.95,11.54,734.26,-0.05,0.09,140.62,0
2020-03-30T04:31:00-05:00,85.11,11.56,734.63,-1.23,0.12,175.13,0
2020-03-30T04:32:00-05:00,85.49,11.53,735.13,-1.67,0.55,91.78,0
2020-03-30T04:33:00-05:00,85.51,11.52,735.46,-0.2,0.22,108.81,0
2020-03-30T04:34:00-05:00,85.53,11.52,735.06,-2.55,0.26,140.29,0
2020-03-30T04:35:00-05:00,85.47,11.5,735.77,-1.52,0.37,198,0
2020-03-30T04:36:00-05:00,84.97,11.44,733.66,-1.08,0.57,175.13,0
2020-03-30T04:37:00-05:00,84.56,11.42,734.73,-3.44,0.26,142.23,0
2020-03-30T04:38:00-05:00,84.75,11.42,734.09,-2.26,0.16,170.09,0
2020-03-30T04:39:00-05:00,84.5,11.4,733.02,-3.29,0.22,157.16,0
2020-03-30T04:40:00-05:00,84.28,11.38,734.36,-2.99,0.37,145.24,0
2020-03-30T04:41:00-05:00,83.92,11.38,733.59,-4.17,0.6,157.2,0
2020-03-30T04:42:00-05:00,83.73,11.38,733.52,-3.14,0.74,154.25,0
2020-03-30T04:43:00-05:00,83.89,11.36,734.39,-1.67,0.84,173.46,0
2020-03-30T04:44:00-05:00,84.35,11.32,733.92,-2.26,0.67,145.28,0
2020-03-30T04:45:00-05:00,84.81,11.3,733.49,-4.02,0.66,113.57,0
2020-03-30T04:46:00-05:00,85.09,11.28,732.89,-3.14,0.27,80.12,0
2020-03-30T04:47:00-05:00,85.59,11.27,734.19,-1.52,0.32,143.55,0
2020-03-30T04:48:00-05:00,85.64,11.26,732.92,-2.99,0.48,128.43,0
2020-03-30T04:49:00-05:00,85,11.21,732.75,-2.7,0.61,145.62,0
2020-03-30T04:50:00-05:00,84.94,11.19,733.12,-4.32,0.69,130.26,0
2020-03-30T04:51:00-05:00,85.35,11.18,733.15,-2.99,0.61,92.47,0
2020-03-30T04:52:00-05:00,85.51,11.14,733.86,-4.17,0.61,63.35,0
2020-03-30T04:53:00-05:00,85.6,11.12,732.32,-3.58,0.76,101.74,0
2020-03-30T04:54:00-05:00,85.79,11.12,733.42,-2.11,0.62,95.1,0
2020-03-30T04:55:00-05:00,85.88,11.11,733.25,-1.82,0.8,63.09,0
2020-03-30T04:56:00-05:00,85.92,11.13,732.62,-4.02,0.69,33.68,0
2020-03-30T04:57:00-05:00,85.25,11.13,732.89,-3.88,0.56,70.77,0
2020-03-30T04:58:00-05:00,85.2,11.17,732.65,-3.58,0.76,65.27,0
2020-03-30T04:59:00-05:00,84.67,11.18,732.89,-3.14,0.89,34.95,0
2020-03-30T05:00:00-05:00,84.54,11.2,732.18,-4.02,0.63,74.6,0
2020-03-30T05:01:00-05:00,84.38,11.2,732.38,-4.91,0.64,64.75,0
2020-03-30T05:02:00-05:00,84.69,11.17,733.05,-4.91,0.85,70.43,0
2020-03-30T05:03:00-05:00,84.54,11.17,731.85,-5.2,0.68,65.64,0
2020-03-30T05:04:00-05:00,84.8,11.15,732.12,-4.46,1.02,62.9,0
2020-03-30T05:05:00-05:00,84.44,11.14,731.92,-4.76,1.02,52.39,0
2020-03-30T05:06:00-05:00,84.61,11.14,731.75,-5.05,1.06,64.36,0
2020-03-30T05:07:00-05:00,84.77,11.12,732.15,-5.49,0.93,58.03,0
2020-03-30T05:08:00-05:00,84.91,11.08,730.38,-3.88,0.93,73.82,0
2020-03-30T05:09:00-05:00,84.97,11.04,731.68,-2.55,0.77,60.26,0
2020-03-30T05:10:00-05:00,85.09,11,731.51,-3.44,1.07,78.58,0
2020-03-30T05:11:00-05:00,85.25,10.95,731.85,-5.79,1,84.87,0
2020-03-30T05:12:00-05:00,85.42,10.89,731.61,-4.91,0.69,69.54,0
2020-03-30T05:13:00-05:00,85.33,10.84,731.58,-3.44,0.61,69.97,0
2020-03-30T05:14:00-05:00,85.74,10.83,730.58,-3.29,0.88,65.47,0
2020-03-30T05:15:00-05:00,86.03,10.8,730.88,-5.2,0.58,80.98,0
2020-03-30T05:16:00-05:00,85.81,10.75,730.51,-3.88,0.31,90.78,0
2020-03-30T05:17:00-05:00,85.91,10.7,730.91,-3.14,0.44,48.25,0
2020-03-30T05:18:00-05:00,85.79,10.68,736.7,-4.02,0.69,71.45,0
2020-03-30T05:19:00-05:00,85.59,10.66,736.87,-4.02,1.19,60.29,0
2020-03-30T05:20:00-05:00,85.75,10.63,736.57,-1.97,0.66,120.3,0
2020-03-30T05:21:00-05:00,86.16,10.62,735.83,-4.76,0.66,78.59,0
2020-03-30T05:22:00-05:00,86.37,10.58,736.67,-4.17,0.26,27.64,0
2020-03-30T05:23:00-05:00,86.39,10.57,736.5,-3.14,0.93,67.71,0
2020-03-30T05:24:00-05:00,86.04,10.54,736.8,-4.91,0.71,66.87,0
2020-03-30T05:25:00-05:00,86.24,10.57,736.57,-3.44,0.68,62.83,0
2020-03-30T05:26:00-05:00,86.22,10.54,736.84,-3.58,0.61,34.3,0
2020-03-30T05:27:00-05:00,85.56,10.56,735.73,-4.17,0.89,90.23,0
2020-03-30T05:28:00-05:00,85.31,10.57,736.77,-1.82,1.08,53,0
2020-03-30T05:29:00-05:00,85.38,10.58,736.13,-1.08,0.51,148.56,0
2020-03-30T05:30:00-05:00,85.53,10.56,736.1,-2.41,0.65,44.1,0
2020-03-30T05:31:00-05:00,85.41,10.57,737.2,-0.79,0.66,78.51,0
2020-03-30T05:32:00-05:00,85.39,10.57,736.17,-2.55,0.57,76.41,0
2020-03-30T05:33:00-05:00,84.5,10.58,737.54,-1.52,0.34,357.46,0
2020-03-30T05:34:00-05:00,84.46,10.6,736.8,-0.05,0.17,6.68,0
2020-03-30T05:35:00-05:00,84.56,10.62,737.67,-1.23,0.96,67.76,0
2020-03-30T05:36:00-05:00,84.12,10.66,737.71,-0.64,0.7,55.21,0
2020-03-30T05:37:00-05:00,83.67,10.66,737.71,-0.05,0.89,35.04,0
2020-03-30T05:38:00-05:00,82.89,10.71,737.67,-2.41,0.53,39.21,0
2020-03-30T05:39:00-05:00,84.2,10.73,737.67,-0.79,0.46,154.2,0
2020-03-30T05:40:00-05:00,84.1,10.74,736.7,-2.11,1,109.25,0
2020-03-30T05:41:00-05:00,84.24,10.73,736.87,-1.52,0.86,73.49,0
2020-03-30T05:42:00-05:00,83.58,10.76,737.97,-0.2,0.83,7.39,0
2020-03-30T05:43:00-05:00,82.53,10.78,737.77,-2.26,0.67,346.52,0
2020-03-30T05:44:00-05:00,82.03,10.84,737.44,-1.38,0.76,355.85,0
2020-03-30T05:45:00-05:00,82.15,10.88,737.14,-2.26,0.23,39.21,0
2020-03-30T05:46:00-05:00,82.4,10.9,738.48,-2.41,1.42,61.45,0
2020-03-30T05:47:00-05:00,82.27,10.92,738.08,-1.67,0.77,58.68,0
2020-03-30T05:48:00-05:00,82.39,10.94,738.28,-1.67,0.67,46.06,0
2020-03-30T05:49:00-05:00,82.35,10.96,738.61,-0.94,0.95,26.37,0
2020-03-30T05:50:00-05:00,82.14,10.96,737.77,-1.38,1.64,79.6,0
2020-03-30T05:51:00-05:00,81.46,11.02,737.57,-1.08,1.5,60.95,0
2020-03-30T05:52:00-05:00,81.44,11.06,737.97,1.27,1.64,57.02,0
2020-03-30T05:53:00-05:00,81.31,11.08,737.94,-0.35,0.58,31.54,0
2020-03-30T05:54:00-05:00,81.66,11.09,739.08,-0.49,0.21,70.64,0
2020-03-30T05:55:00-05:00,81.9,11.08,738.78,0.09,0.6,120.89,0
2020-03-30T05:56:00-05:00,81.2,11.1,739.05,0.83,0.73,74.77,0
2020-03-30T05:57:00-05:00,81.85,11.1,738.14,2.89,0.29,73.66,0
2020-03-30T05:58:00-05:00,81.14,11.08,738.08,1.56,0.58,97.97,0
2020-03-30T05:59:00-05:00,81.58,11.08,738.74,2.45,0.64,143.24,0
2020-03-30T06:00:00-05:00,81.15,11.08,738.78,1.86,0.52,125.24,0
2020-03-30T06:01:00-05:00,81.84,11.08,738.11,3.33,0.62,121.65,0
2020-03-30T06:02:00-05:00,81.98,11.05,739.25,4.21,0.61,109.47,0
2020-03-30T06:03:00-05:00,82.17,11.05,739.08,6.12,0.72,83.11,0
2020-03-30T06:04:00-05:00,82.34,11.01,739.08,5.97,0.67,51.45,0
2020-03-30T06:05:00-05:00,82.65,10.98,738.54,6.12,0.69,88.21,0
2020-03-30T06:06:00-05:00,82.95,10.94,738.95,9.36,0.63,97.96,0
2020-03-30T06:07:00-05:00,83.07,10.92,738.81,10.83,0.23,53.83,0
2020-03-30T06:08:00-05:00,82.92,10.9,738.54,14.8,0.54,115.95,0
2020-03-30T06:09:00-05:00,83.07,10.89,737.84,18.03,0.69,135.05,0
2020-03-30T06:10:00-05:00,82.87,10.88,737.74,19.79,0.23,143.21,0
2020-03-30T06:11:00-05:00,83.24,10.9,738.64,20.68,0.6,118.99,0
2020-03-30T06:12:00-05:00,82.89,10.89,737.87,21.41,0.74,110.19,0
2020-03-30T06:13:00-05:00,82.55,10.92,738.98,21.85,0.66,83.81,0
2020-03-30T06:14:00-05:00,82.09,10.93,739.31,26.56,0.69,66.87,0
2020-03-30T06:15:00-05:00,83.2,10.97,739.25,30.97,0.17,302.64,0
2020-03-30T06:16:00-05:00,82.89,10.98,739.18,34.35,0.69,96.99,0
2020-03-30T06:17:00-05:00,82.74,11.02,739.41,34.06,0.55,17.33,0
2020-03-30T06:18:00-05:00,83.07,11.03,739.41,36.85,0.18,80.98,0
2020-03-30T06:19:00-05:00,83.03,11.06,738.54,40.08,0.2,75.02,0
2020-03-30T06:20:00-05:00,82.47,11.06,739.55,39.2,0.64,70.76,0
2020-03-30T06:21:00-05:00,82.34,11.08,738.88,39.05,0.77,84.4,0
2020-03-30T06:22:00-05:00,81.72,11.1,739.51,38.02,0.63,80.73,0
2020-03-30T06:23:00-05:00,81.54,11.15,740.55,38.17,0.61,88.7,0
2020-03-30T06:24:00-05:00,81.93,11.18,740.22,38.61,0.59,115.8,0
2020-03-30T06:25:00-05:00,82.23,11.2,739.82,39.64,0.56,139.28,0
2020-03-30T06:26:00-05:00,81.24,11.21,740.85,42.44,0.36,135.82,0
2020-03-30T06:27:00-05:00,81.17,11.26,739.78,42.88,0.5,216.9,0
2020-03-30T06:28:00-05:00,82.19,11.27,739.85,41.55,0.27,210.95,0
2020-03-30T06:29:00-05:00,83.34,11.26,739.98,42.88,0.62,191.32,0
2020-03-30T06:30:00-05:00,83.34,11.24,741.05,41.7,0.66,198.32,0
2020-03-30T06:31:00-05:00,83.83,11.21,740.92,39.79,0.56,182.05,0
2020-03-30T06:32:00-05:00,83.74,11.21,740.62,39.79,0.58,192,0
2020-03-30T06:33:00-05:00,84.27,11.21,740.79,39.79,0.6,185.04,0
2020-03-30T06:34:00-05:00,84.5,11.24,740.05,41.26,0.41,228.81,0
2020-03-30T06:35:00-05:00,84.58,11.27,739.82,39.64,0.25,107.23,0
2020-03-30T06:36:00-05:00,84.46,11.28,739.65,35.67,0.62,154.23,0
2020-03-30T06:37:00-05:00,84.63,11.3,740.18,29.64,0.53,177.4,0
2020-03-30T06:38:00-05:00,84.89,11.34,741.36,25.97,0.64,213.25,0
2020-03-30T06:39:00-05:00,84.94,11.36,741.49,24.2,0.52,136.32,0
2020-03-30T06:40:00-05:00,85.19,11.39,740.52,24.5,0.37,151.16,0
2020-03-30T06:41:00-05:00,85.23,11.42,741.29,22.88,0.34,219.21,0
2020-03-30T06:42:00-05:00,84.57,11.44,741.49,20.53,0.56,166.13,0
2020-03-30T06:43:00-05:00,84.47,11.45,741.62,21.41,0.24,166.47,0
2020-03-30T06:44:00-05:00,84.59,11.46,741.66,22.73,0.35,114.35,0
2020-03-30T06:45:00-05:00,84.68,11.5,740.69,21.56,0.6,102.26,0
2020-03-30T06:46:00-05:00,84.73,11.52,740.82,25.97,0.53,127.18,0
2020-03-30T06:47:00-05:00,84.77,11.52,740.99,26.56,0.32,119.29,0
2020-03-30T06:48:00-05:00,85.05,11.56,736.7,28.47,0.43,102.47,0
2020-03-30T06:49:00-05:00,85.47,11.57,737.91,28.91,0.23,121.23,0
2020-03-30T06:50:00-05:00,85.35,11.59,737.81,29.35,0.3,136.21,0
2020-03-30T06:51:00-05:00,85.29,11.6,737.84,30.23,0.26,127.76,0
2020-03-30T06:52:00-05:00,85.19,11.61,737.24,30.82,0.21,133.26,0
2020-03-30T06:53:00-05:00,84.89,11.63,737.57,29.06,0.11,167.12,0
2020-03-30T06:54:00-05:00,84.96,11.65,737.17,31.85,0.3,54.26,0
2020-03-30T06:55:00-05:00,85.43,11.66,737.1,31.56,0.29,85.62,0
2020-03-30T06:56:00-05:00,85.49,11.68,737.87,35.23,0.22,89.46,0
2020-03-30T06:57:00-05:00,85.75,11.71,737.2,37.73,0.11,143.18,0
2020-03-30T06:58:00-05:00,85.81,11.71,738.11,39.2,0.25,126.56,0
2020-03-30T06:59:00-05:00,85.71,11.75,738.08,43.02,0.09,253.77,0
2020-03-30T07:00:00-05:00,85.45,11.77,737.64,50.82,0.47,274.11,0
2020-03-30T07:01:00-05:00,85.34,11.76,737.17,59.34,0.41,303.64,0
2020-03-30T07:02:00-05:00,84.98,11.77,738.61,63.61,0.21,287.01,0
2020-03-30T07:03:00-05:00,84.29,11.79,738.71,64.05,0.58,24.28,0
2020-03-30T07:04:00-05:00,83.24,11.79,737.97,69.78,0.67,1.1,0
2020-03-30T07:05:00-05:00,82.55,11.81,738.68,74.93,0.43,48,0
2020-03-30T07:06:00-05:00,82.51,11.83,739.15,82.28,0.63,70.2,0
2020-03-30T07:07:00-05:00,82.4,11.85,738.31,86.54,0.3,88.69,0
2020-03-30T07:08:00-05:00,82.58,11.87,738.81,93.6,0.06,207.97,0
2020-03-30T07:09:00-05:00,82.42,11.93,739.75,103.45,0.13,343.55,0
2020-03-30T07:10:00-05:00,82.39,11.95,739.95,111.54,0.46,47.26,0
2020-03-30T07:11:00-05:00,82.57,11.98,740.18,205.19,0.23,300.97,0
2020-03-30T07:12:00-05:00,83.02,12.09,740.02,273.85,0.8,18.99,0
2020-03-30T07:13:00-05:00,81.52,12.22,741.46,312.52,0.53,332.53,0
2020-03-30T07:14:00-05:00,80.57,12.36,736.3,327.96,0.65,26.45,0
2020-03-30T07:15:00-05:00,80.45,12.55,737.2,329.57,0.53,14.39,0
2020-03-30T07:16:00-05:00,79.25,12.69,736.27,316.93,0.95,54.68,0
2020-03-30T07:17:00-05:00,78.5,12.79,737.24,297.23,1.7,37.46,0
2020-03-30T07:18:00-05:00,79.15,12.89,736.84,239.59,0.58,10.62,0
2020-03-30T07:19:00-05:00,79,13.02,737.17,213.87,0.86,54.64,0
2020-03-30T07:20:00-05:00,77.84,13.08,737.77,216.95,1.12,59.15,0
2020-03-30T07:21:00-05:00,77.93,13.07,738.68,212.84,0.71,52.75,0
2020-03-30T07:22:00-05:00,77.85,13.15,738.48,143.74,0.28,68.28,0
2020-03-30T07:23:00-05:00,77.03,13.19,738.28,145.94,0.82,342.82,0
2020-03-30T07:24:00-05:00,76.35,13.21,737.31,145.94,0.7,38.81,0
2020-03-30T07:25:00-05:00,76.45,13.18,736.4,167.99,0.44,31.57,0
2020-03-30T07:26:00-05:00,75.83,13.23,736.97,192.84,0.22,94.54,0
2020-03-30T07:27:00-05:00,77.15,13.3,736.33,279.73,0.24,296.59,0
2020-03-30T07:28:00-05:00,76.57,13.36,737.14,278.56,1.05,250.78,0
2020-03-30T07:29:00-05:00,75.96,13.34,737.41,283.11,0.7,274.77,0
2020-03-30T07:30:00-05:00,75.56,13.35,737.54,293.99,0.24,154.23,0
2020-03-30T07:31:00-05:00,75.74,13.44,736.2,300.32,0.59,62.15,0
2020-03-30T07:32:00-05:00,75.02,13.52,737.41,301.2,0.72,54.13,0
2020-03-30T07:33:00-05:00,75.44,13.64,736.7,308.11,0.53,31.9,0
2020-03-30T07:34:00-05:00,74.79,13.8,736.07,295.9,0.63,45.58,0
2020-03-30T07:35:00-05:00,74.21,13.88,737.27,290.91,0.58,32.32,0
2020-03-30T07:36:00-05:00,73.2,13.9,738.31,284.73,0.58,23.83,0
2020-03-30T07:37:00-05:00,73.48,13.93,738.88,273.41,0.62,60.04,0
2020-03-30T07:38:00-05:00,74.05,14,738.41,283.41,0.65,45.75,0
2020-03-30T07:39:00-05:00,74.15,14.05,738.68,288.85,1.32,60,0
2020-03-30T07:40:00-05:00,74.12,14.1,738.34,298.55,1.02,39.04,0
2020-03-30T07:41:00-05:00,74.62,14.11,738.81,296.93,0.48,20.86,0
2020-03-30T07:42:00-05:00,75.16,14.21,740.32,316.19,0.56,28.79,0
2020-03-30T07:43:00-05:00,73.34,14.28,739.35,325.75,0.24,297.57,0
2020-03-30T07:44:00-05:00,73.92,14.38,740.28,323.99,0.66,339.49,0
2020-03-30T07:45:00-05:00,73.65,14.48,737.27,337.95,0.6,341.85,0
2020-03-30T07:46:00-05:00,73.67,14.59,736.1,338.25,0.91,54.36,0
2020-03-30T07:47:00-05:00,71.65,14.59,736.57,338.84,2.51,357.4,0
2020-03-30T07:48:00-05:00,71.33,14.48,736.9,347.8,0.65,20.35,0
2020-03-30T07:49:00-05:00,72.31,14.51,737.61,357.95,0.59,87.7,0
2020-03-30T07:50:00-05:00,71.73,14.49,736.7,356.77,0.84,2.72,0
2020-03-30T07:51:00-05:00,71.57,14.41,737.64,359.27,0.12,14.33,0
2020-03-30T07:52:00-05:00,71.95,14.41,738.08,361.62,1.11,48.83,0
2020-03-30T07:53:00-05:00,71.81,14.34,738.34,366.48,0.63,56.33,0
2020-03-30T07:54:00-05:00,71.91,14.32,737.67,376.77,0.97,74.15,0
2020-03-30T07:55:00-05:00,72.47,14.3,738.44,389.71,2.28,61.57,0
2020-03-30T07:56:00-05:00,72.38,14.23,738.31,388.24,0.74,54.77,0
2020-03-30T07:57:00-05:00,73.67,14.26,737.74,398.82,0.94,76.69,0
2020-03-30T07:58:00-05:00,73.98,14.37,738.28,405.29,0.89,33.39,0
2020-03-30T07:59:00-05:00,73.01,14.44,736.77,411.02,0.29,284.66,0
2020-03-30T08:00:00-05:00,71.25,14.44,736.64,414.85,1.27,61.84,0
2020-03-30T08:01:00-05:00,71.55,14.39,735.83,404.26,1.05,46.44,0
2020-03-30T08:02:00-05:00,72.11,14.36,736.33,402.94,1.65,58.38,0
2020-03-30T08:03:00-05:00,71.85,14.35,736.3,402.5,1.81,73.24,0
2020-03-30T08:04:00-05:00,71.77,14.29,737.41,171.96,1.36,53.13,0
2020-03-30T08:05:00-05:00,72.38,14.19,737.41,162.7,0.61,53.65,0
2020-03-30T08:06:00-05:00,72.64,14.13,736.33,162.55,1.14,80.85,0
2020-03-30T08:07:00-05:00,73.1,14.06,736.67,166.96,1.65,63.91,0
2020-03-30T08:08:00-05:00,72.98,13.96,735.93,209.01,0.55,68.63,0
2020-03-30T08:09:00-05:00,73.78,13.9,734.63,176.67,1.4,80.84,0
2020-03-30T08:10:00-05:00,74.08,13.84,734.73,181.96,0.77,72.41,0
2020-03-30T08:11:00-05:00,74.07,13.8,734.63,230.33,1.17,4.64,0
2020-03-30T08:12:00-05:00,74.04,13.78,734.83,275.47,0.92,49.91,0
2020-03-30T08:13:00-05:00,73.64,13.78,735.46,448.51,0.87,44.31,0
2020-03-30T08:14:00-05:00,72.94,13.79,735.23,485.56,0.6,31.08,0
2020-03-30T08:15:00-05:00,74.3,13.9,736.7,470.57,0.57,13.86,0
2020-03-30T08:16:00-05:00,74.52,14.08,737,487.62,0.5,49.92,0
2020-03-30T08:17:00-05:00,72.17,14.24,737.04,490.71,0.69,41.48,0
2020-03-30T08:18:00-05:00,70.66,14.26,736.37,503.35,1.01,48.06,0
2020-03-30T08:19:00-05:00,71.11,14.34,738.08,505.71,0.5,58.16,0
2020-03-30T08:20:00-05:00,71.88,14.47,738.71,514.82,0.59,89.12,0
2020-03-30T08:21:00-05:00,70.02,14.55,738.28,528.94,1.3,62.8,0
2020-03-30T08:22:00-05:00,70.36,14.57,738.18,525.11,1.63,62.15,0
2020-03-30T08:23:00-05:00,70.58,14.62,739.05,538.05,0.94,25.34,0
2020-03-30T08:24:00-05:00,71.1,14.82,739.62,536.43,0.65,4.66,0
2020-03-30T08:25:00-05:00,70.71,15.02,741.59,556.14,0.57,12.63,0
2020-03-30T08:26:00-05:00,70.56,15.25,737.2,515.41,0.19,310.61,0
2020-03-30T08:27:00-05:00,70.17,15.46,737.07,540.7,0.44,126.53,0
2020-03-30T08:28:00-05:00,68.55,15.61,736.64,555.4,0.87,16.65,0
2020-03-30T08:29:00-05:00,67.53,15.68,736.8,583.04,0.7,52.6,0
2020-03-30T08:30:00-05:00,66.69,15.68,738.24,581.28,0.34,103.37,0
2020-03-30T08:31:00-05:00,67.39,15.8,738.85,568.78,0.72,17.66,0
2020-03-30T08:32:00-05:00,65.82,15.84,737.27,573.93,1.34,19.91,0
2020-03-30T08:33:00-05:00,65.18,15.69,737.64,577.16,0.61,114.16,0
2020-03-30T08:34:00-05:00,65.62,15.67,736.37,581.87,0.23,49.15,0
2020-03-30T08:35:00-05:00,66.76,15.8,736.2,587.75,0.38,60.95,0
2020-03-30T08:36:00-05:00,67.01,15.99,737.31,600.1,0.44,302.59,0
2020-03-30T08:37:00-05:00,65.46,16.1,736.5,617.89,0.18,351.51,0
2020-03-30T08:38:00-05:00,64.7,16.19,737.14,633.32,0.5,310.63,0
2020-03-30T08:39:00-05:00,67.24,16.34,737,669.64,0.26,268.71,0
2020-03-30T08:40:00-05:00,66.33,16.47,737.17,618.18,0.96,169.05,0
2020-03-30T08:41:00-05:00,65.67,16.56,736.47,683.31,0.49,200.96,0
2020-03-30T08:42:00-05:00,65.69,16.64,736.9,558.34,0.64,255.69,0
2020-03-30T08:43:00-05:00,67.27,16.75,736.47,716.69,0.68,193.92,0
2020-03-30T08:44:00-05:00,65.52,16.65,736.37,374.27,0.67,257.16,0
2020-03-30T08:45:00-05:00,66.43,16.62,736.23,384.27,0.64,282.69,0
2020-03-30T08:46:00-05:00,65.22,16.56,735.97,351.48,0.61,259.12,0
2020-03-30T08:47:00-05:00,67.21,16.5,737.37,364.56,0.7,208.94,0
2020-03-30T08:48:00-05:00,65.72,16.42,736.6,381.77,0.59,251.13,0
2020-03-30T08:49:00-05:00,66.37,16.38,736.03,587.45,1.19,211.86,0
2020-03-30T08:50:00-05:00,66.08,16.31,737.07,325.9,0.65,271.09,0
2020-03-30T08:51:00-05:00,66.81,16.26,737.17,320.6,1.12,232.82,0
2020-03-30T08:52:00-05:00,68.47,16.22,737.57,352.95,0.94,245.77,0
2020-03-30T08:53:00-05:00,67.03,16.15,737.17,345.75,0.65,244.08,0
2020-03-30T08:54:00-05:00,67.89,16.09,736.74,360.15,0.54,201.17,0
2020-03-30T08:55:00-05:00,68.73,16.06,736.77,320.75,0.53,203.93,0
2020-03-30T08:56:00-05:00,68.89,16.02,736.33,356.04,0.62,275.74,0
2020-03-30T08:57:00-05:00,67.56,16.02,737,367.36,0.45,252.7,0
2020-03-30T08:58:00-05:00,68.37,16.01,737.1,341.78,0.24,287.63,0
2020-03-30T08:59:00-05:00,69.11,16.04,737.84,383.38,0.54,248.8,0
2020-03-30T09:00:00-05:00,67.99,16.08,737.37,506.88,0.76,231.87,0
2020-03-30T09:01:00-05:00,67.83,16.08,736.84,408.82,0.63,206.98,0
2020-03-30T09:02:00-05:00,66.96,16.06,737.24,348.39,0.84,224.89,0
2020-03-30T09:03:00-05:00,67.74,16.06,735.87,305.17,0.63,224.23,0
2020-03-30T09:04:00-05:00,67.16,16,734.76,259.3,0.58,262.69,0
2020-03-30T09:05:00-05:00,65.78,15.94,734.49,214.75,0.68,117.97,0
2020-03-30T09:06:00-05:00,67.26,15.86,733.89,188.58,0.95,252.76,0
2020-03-30T09:07:00-05:00,69.59,15.83,734.29,170.35,0.62,158.52,0
2020-03-30T09:08:00-05:00,70.05,15.81,733.46,165.2,0.12,101.58,0
2020-03-30T09:09:00-05:00,69.31,15.81,733.19,156.53,0.56,270.04,0
2020-03-30T09:10:00-05:00,68.76,15.84,734.19,148.88,0.71,345.47,0
2020-03-30T09:11:00-05:00,67.21,15.83,732.82,139.03,0.59,305.57,0
2020-03-30T09:12:00-05:00,67.96,15.81,733.02,126.24,0.55,172.16,0
2020-03-30T09:13:00-05:00,68.01,15.79,732.05,113.89,0.4,245.76,0
2020-03-30T09:14:00-05:00,68.98,15.75,737.07,103.3,0.57,210.95,0
2020-03-30T09:15:00-05:00,67.72,15.66,736.67,97.57,0.56,242.79,0
2020-03-30T09:16:00-05:00,67.1,15.59,737.04,96.25,0.19,214.94,0
2020-03-30T09:17:00-05:00,69.64,15.56,738.54,102.42,0.64,210.91,0
2020-03-30T09:18:00-05:00,68.04,15.51,736.6,110.07,0.55,300.67,0
2020-03-30T09:19:00-05:00,69.93,15.47,738.28,120.21,0.56,189.06,0
2020-03-30T09:20:00-05:00,68.56,15.41,736.3,138.44,0.49,209.29,0
2020-03-30T09:21:00-05:00,69.68,15.37,737.1,154.76,0.62,221.92,0
2020-03-30T09:22:00-05:00,70.83,15.33,737.04,173.43,0.43,189.38,0
2020-03-30T09:23:00-05:00,71.51,15.29,735.9,191.37,0.97,231.84,0
2020-03-30T09:24:00-05:00,69.1,15.23,735.26,208.57,0.59,269.05,0
2020-03-30T09:25:00-05:00,70.29,15.21,736.4,227.83,0.92,233.87,0
2020-03-30T09:26:00-05:00,71.2,15.18,735.6,246.8,0.65,211.3,0
2020-03-30T09:27:00-05:00,72.04,15.19,736.27,258.27,0.59,208.28,0
2020-03-30T09:28:00-05:00,72.01,15.21,735.73,272.97,0.53,240.13,0
2020-03-30T09:29:00-05:00,71.59,15.24,736.8,276.64,0.64,186.97,0
2020-03-30T09:30:00-05:00,71.27,15.28,736.77,285.76,0.31,156.21,0
2020-03-30T09:31:00-05:00,71.41,15.35,736.74,315.31,0.37,205.01,0
2020-03-30T09:32:00-05:00,69.05,15.4,737.81,320.31,0.63,248.79,0
2020-03-30T09:33:00-05:00,68.08,15.39,737.31,310.31,1.05,275.73,0
2020-03-30T09:34:00-05:00,66.87,15.41,738.41,301.79,0.57,299.68,0
2020-03-30T09:35:00-05:00,69.86,15.48,737.74,310.46,0.54,193.92,0
2020-03-30T09:36:00-05:00,68.47,15.54,739.11,335.45,0.77,9.04,0
2020-03-30T09:37:00-05:00,67.75,15.57,738.85,388.82,0.6,88.62,0
2020-03-30T09:38:00-05:00,68.95,15.65,736.64,451.16,0.76,286.64,0
2020-03-30T09:39:00-05:00,69.55,15.76,737.84,412.05,0.61,311.94,0
2020-03-30T09:40:00-05:00,68.61,15.86,737.87,425.43,0.35,209.94,0
2020-03-30T09:41:00-05:00,68.27,15.98,736.43,389.56,0.28,34.7,0
2020-03-30T09:42:00-05:00,69.19,16.12,737.51,345.89,0.47,177.08,0
2020-03-30T09:43:00-05:00,69.43,16.22,736.67,302.96,0.61,225.22,0
2020-03-30T09:44:00-05:00,67.43,16.27,737.54,257.83,0.95,221.94,0
2020-03-30T09:45:00-05:00,66.54,16.33,737.77,217.83,0.25,273.01,0
2020-03-30T09:46:00-05:00,65.46,16.38,737.47,185.78,0.47,268.75,0
2020-03-30T09:47:00-05:00,65.63,16.43,737.54,159.47,0.44,295.87,0
2020-03-30T09:48:00-05:00,66.33,16.46,736.6,140.35,0.21,177.05,0
2020-03-30T09:49:00-05:00,65.53,16.5,737.54,123.59,0.18,3.69,0
2020-03-30T09:50:00-05:00,65.51,16.51,736.94,116.39,0.62,108.23,0
2020-03-30T09:51:00-05:00,65.3,16.45,736.5,112.27,0.59,43.36,0
2020-03-30T09:52:00-05:00,64.86,16.37,736.43,112.57,1.03,41.05,0
2020-03-30T09:53:00-05:00,65.06,16.2,737.61,112.13,0.81,30.55,0
2020-03-30T09:54:00-05:00,65.62,16.1,737.81,115.65,0.22,37.3,0
2020-03-30T09:55:00-05:00,66.19,16.04,736.27,115.65,0.14,272.65,0
2020-03-30T09:56:00-05:00,69.48,16.05,736.33,119.92,0.33,263.73,0
2020-03-30T09:57:00-05:00,69.88,16.04,735.53,125.5,0.23,167.13,0
2020-03-30T09:58:00-05:00,71.43,16.04,736.3,130.94,0.57,245.1,0
2020-03-30T09:59:00-05:00,69.82,16.02,735.9,134.77,0.41,307.68,0
2020-03-30T10:00:00-05:00,68.57,16.02,735.67,136.24,0.54,47.79,0
2020-03-30T10:01:00-05:00,64.46,15.92,735.93,137.12,2.58,41.11,0
2020-03-30T10:02:00-05:00,63.49,15.8,735.5,134.33,1.03,31.61,0
2020-03-30T10:03:00-05:00,63.79,15.75,735.06,135.35,2.31,65.94,0
2020-03-30T10:04:00-05:00,65.49,15.66,733.66,137.27,2.68,61.91,0
2020-03-30T10:05:00-05:00,64.47,15.53,733.72,135.8,1.11,75.05,0
2020-03-30T10:06:00-05:00,66.57,15.48,732.79,140.35,0.62,346.77,0
2020-03-30T10:07:00-05:00,67.44,15.49,732.38,145.94,0.3,265.77,0
2020-03-30T10:08:00-05:00,67.84,15.51,732.12,152.85,0.89,37.27,0
2020-03-30T10:09:00-05:00,66.23,15.48,737.74,159.76,2.61,63.85,0
2020-03-30T10:10:00-05:00,65.19,15.41,737.47,161.67,0.63,316.61,0
2020-03-30T10:11:00-05:00,64.81,15.37,736.8,165.94,0.83,176.09,0
2020-03-30T10:12:00-05:00,65.1,15.33,737.07,165.79,2.76,47.11,0
2020-03-30T10:13:00-05:00,64.2,15.25,736.74,164.76,3.54,61.83,0
2020-03-30T10:14:00-05:00,64.77,15.18,737.54,160.79,0.97,35.66,0
2020-03-30T10:15:00-05:00,65.22,15.17,736.74,160.05,1.39,14.77,0
2020-03-30T10:16:00-05:00,65.67,15.18,736.6,159.47,3.44,31.03,0
2020-03-30T10:17:00-05:00,66.39,15.18,736.27,162.26,0.62,5.14,0
2020-03-30T10:18:00-05:00,65.73,15.16,737.27,163.29,0.75,45.34,0
2020-03-30T10:19:00-05:00,66.27,15.17,736.13,162.41,1.43,53.28,0
2020-03-30T10:20:00-05:00,66.95,15.17,737.14,160.94,2.29,20.88,0
2020-03-30T10:21:00-05:00,66.24,15.16,735.83,159.47,0.35,323.86,0
2020-03-30T10:22:00-05:00,66.7,15.13,735.67,157.26,2.6,79.1,0
2020-03-30T10:23:00-05:00,66.57,15.05,735.87,156.97,1.97,29.12,0
2020-03-30T10:24:00-05:00,66.58,15,735.2,146.68,2.78,15.95,0
2020-03-30T10:25:00-05:00,66.82,14.99,734.83,131.97,2.47,15,0
2020-03-30T10:26:00-05:00,66.25,14.95,734.9,116.98,0.95,304.6,0
2020-03-30T10:27:00-05:00,66.97,14.94,734.66,107.86,0.59,355.44,0
2020-03-30T10:28:00-05:00,67.7,14.94,734.56,112.86,0.66,153.13,0
2020-03-30T10:29:00-05:00,67.84,14.93,734.63,127.42,2.04,343.54,0
2020-03-30T10:30:00-05:00,67.2,14.88,733.66,143.15,2.55,101.29,0
2020-03-30T10:31:00-05:00,67.66,14.86,733.12,148.88,5.02,32.53,0
2020-03-30T10:32:00-05:00,67.25,14.8,733.49,143.59,0.76,67.05,0
2020-03-30T10:33:00-05:00,67.76,14.79,733.05,137.71,1.24,350.52,0
2020-03-30T10:34:00-05:00,67.41,14.77,733.15,134.47,0.66,356.74,0
2020-03-30T10:35:00-05:00,67.46,14.75,732.89,130.8,2.93,77.66,0
2020-03-30T10:36:00-05:00,67.31,14.72,732.72,131.24,2.82,58.42,0
2020-03-30T10:37:00-05:00,68.31,14.69,733.96,130.06,1.34,38.82,0
2020-03-30T10:38:00-05:00,67.92,14.71,733.29,127.42,0.57,73.35,0
2020-03-30T10:39:00-05:00,67.48,14.71,731.58,121.53,1.15,10.38,0
2020-03-30T10:40:00-05:00,67.58,14.71,732.69,116.54,2.37,19.64,0
2020-03-30T10:41:00-05:00,67.97,14.7,733.19,118.89,1.96,54.23,0
2020-03-30T10:42:00-05:00,67.64,14.68,737.31,123.74,1.5,4.97,0
2020-03-30T10:43:00-05:00,67.35,14.64,737.1,125.36,3.36,17.76,0
2020-03-30T10:44:00-05:00,68.04,14.64,737.77,127.56,2.44,4.02,0
2020-03-30T10:45:00-05:00,68.5,14.65,737.27,130.36,2.56,350.54,0
2020-03-30T10:46:00-05:00,68.8,14.67,737.91,135.65,0.77,286.62,0
2020-03-30T10:47:00-05:00,69.54,14.68,736.9,132.86,0.23,94.23,0
2020-03-30T10:48:00-05:00,70,14.71,737.04,129.62,0.27,243.8,0
2020-03-30T10:49:00-05:00,70.22,14.71,737.1,120.95,0.77,279.66,0
2020-03-30T10:50:00-05:00,69.62,14.71,736.6,117.12,0.59,282.72,0
2020-03-30T10:51:00-05:00,71.07,14.72,736.54,112.13,0.53,177.05,0
2020-03-30T10:52:00-05:00,72.15,14.72,736.3,108.74,0.75,114.21,0
2020-03-30T10:53:00-05:00,69.32,14.7,737.41,106.54,2.36,90.86,0
2020-03-30T10:54:00-05:00,67.92,14.65,736.94,101.54,0.79,190.99,0
2020-03-30T10:55:00-05:00,68.44,14.65,736.94,99.04,2.53,1.14,0
2020-03-30T10:56:00-05:00,68.23,14.63,737.04,100.51,0.8,7.4,0
2020-03-30T10:57:00-05:00,68.38,14.63,736.33,104.04,1.28,41.29,0
2020-03-30T10:58:00-05:00,68.81,14.62,736.2,106.39,2.32,43.03,0
2020-03-30T10:59:00-05:00,69.15,14.61,735.77,102.86,0.74,329.9,0
2020-03-30T11:00:00-05:00,70.55,14.64,736.03,102.13,0.83,147.24,0
2020-03-30T11:01:00-05:00,72.52,14.61,736.94,107.13,0.6,207.35,0
2020-03-30T11:02:00-05:00,71.77,14.62,736.2,114.92,1.98,45.36,0
2020-03-30T11:03:00-05:00,69.3,14.58,736,125.36,5.12,52.99,0
2020-03-30T11:04:00-05:00,68.04,14.55,736.1,142.41,1.47,21.89,0
2020-03-30T11:05:00-05:00,68.47,14.55,735.9,166.82,0.57,306.6,0
2020-03-30T11:06:00-05:00,68.84,14.55,736.77,195.93,0.75,21.01,0
2020-03-30T11:07:00-05:00,68.77,14.57,736.37,233.13,0.81,17.27,0
2020-03-30T11:08:00-05:00,69.01,14.61,737.41,264.74,0.79,288.88,0
2020-03-30T11:09:00-05:00,68.27,14.61,736.67,284.73,0.79,109.73,0
2020-03-30T11:10:00-05:00,67.92,14.65,737.24,285.76,3.03,174.12,0
2020-03-30T11:11:00-05:00,68.34,14.61,738.11,281.2,0.62,256.84,0
2020-03-30T11:12:00-05:00,68.29,14.65,737.04,281.2,2.65,353.48,0
2020-03-30T11:13:00-05:00,68.24,14.64,738.58,250.62,1.68,2.74,0
2020-03-30T11:14:00-05:00,68.19,14.68,738.38,228.86,1.59,44.72,0
2020-03-30T11:15:00-05:00,69.45,14.72,737.57,207.69,1.09,134.54,0
2020-03-30T11:16:00-05:00,70.1,14.77,737.67,181.52,2.49,223.25,0
2020-03-30T11:17:00-05:00,69.77,14.77,737.94,164.17,1.29,318.6,0
2020-03-30T11:18:00-05:00,68.58,14.75,737.84,157.41,6.15,33.2,0
2020-03-30T11:19:00-05:00,68.14,14.64,737.2,155.35,2.27,0.84,0
2020-03-30T11:20:00-05:00,68.55,14.61,737.34,154.03,0.45,20.29,0
2020-03-30T11:21:00-05:00,69.64,14.61,738.31,156.53,0.82,64.75,0
2020-03-30T11:22:00-05:00,69.61,14.61,739.05,158.88,0.68,60.93,0
2020-03-30T11:23:00-05:00,69.86,14.65,738.74,159.61,0.06,20.76,0
2020-03-30T11:24:00-05:00,69.94,14.68,737.67,161.82,1.17,46.46,0
2020-03-30T11:25:00-05:00,69.35,14.67,738.58,162.11,2.47,33.33,0
2020-03-30T11:26:00-05:00,70.6,14.67,738.34,165.49,0.58,313.57,0
2020-03-30T11:27:00-05:00,70.1,14.7,737.91,171.82,2.55,54.76,0
2020-03-30T11:28:00-05:00,69.34,14.67,738.64,177.84,0.75,311.6,0
2020-03-30T11:29:00-05:00,69.41,14.67,737.67,179.76,2.92,67.67,0
2020-03-30T11:30:00-05:00,69.12,14.65,738.64,184.31,0.54,201.95,0
2020-03-30T11:31:00-05:00,70.16,14.67,737.87,187.99,2.54,52.46,0
2020-03-30T11:32:00-05:00,69.99,14.69,738.51,191.66,1.17,295.65,0
2020-03-30T11:33:00-05:00,69.8,14.72,737.94,198.13,1.31,312.67,0
2020-03-30T11:34:00-05:00,69.76,14.75,738.34,207.1,0.6,349.42,0
2020-03-30T11:35:00-05:00,69.23,14.77,739.28,216.81,2.61,354.84,0
2020-03-30T11:36:00-05:00,69.01,14.8,739.48,225.48,0.92,8.42,0
2020-03-30T11:37:00-05:00,69.27,14.75,738.31,225.48,2.79,350.87,0
2020-03-30T11:38:00-05:00,69.17,14.76,739.41,220.63,2.53,1.76,0
2020-03-30T11:39:00-05:00,69.45,14.75,739.51,214.16,2.18,18.62,0
2020-03-30T11:40:00-05:00,69.78,14.77,738.81,200.63,2.27,62.14,0
2020-03-30T11:41:00-05:00,69.75,14.81,738.44,187.11,1,6.18,0
2020-03-30T11:42:00-05:00,69.6,14.85,739.55,174.9,3.79,43.25,0
2020-03-30T11:43:00-05:00,69.25,14.81,738.58,173.87,2.67,46.44,0
2020-03-30T11:44:00-05:00,69.31,14.83,739.45,184.31,2.42,46.45,0
2020-03-30T11:45:00-05:00,70.15,14.87,738.54,188.14,1.07,227.86,0
2020-03-30T11:46:00-05:00,70.64,14.92,739.18,189.9,0.97,246.72,0
2020-03-30T11:47:00-05:00,69.78,14.89,738.11,188.28,0.95,173.14,0
2020-03-30T11:48:00-05:00,69.83,14.93,739.21,181.52,0.44,245.77,0
2020-03-30T11:49:00-05:00,68.94,14.96,738.44,177.55,0.98,255.72,0
2020-03-30T11:50:00-05:00,68.84,14.99,738.81,177.11,0.86,198.97,0
2020-03-30T11:51:00-05:00,68.75,15.01,739.75,176.37,0.6,257.1,0
2020-03-30T11:52:00-05:00,69.54,15.05,736.27,172.55,0.61,316.89,0
2020-03-30T11:53:00-05:00,69.63,15.09,736.5,170.35,0.54,219.88,0
2020-03-30T11:54:00-05:00,68.02,15.08,737.04,174.76,1.91,42.11,0
2020-03-30T11:55:00-05:00,67.68,15.04,735.93,171.52,1.07,331.5,0
2020-03-30T11:56:00-05:00,66.76,14.99,737.07,175.49,1.43,300.01,0
2020-03-30T11:57:00-05:00,67.88,14.97,737.07,175.64,1.99,331.54,0
2020-03-30T11:58:00-05:00,67.09,14.97,736.7,178.87,0.71,345.88,0
2020-03-30T11:59:00-05:00,68.08,14.98,736.03,186.08,0.44,267.74,0
2020-03-30T12:00:00-05:00,69.72,15,737.1,195.05,0.9,270.09,0
2020-03-30T12:01:00-05:00,68.44,14.97,736.33,209.6,2.23,8.29,0
2020-03-30T12:02:00-05:00,67.82,14.95,737.1,226.07,1.73,38.63,0
2020-03-30T12:03:00-05:00,67.71,14.93,736.84,236.36,2.38,9.21,0
2020-03-30T12:04:00-05:00,67.92,14.9,737.14,239.01,1.84,17.36,0
2020-03-30T12:05:00-05:00,68.87,14.92,736.64,239.45,0.73,352.5,0
2020-03-30T12:06:00-05:00,68.34,14.89,736.27,240.33,6.06,33.17,0
2020-03-30T12:07:00-05:00,68.55,14.83,737.1,245.03,1.16,345.47,0
2020-03-30T12:08:00-05:00,69.09,14.82,736.17,251.21,1.89,352.53,0
2020-03-30T12:09:00-05:00,69.4,14.86,736.94,262.24,2.49,11.73,0
2020-03-30T12:10:00-05:00,69.15,14.83,737.2,277.38,3.42,40.8,0
2020-03-30T12:11:00-05:00,70.14,14.87,736.87,305.61,3.35,30.71,0
2020-03-30T12:12:00-05:00,68.85,14.83,736.2,336.34,2.61,0.86,0
2020-03-30T12:13:00-05:00,68.79,14.81,736.43,369.12,3.57,50.61,0
2020-03-30T12:14:00-05:00,69.9,14.81,736.87,389.12,0.62,12.68,0
2020-03-30T12:15:00-05:00,69.16,14.79,736.84,396.91,3.92,41.02,0
2020-03-30T12:16:00-05:00,68.84,14.81,738.21,396.17,2.72,33.6,0
2020-03-30T12:17:00-05:00,69.07,14.85,737.44,381.77,1.7,352.87,0
2020-03-30T12:18:00-05:00,69.24,14.91,738.54,378.68,2.27,94.01,0
2020-03-30T12:19:00-05:00,69,14.94,738.38,407.35,4.81,27.46,0
2020-03-30T12:20:00-05:00,68.75,14.97,738.54,472.19,3.89,36.24,0
2020-03-30T12:21:00-05:00,68.51,14.95,739.78,512.47,0.67,244.81,0
2020-03-30T12:22:00-05:00,68.63,15.05,736.1,572.16,1.56,15.45,0
2020-03-30T12:23:00-05:00,68.43,15.15,736.9,528.64,0.75,42.24,0
2020-03-30T12:24:00-05:00,68.14,15.25,736.43,495.12,3.97,33.29,0
2020-03-30T12:25:00-05:00,66.94,15.23,736.74,471.6,0.78,338.76,0
2020-03-30T12:26:00-05:00,67.76,15.29,735.73,476.01,0.96,346.48,0
2020-03-30T12:27:00-05:00,68.04,15.4,736.8,469.39,3.48,28.4,0
2020-03-30T12:28:00-05:00,67.44,15.5,735.93,445.57,0.94,80.2,0
2020-03-30T12:29:00-05:00,67.08,15.58,735.9,429.84,1.35,287.61,0
2020-03-30T12:30:00-05:00,66.34,15.7,735.93,448.07,2.33,48.19,0
2020-03-30T12:31:00-05:00,65.43,15.73,736.8,445.28,3.52,37,0
2020-03-30T12:32:00-05:00,65.29,15.69,735.7,469.98,2.42,25.75,0
2020-03-30T12:33:00-05:00,64.74,15.67,735.97,531.29,1.24,304.6,0
2020-03-30T12:34:00-05:00,65.51,15.74,736.77,580.25,1.78,184.37,0
2020-03-30T12:35:00-05:00,64.13,15.82,736.13,483.07,5.92,335.55,0
2020-03-30T12:36:00-05:00,64,15.76,735.93,461.31,7.28,40.69,0
2020-03-30T12:37:00-05:00,63.68,15.7,736.67,418.23,2.07,302.62,0
2020-03-30T12:38:00-05:00,64.1,15.71,737.44,389.41,4.12,343.85,0
2020-03-30T12:39:00-05:00,64.38,15.74,735.97,382.65,4.23,37.84,0
2020-03-30T12:40:00-05:00,63.7,15.63,734.96,400,2.64,128.53,0
2020-03-30T12:41:00-05:00,65.22,15.59,735.46,437.78,0.58,42.21,0
2020-03-30T12:42:00-05:00,64.94,15.64,735.93,543.64,1.19,191.04,0
2020-03-30T12:43:00-05:00,64.88,15.71,735.97,634.35,4.27,32.31,0
2020-03-30T12:44:00-05:00,65.81,15.72,736.5,538.79,2.33,166.14,0
2020-03-30T12:45:00-05:00,65.84,15.78,736.64,526.44,0.89,272.67,0
2020-03-30T12:46:00-05:00,63.69,15.84,736.6,581.42,2.44,316.64,0
2020-03-30T12:47:00-05:00,65.06,15.82,736.3,483.21,1.25,59.55,0
2020-03-30T12:48:00-05:00,63.53,15.88,737.41,468.36,1.27,326.57,0
2020-03-30T12:49:00-05:00,64.72,15.86,737.94,449.69,1.8,322.88,0
2020-03-30T12:50:00-05:00,64.15,15.93,737.54,427.2,0.64,30.45,0
2020-03-30T12:51:00-05:00,63.95,16,738.54,381.18,2.74,60.38,0
2020-03-30T12:52:00-05:00,63.73,15.97,737.34,365.59,0.77,34.43,0
2020-03-30T12:53:00-05:00,64.93,15.95,737.91,355.89,2.02,78.13,0
2020-03-30T12:54:00-05:00,63.83,15.91,737.14,335.75,0.67,145.29,0
2020-03-30T12:55:00-05:00,64.46,15.86,738.38,322.52,4.1,54.49,0
2020-03-30T12:56:00-05:00,63.8,15.81,736.7,320.75,1.95,54.44,0
2020-03-30T12:57:00-05:00,64.64,15.68,737.1,313.11,4.57,43.84,0
2020-03-30T12:58:00-05:00,64.72,15.61,736.54,285.76,2.45,26.97,0
2020-03-30T12:59:00-05:00,64.44,15.53,735.23,252.24,2.26,61.45,0
2020-03-30T13:00:00-05:00,65.18,15.47,736,226.95,2.39,344.51,0
2020-03-30T13:01:00-05:00,65.51,15.47,734.73,226.36,3.38,42.54,0
2020-03-30T13:02:00-05:00,65.48,15.39,733.79,238.12,6.1,17.71,0
2020-03-30T13:03:00-05:00,66.46,15.27,733.32,243.71,5.62,18.07,0
2020-03-30T13:04:00-05:00,67.22,15.21,732.25,236.36,0.86,2.72,0
2020-03-30T13:05:00-05:00,67.44,15.22,733.12,240.77,2.66,329.53,0
2020-03-30T13:06:00-05:00,68.09,15.21,733.49,248.12,3.48,37.69,0
2020-03-30T13:07:00-05:00,67.43,15.2,732.32,267.23,3.01,53.73,0
2020-03-30T13:08:00-05:00,67.44,15.14,731.85,287.97,3.13,69.34,0
2020-03-30T13:09:00-05:00,68.15,15.09,732.75,308.25,3.2,47.54,0
2020-03-30T13:10:00-05:00,68.21,15.08,732.28,360.3,2.47,41.94,0
2020-03-30T13:11:00-05:00,68.58,15.12,733.22,434.11,0.82,18.85,0
2020-03-30T13:12:00-05:00,70.22,15.21,733.29,467.63,1.46,295.03,0
2020-03-30T13:13:00-05:00,68.63,15.29,734.86,446.6,1.73,13.9,0
2020-03-30T13:14:00-05:00,68.55,15.33,735.6,454.69,0.9,350.89,0
2020-03-30T13:15:00-05:00,67.82,15.39,736.5,488.8,1.62,0.84,0
2020-03-30T13:16:00-05:00,67.66,15.41,737.04,431.9,0.78,295.91,0
2020-03-30T13:17:00-05:00,68.55,15.49,736.67,403.53,0.55,25.92,0
2020-03-30T13:18:00-05:00,67.68,15.57,737,385.74,1.33,12.95,0
2020-03-30T13:19:00-05:00,66.88,15.58,737.14,367.06,1.24,38.34,0
2020-03-30T13:20:00-05:00,66.32,15.47,736.13,339.13,1,353.52,0
2020-03-30T13:21:00-05:00,67.1,15.39,736.87,298.11,3.03,38.79,0
2020-03-30T13:22:00-05:00,67.2,15.34,735.83,265.91,2.44,66.12,0
2020-03-30T13:23:00-05:00,67.23,15.23,735,256.65,3.17,58.94,0
2020-03-30T13:24:00-05:00,67.55,15.14,734.43,257.53,2.81,44.35,0
2020-03-30T13:25:00-05:00,68,15.03,734.79,253.56,2.72,45.26,0
2020-03-30T13:26:00-05:00,68.44,15.03,734.46,251.21,2.44,300.69,0
2020-03-30T13:27:00-05:00,68.08,14.98,732.72,254.3,0.65,319.92,0
2020-03-30T13:28:00-05:00,68.67,15.01,732.92,266.79,0.93,43.55,0
2020-03-30T13:29:00-05:00,68.55,14.97,732.42,269.59,4.07,41.18,0
2020-03-30T13:30:00-05:00,68.99,14.87,732.48,259.44,1.71,78.18,0
2020-03-30T13:31:00-05:00,69.34,14.83,732.32,257.09,2.49,50.78,0
2020-03-30T13:32:00-05:00,69.37,14.8,732.32,274.14,1.57,28.13,0
2020-03-30T13:33:00-05:00,69.37,14.77,731.65,285.32,2.06,30.73,0
2020-03-30T13:34:00-05:00,69.53,14.77,730.84,305.61,3.44,64.75,0
2020-03-30T13:35:00-05:00,69.87,14.78,732.48,363.83,3.07,63.73,0
2020-03-30T13:36:00-05:00,69.7,14.75,731.21,433.67,3.03,29.34,0
2020-03-30T13:37:00-05:00,69.32,14.77,731.11,444.1,4.14,38.4,0
2020-03-30T13:38:00-05:00,69.34,14.8,732.62,452.78,3.41,43.18,0
2020-03-30T13:39:00-05:00,69.33,14.79,731.61,477.04,4.82,47.28,0
2020-03-30T13:40:00-05:00,69.03,14.79,732.28,552.17,2.65,57.29,0
2020-03-30T13:41:00-05:00,68.89,14.78,732.92,724.18,6,27.86,0
2020-03-30T13:42:00-05:00,69.15,14.79,732.99,741.97,2.01,59.54,0
2020-03-30T13:43:00-05:00,68.83,14.89,735.33,1082.04,1.22,74.71,0
2020-03-30T13:44:00-05:00,68.56,15.06,735.06,1396.96,2.11,41.89,0
2020-03-30T13:45:00-05:00,68.37,15.2,735.16,1087.77,3.88,52.38,0
2020-03-30T13:46:00-05:00,68.04,15.33,735.7,864.44,3.99,50.46,0
2020-03-30T13:47:00-05:00,67.94,15.46,735.97,847.83,2.77,25.39,0
2020-03-30T13:48:00-05:00,67.79,15.49,735.8,725.95,4.54,17.32,0
2020-03-30T13:49:00-05:00,66.43,15.48,734.96,619.8,3.36,15.75,0
2020-03-30T13:50:00-05:00,66.67,15.45,734.76,527.61,1.51,94.19,0
2020-03-30T13:51:00-05:00,67.16,15.45,734.83,448.81,2.45,62.66,0
2020-03-30T13:52:00-05:00,66.45,15.47,734.53,455.28,2.98,20.75,0
2020-03-30T13:53:00-05:00,67.09,15.43,735.67,506,0.87,26.56,0
2020-03-30T13:54:00-05:00,67.42,15.45,734.96,521.59,2.19,352.77,0
2020-03-30T13:55:00-05:00,67.38,15.47,734.39,583.63,2.17,336.56,0
2020-03-30T13:56:00-05:00,67.04,15.63,735.9,1018.97,2.87,38.22,0
2020-03-30T13:57:00-05:00,66.18,15.65,735.53,907.23,4,62.87,0
2020-03-30T13:58:00-05:00,67.14,15.62,734.73,657.73,4.27,43.31,0
2020-03-30T13:59:00-05:00,65.85,15.69,736.07,725.95,2.6,27.42,0
2020-03-30T14:00:00-05:00,65.99,15.69,736,1063.81,2.54,40.99,0
2020-03-30T14:01:00-05:00,65.55,15.78,736,754.47,4.46,41.43,0
2020-03-30T14:02:00-05:00,65.73,15.75,737.07,1050.28,2.56,58.74,0
2020-03-30T14:03:00-05:00,66.59,15.84,737.67,740.94,4.63,28.61,0
2020-03-30T14:04:00-05:00,65.75,15.92,734.33,889.88,5.44,42.79,0
2020-03-30T14:05:00-05:00,65.71,15.95,735.53,956.63,0.59,243.15,0
2020-03-30T14:06:00-05:00,65.32,16.04,735.33,937.66,5.51,47.99,0
2020-03-30T14:07:00-05:00,65.47,16,735.53,888.85,2.44,62.09,0
2020-03-30T14:08:00-05:00,65.71,16.11,734.49,723.3,2.86,54.56,0
2020-03-30T14:09:00-05:00,64.8,16.22,735.03,703.6,2.5,357.8,0
2020-03-30T14:10:00-05:00,63.54,16.25,735.43,1109.09,2.08,23.05,0
2020-03-30T14:11:00-05:00,63.81,16.22,735.33,865.33,3.05,22.16,0
2020-03-30T14:12:00-05:00,65.1,16.36,735.26,749.47,4,51.17,0
2020-03-30T14:13:00-05:00,63.45,16.48,734.46,1308.31,1.09,303.88,0
2020-03-30T14:14:00-05:00,62.67,16.53,735.2,946.34,1.89,32.41,0
2020-03-30T14:15:00-05:00,63.19,16.55,734.46,947.22,2.42,36.62,0
2020-03-30T14:16:00-05:00,63.34,16.68,735.7,569.96,3.04,19.97,0
2020-03-30T14:17:00-05:00,62.82,16.77,734.09,518.06,3.29,67.84,0
2020-03-30T14:18:00-05:00,61.95,16.61,732.69,601.57,3.9,49.79,0
2020-03-30T14:19:00-05:00,62.65,16.51,732.65,579.81,3.8,38.37,0
2020-03-30T14:20:00-05:00,62.99,16.5,731.72,634.79,2,13.87,0
2020-03-30T14:21:00-05:00,63.49,16.48,731.08,611.42,3.34,47.31,0
2020-03-30T14:22:00-05:00,63.12,16.45,732.05,599.95,2.27,282.74,0
2020-03-30T14:23:00-05:00,63.07,16.48,731.68,652.58,0.14,315.54,0
2020-03-30T14:24:00-05:00,62.73,16.51,731.88,685.96,2.51,75.02,0
2020-03-30T14:25:00-05:00,63.4,16.56,732.28,870.03,2.49,46.89,0
2020-03-30T14:26:00-05:00,62.72,16.67,732.89,638.47,2.84,24.89,0
2020-03-30T14:27:00-05:00,62.2,16.69,731.95,515.7,3.8,31.52,0
2020-03-30T14:28:00-05:00,62.23,16.6,730.01,504.38,4.02,42.43,0
2020-03-30T14:29:00-05:00,61.64,16.5,730.34,492.18,3.61,37.78,0
2020-03-30T14:30:00-05:00,62.24,16.37,734.9,469.98,4.71,59.11,0
2020-03-30T14:31:00-05:00,62.77,16.18,734.19,489.68,1.6,349.43,0
2020-03-30T14:32:00-05:00,63.39,16.2,734.13,504.24,2.29,38.7,0
2020-03-30T14:33:00-05:00,63.38,16.21,734.23,527.61,1.74,18.5,0
2020-03-30T14:34:00-05:00,63.07,16.12,734.39,548.05,2.06,313.58,0
2020-03-30T14:35:00-05:00,63.73,16.01,734.53,544.23,1.61,49.06,0
2020-03-30T14:36:00-05:00,63.81,15.94,734.02,577.9,0.88,68.03,0
2020-03-30T14:37:00-05:00,64.32,15.98,733.86,552.31,1.87,28.36,0
2020-03-30T14:38:00-05:00,64.28,15.99,733.66,537.17,0.77,316.6,0
2020-03-30T14:39:00-05:00,64.56,16.09,734.36,529.23,2.64,345.75,0
2020-03-30T14:40:00-05:00,65.47,16.2,735.36,531,0.68,151.58,0
2020-03-30T14:41:00-05:00,63.81,16.2,734.69,537.61,3.16,31.25,0
2020-03-30T14:42:00-05:00,64,16.21,734.23,565.99,1.1,13.79,0
2020-03-30T14:43:00-05:00,63.51,16.22,734.19,584.95,1.53,18.78,0
2020-03-30T14:44:00-05:00,63.93,16.25,734.59,618.92,0.97,16.12,0
2020-03-30T14:45:00-05:00,64.35,16.3,735.36,759.32,3.03,45.15,0
2020-03-30T14:46:00-05:00,63.69,16.38,735.7,878.26,2.67,65.17,0
2020-03-30T14:47:00-05:00,63.3,16.46,737.04,876.35,4.27,58.5,0
2020-03-30T14:48:00-05:00,62.54,16.43,737.51,567.46,1.34,52.38,0
2020-03-30T14:49:00-05:00,63.19,16.44,737.54,563.63,1.98,53.13,0
2020-03-30T14:50:00-05:00,62.95,16.42,736.8,594.36,2.71,87.64,0
2020-03-30T14:51:00-05:00,63.65,16.45,734.76,747.85,1.71,15.98,0
2020-03-30T14:52:00-05:00,62.13,16.6,733.86,476.3,1.41,353.46,0
2020-03-30T14:53:00-05:00,62.36,16.68,735.2,389.71,1.06,349.44,0
2020-03-30T14:54:00-05:00,61.9,16.72,735.3,313.25,1.1,47.88,0
2020-03-30T14:55:00-05:00,62.04,16.75,733.69,272.53,2.87,95.09,0
2020-03-30T14:56:00-05:00,62.06,16.68,733.69,240.77,2.47,78.21,0
2020-03-30T14:57:00-05:00,62.3,16.69,734.06,225.63,0.79,326.57,0
2020-03-30T14:58:00-05:00,62.11,16.65,733.82,212.98,0.57,109.25,0
2020-03-30T14:59:00-05:00,63.85,16.63,734.86,215.63,0.56,159.13,0
2020-03-30T15:00:00-05:00,61.57,16.58,734.13,225.77,0.8,112.58,0
2020-03-30T15:01:00-05:00,62.01,16.54,734.39,219.31,3.95,59.72,0
2020-03-30T15:02:00-05:00,61.89,16.44,734.83,191.22,0.99,33.54,0
2020-03-30T15:03:00-05:00,62.33,16.38,734.76,166.96,2.82,56.12,0
2020-03-30T15:04:00-05:00,62.82,16.32,733.79,154.91,1.65,50.23,0
2020-03-30T15:05:00-05:00,64.25,16.36,733.72,148.73,0.59,343.54,0
2020-03-30T15:06:00-05:00,63.76,16.38,733.72,145.06,1.18,64.04,0
2020-03-30T15:07:00-05:00,62.89,16.36,734.26,140.5,0.4,115.19,0
2020-03-30T15:08:00-05:00,63.83,16.31,733.82,148.73,3.24,18.37,0
2020-03-30T15:09:00-05:00,62.63,16.32,735.03,160.79,0.47,267.76,0
2020-03-30T15:10:00-05:00,63.58,16.25,733.79,173.14,2.31,322.54,0
2020-03-30T15:11:00-05:00,64.45,16.24,733.46,180.93,0.24,84.81,0
2020-03-30T15:12:00-05:00,63.93,16.28,734.59,183.58,0.6,212.89,0
2020-03-30T15:13:00-05:00,65.15,16.31,733.96,187.25,1.15,35.85,0
2020-03-30T15:14:00-05:00,64.2,16.3,732.72,197.25,1.79,65.7,0
2020-03-30T15:15:00-05:00,63.96,16.24,733.46,202.4,0.91,43.73,0
2020-03-30T15:16:00-05:00,63.03,16.17,733.36,200.34,0.92,43.03,0
2020-03-30T15:17:00-05:00,63.19,16.12,733.29,194.46,3.36,149.18,0
2020-03-30T15:18:00-05:00,63.87,16.06,732.62,185.2,2.01,30.29,0
2020-03-30T15:19:00-05:00,64.13,16.03,732.99,176.23,1.91,23.36,0
2020-03-30T15:20:00-05:00,64.88,16.02,732.79,173.73,2.9,34.95,0
2020-03-30T15:21:00-05:00,64.58,15.98,732.22,166.52,1.85,9.58,0
2020-03-30T15:22:00-05:00,65.38,15.97,731.88,158.58,0.89,48.23,0
2020-03-30T15:23:00-05:00,65.41,15.97,731.41,145.94,0.7,9.69,0
2020-03-30T15:24:00-05:00,64.64,15.92,731.41,134.62,2.81,30.6,0
2020-03-30T15:25:00-05:00,64.65,15.88,729.67,118.01,1.16,92.53,0
2020-03-30T15:26:00-05:00,64.86,15.8,729.77,113.6,2.77,38.9,0
2020-03-30T15:27:00-05:00,64.94,15.76,730.41,113.89,3.02,63.72,0
2020-03-30T15:28:00-05:00,64.93,15.67,730.38,118.01,4.16,62.24,0
2020-03-30T15:29:00-05:00,65.17,15.61,734.79,114.62,2.88,6.02,0
2020-03-30T15:30:00-05:00,65.49,15.57,734.02,108.01,1.91,6.74,0
2020-03-30T15:31:00-05:00,66.64,15.56,735.56,102.27,4.05,54.67,0
2020-03-30T15:32:00-05:00,66.71,15.51,735.16,97.86,2.1,55.44,0
2020-03-30T15:33:00-05:00,66.69,15.52,735.13,93.45,3.12,73.94,0
2020-03-30T15:34:00-05:00,66.7,15.47,734.53,86.98,1.24,55.09,0
2020-03-30T15:35:00-05:00,67.14,15.43,733.92,80.66,3.12,45.03,0
2020-03-30T15:36:00-05:00,67.79,15.4,734.93,75.22,3.96,34.95,0
2020-03-30T15:37:00-05:00,67.27,15.39,734.9,73.16,0.58,16.18,0
2020-03-30T15:38:00-05:00,67.5,15.36,735.23,72.13,2.05,11.42,0
2020-03-30T15:39:00-05:00,67.58,15.36,734.56,74.63,1.27,113.04,0
2020-03-30T15:40:00-05:00,67.44,15.36,734.93,76.1,2.22,28.33,0
2020-03-30T15:41:00-05:00,67.46,15.32,734.39,82.57,0.62,319.56,0
2020-03-30T15:42:00-05:00,67.94,15.33,733.62,89.63,1.18,325.97,0
2020-03-30T15:43:00-05:00,68.83,15.32,734.66,102.42,1.14,50.54,0
2020-03-30T15:44:00-05:00,67.83,15.31,734.69,112.13,0.69,27.89,0
2020-03-30T15:45:00-05:00,67.57,15.29,733.46,123.74,0.61,26.63,0
2020-03-30T15:46:00-05:00,67.94,15.26,734.13,132.41,0.6,81.93,0
2020-03-30T15:47:00-05:00,67.98,15.23,733.29,139.77,2.88,355.76,0
2020-03-30T15:48:00-05:00,67.96,15.23,734.56,140.35,1.43,320.82,0
2020-03-30T15:49:00-05:00,68.02,15.21,733.96,139.18,2.08,6.91,0
2020-03-30T15:50:00-05:00,68.67,15.19,734.49,135.06,0.9,345.51,0
2020-03-30T15:51:00-05:00,69.21,15.23,734.56,133.15,0.84,346.5,0
2020-03-30T15:52:00-05:00,69.13,15.27,735.03,132.27,0.21,51.87,0
2020-03-30T15:53:00-05:00,68.75,15.31,735.3,126.83,2.26,44.35,0
2020-03-30T15:54:00-05:00,68.06,15.31,735.06,121.24,2.14,8.06,0
2020-03-30T15:55:00-05:00,68.43,15.29,735.23,119.92,0.6,6.02,0
2020-03-30T15:56:00-05:00,68.97,15.29,735.53,121.68,1.1,0.81,0
2020-03-30T15:57:00-05:00,68.8,15.33,735.23,124.92,0.63,267.25,0
2020-03-30T15:58:00-05:00,68.94,15.37,734.9,133.15,0.36,345.49,0
2020-03-30T15:59:00-05:00,68.21,15.39,735.6,143.15,0.62,323.84,0
2020-03-30T16:00:00-05:00,69.04,15.39,734.73,143.74,0.22,348.46,0
2020-03-30T16:01:00-05:00,69.01,15.44,734.9,143,0.77,203.25,0
2020-03-30T16:02:00-05:00,68.81,15.45,735.63,141.68,0.74,270.69,0
2020-03-30T16:03:00-05:00,67.26,15.47,735.77,139.91,0.59,256.04,0
2020-03-30T16:04:00-05:00,67.16,15.48,735.26,134.18,0.31,334.56,0
2020-03-30T16:05:00-05:00,68.65,15.53,736.67,136.82,0.61,195.24,0
2020-03-30T16:06:00-05:00,68.82,15.59,735.43,143.74,0.96,208.93,0
2020-03-30T16:07:00-05:00,69.41,15.55,735.7,144.91,0.87,198.05,0
2020-03-30T16:08:00-05:00,68.46,15.55,736.17,145.06,0.69,189.03,0
2020-03-30T16:09:00-05:00,68.17,15.54,736.07,146.68,0.57,162.2,0
2020-03-30T16:10:00-05:00,68.59,15.57,736.67,142.12,0.98,16.99,0
2020-03-30T16:11:00-05:00,67.41,15.61,736.27,142.56,1.01,57.15,0
2020-03-30T16:12:00-05:00,67.18,15.57,736.7,141.24,0.87,71.01,0
2020-03-30T16:13:00-05:00,67.3,15.58,736.3,135.5,1.09,4.62,0
2020-03-30T16:14:00-05:00,67.32,15.61,736.8,130.36,0.67,289.59,0
2020-03-30T16:15:00-05:00,68.97,15.64,736.8,122.71,0.97,15.77,0
2020-03-30T16:16:00-05:00,67.33,15.66,737.37,109.04,0.63,20.89,0
2020-03-30T16:17:00-05:00,66.84,15.68,736.54,100.95,0.74,298.7,0
2020-03-30T16:18:00-05:00,68.83,15.7,736.23,100.36,0.63,288.91,0
2020-03-30T16:19:00-05:00,68,15.71,737.14,105.95,0.54,24.01,0
2020-03-30T16:20:00-05:00,67.2,15.74,736.2,110.95,0.27,50.01,0
2020-03-30T16:21:00-05:00,67.67,15.75,737.27,111.68,0.59,315.52,0
2020-03-30T16:22:00-05:00,68.99,15.78,737.1,114.77,0.48,326.92,0
2020-03-30T16:23:00-05:00,67.43,15.81,734.83,114.62,0.91,79.47,0
2020-03-30T16:24:00-05:00,66.11,15.82,734.66,113.15,0.63,275.08,0
2020-03-30T16:25:00-05:00,70.13,15.85,733.56,114.92,0.21,276.7,0
2020-03-30T16:26:00-05:00,68.69,15.86,733.72,116.98,0.73,77.62,0
2020-03-30T16:27:00-05:00,67.03,15.88,733.69,110.65,0.16,149.18,0
2020-03-30T16:28:00-05:00,69.01,15.9,734.79,106.69,0.67,166.17,0
2020-03-30T16:29:00-05:00,67.46,15.87,735,105.36,0.11,323.49,0
2020-03-30T16:30:00-05:00,68.73,15.85,734.79,106.1,0.54,67.29,0
2020-03-30T16:31:00-05:00,67.22,15.84,735.1,103.16,1.1,64.06,0
2020-03-30T16:32:00-05:00,66.93,15.82,734.93,102.72,0.35,119.23,0
2020-03-30T16:33:00-05:00,66.95,15.83,735.03,103.6,0.62,220.81,0
2020-03-30T16:34:00-05:00,66.63,15.83,735.1,103.89,0.54,335.57,0
2020-03-30T16:35:00-05:00,67.76,15.84,733.99,100.66,0.69,245.14,0
2020-03-30T16:36:00-05:00,67.3,15.83,734.09,94.19,1.88,0.87,0
2020-03-30T16:37:00-05:00,66.05,15.76,734.73,92.28,0.73,288.93,0
2020-03-30T16:38:00-05:00,66.59,15.75,734.19,88.75,0.99,41.52,0
2020-03-30T16:39:00-05:00,67.04,15.73,734.19,90.95,0.63,75.09,0
2020-03-30T16:40:00-05:00,67.8,15.76,734.96,94.04,0.59,66.44,0
2020-03-30T16:41:00-05:00,67.62,15.74,735.3,95.95,0.59,132.2,0
2020-03-30T16:42:00-05:00,67.54,15.71,733.49,97.28,1.01,8.16,0
2020-03-30T16:43:00-05:00,67.74,15.71,733.79,99.19,0.49,38.4,0
2020-03-30T16:44:00-05:00,67.13,15.7,734.9,103.74,0.74,30.17,0
2020-03-30T16:45:00-05:00,66.74,15.69,734.66,104.33,0.65,72.65,0
2020-03-30T16:46:00-05:00,66.51,15.64,734.76,104.92,0.37,72.16,0
2020-03-30T16:47:00-05:00,67.28,15.65,733.79,102.72,1.03,55.12,0
2020-03-30T16:48:00-05:00,67.54,15.64,733.62,98.89,0.69,78.37,0
2020-03-30T16:49:00-05:00,67.9,15.65,733.52,97.57,0.56,121.01,0
2020-03-30T16:50:00-05:00,67.42,15.67,733.96,96.69,0.68,352.54,0
2020-03-30T16:51:00-05:00,66.97,15.65,734.36,93.45,1,256.79,0
2020-03-30T16:52:00-05:00,67.87,15.61,733.05,90.22,0.99,217.9,0
2020-03-30T16:53:00-05:00,66.96,15.55,732.89,84.78,0.85,350.54,0
2020-03-30T16:54:00-05:00,67.88,15.49,732.99,82.87,2.54,35.3,0
2020-03-30T16:55:00-05:00,66.82,15.46,733.15,80.81,1.25,333.61,0
2020-03-30T16:56:00-05:00,67.56,15.4,733.15,78.9,2.31,34.37,0
2020-03-30T16:57:00-05:00,67.91,15.37,732.62,77.13,2.58,49.04,0
2020-03-30T16:58:00-05:00,67.26,15.33,732.72,73.75,1.32,8.05,0
2020-03-30T16:59:00-05:00,67.72,15.3,731.72,71.25,2.82,42.24,0
2020-03-30T17:00:00-05:00,67.56,15.25,732.08,67.58,1.06,6.98,0
2020-03-30T17:01:00-05:00,67.7,15.24,732.38,65.52,0.64,342.55,0
2020-03-30T17:02:00-05:00,67.91,15.22,732.05,62.14,0.8,355.76,0
2020-03-30T17:03:00-05:00,68.69,15.24,732.05,62.14,2.47,58.11,0
2020-03-30T17:04:00-05:00,68.71,15.24,731.95,59.64,0.73,119.54,0
2020-03-30T17:05:00-05:00,68.17,15.21,731.82,59.2,0.63,347.46,0
2020-03-30T17:06:00-05:00,68.89,15.18,731.65,55.96,1.47,36.57,0
2020-03-30T17:07:00-05:00,68.59,15.17,730.84,55.82,1.04,140.22,0
2020-03-30T17:08:00-05:00,68.37,15.15,731.31,50.52,2.5,354.47,0
2020-03-30T17:09:00-05:00,68.39,15.11,731.01,48.91,2.79,33.83,0
2020-03-30T17:10:00-05:00,68.48,15.08,730.24,48.32,1.32,67.11,0
2020-03-30T17:11:00-05:00,68.39,15.03,729.87,46.99,2.04,55.98,0
2020-03-30T17:12:00-05:00,69.01,15.04,730.64,43.76,0.55,117.17,0
2020-03-30T17:13:00-05:00,69.64,15.03,730.51,41.26,0.75,237.19,0
2020-03-30T17:14:00-05:00,69.23,15.02,729.44,40.08,0.66,299.66,0
2020-03-30T17:15:00-05:00,69.66,15.01,730.64,37.14,0.45,351.86,0
2020-03-30T17:16:00-05:00,69.75,14.99,731.05,36.7,0.72,333.59,0
2020-03-30T17:17:00-05:00,70.07,14.97,730.28,37.14,0.8,51.59,0
2020-03-30T17:18:00-05:00,70.17,14.97,729.17,35.82,0.77,65.29,0
2020-03-30T17:19:00-05:00,69.37,14.98,730.54,33.47,0.73,292,0
2020-03-30T17:20:00-05:00,69.52,14.97,729.27,32.29,1.17,29.4,0
2020-03-30T17:21:00-05:00,69.43,14.93,729.51,32.29,0.67,334.94,0
2020-03-30T17:22:00-05:00,70.25,14.92,728.3,29.64,1.39,24.43,0
2020-03-30T17:23:00-05:00,70.2,14.92,734.06,28.91,2.23,28.37,0
2020-03-30T17:24:00-05:00,70.63,14.9,735.5,25.97,2.18,32.75,0
2020-03-30T17:25:00-05:00,70.34,14.89,735.1,26.26,0.57,138.31,0
2020-03-30T17:26:00-05:00,70.38,14.89,734.96,25.38,0.53,33.71,0
2020-03-30T17:27:00-05:00,71.67,14.89,734.96,23.32,0.95,336.54,0
2020-03-30T17:28:00-05:00,70.68,14.91,734.53,22.44,1.41,56.49,0
2020-03-30T17:29:00-05:00,70.55,14.87,733.76,21.41,2.3,105.05,0
2020-03-30T17:30:00-05:00,70.62,14.83,734.79,19.79,0.93,64.8,0
2020-03-30T17:31:00-05:00,70.56,14.83,734.56,18.91,0.49,174.12,0
2020-03-30T17:32:00-05:00,70.48,14.82,734.16,18.18,0.7,342.86,0
2020-03-30T17:33:00-05:00,70.95,14.83,733.69,17.74,0.71,301.63,0
2020-03-30T17:34:00-05:00,70.54,14.78,734.73,15.53,1.39,18.93,0
2020-03-30T17:35:00-05:00,70.48,14.77,733.66,12.74,1.23,0.76,0
2020-03-30T17:36:00-05:00,70.8,14.77,734.06,14.06,1.08,325.92,0
2020-03-30T17:37:00-05:00,71.16,14.77,733.19,11.71,1.23,58.45,0
2020-03-30T17:38:00-05:00,71.67,14.75,733.15,11.71,1.43,23.24,0
2020-03-30T17:39:00-05:00,71.43,14.71,734.16,13.33,0.84,26.14,0
2020-03-30T17:40:00-05:00,71.84,14.71,733.99,10.83,0.7,149.57,0
2020-03-30T17:41:00-05:00,71.36,14.67,732.28,9.94,1.79,34.94,0
2020-03-30T17:42:00-05:00,70.95,14.66,732.55,11.71,0.08,266.77,0
2020-03-30T17:43:00-05:00,70.68,14.64,732.85,9.8,2.59,300.66,0
2020-03-30T17:44:00-05:00,70.76,14.62,733.36,9.94,0.69,197.01,0
2020-03-30T17:45:00-05:00,71.05,14.59,733.36,8.62,0.53,225.88,0
2020-03-30T17:46:00-05:00,71.67,14.59,733.05,6.71,0.8,157.2,0
2020-03-30T17:47:00-05:00,71.82,14.57,731.78,6.27,0.93,55.31,0
2020-03-30T17:48:00-05:00,72.34,14.56,733.05,4.94,0.66,39.74,0
2020-03-30T17:49:00-05:00,72.12,14.55,733.12,6.12,0.83,345.47,0
2020-03-30T17:50:00-05:00,72.39,14.51,733.15,3.47,2.53,43.91,0
2020-03-30T17:51:00-05:00,72.31,14.51,732.65,3.33,1.22,33.4,0
2020-03-30T17:52:00-05:00,72.32,14.47,732.22,3.92,2.4,24.42,0
2020-03-30T17:53:00-05:00,72.05,14.44,732.85,3.33,2.17,192.32,0
2020-03-30T17:54:00-05:00,71.93,14.43,732.55,4.5,0.65,213.98,0
2020-03-30T17:55:00-05:00,72.6,14.42,732.12,5.39,1.14,4.98,0
2020-03-30T17:56:00-05:00,72.92,14.41,731.31,5.24,0.64,28.82,0
2020-03-30T17:57:00-05:00,72.71,14.4,732.48,2,0.58,338.88,0
2020-03-30T17:58:00-05:00,73.08,14.41,731.92,1.42,1.78,43.5,0
2020-03-30T17:59:00-05:00,72.86,14.38,732.38,1.27,0.93,11.49,0
2020-03-30T18:00:00-05:00,72.9,14.34,732.12,2.15,1.11,8.39,0
2020-03-30T18:01:00-05:00,72.76,14.34,732.22,0.09,0.73,5.63,0
2020-03-30T18:02:00-05:00,72.72,14.33,731.11,2.74,0.84,59.92,0
2020-03-30T18:03:00-05:00,72.9,14.32,732.48,0.39,1.31,8.78,0
2020-03-30T18:04:00-05:00,72.57,14.28,732.38,0.53,2.43,43.44,0
2020-03-30T18:05:00-05:00,72.68,14.28,731.85,-1.38,1,124.08,0
2020-03-30T18:06:00-05:00,72.84,14.27,731.05,0.83,0.86,18.48,0
2020-03-30T18:07:00-05:00,73.19,14.25,730.74,1.12,3.19,44.31,0
2020-03-30T18:08:00-05:00,72.48,14.22,731.92,-0.94,2.56,22.3,0
2020-03-30T18:09:00-05:00,72.8,14.2,731.61,0.83,1.86,34.31,0
2020-03-30T18:10:00-05:00,72.92,14.2,732.12,-0.2,2.44,47.58,0
2020-03-30T18:11:00-05:00,73.06,14.16,730.51,-1.23,0.79,338.8,0
2020-03-30T18:12:00-05:00,73.03,14.16,730.51,-1.38,0.62,283.04,0
2020-03-30T18:13:00-05:00,73.18,14.14,730.38,-0.05,0.52,317.61,0
2020-03-30T18:14:00-05:00,73.58,14.13,730.34,-2.41,0.51,308.02,0
2020-03-30T18:15:00-05:00,74.09,14.11,730.34,-2.85,2.44,5.67,0
2020-03-30T18:16:00-05:00,74.03,14.09,730.31,-1.67,1.2,27.6,0
2020-03-30T18:17:00-05:00,74.07,14.06,735.1,-2.85,0.42,121.39,0
2020-03-30T18:18:00-05:00,74.77,14.06,734.79,-1.67,0.97,348.8,0
2020-03-30T18:19:00-05:00,74.57,14.04,735.26,-0.2,0.95,345.5,0
2020-03-30T18:20:00-05:00,74.45,14,735.97,-2.85,1.02,336.56,0
2020-03-30T18:21:00-05:00,75.05,14,734.29,-0.49,0.74,339.49,0
2020-03-30T18:22:00-05:00,74.82,13.98,735.73,-0.94,1.63,81.18,0
2020-03-30T18:23:00-05:00,74,13.94,734.96,-2.99,0.95,95.73,0
2020-03-30T18:24:00-05:00,74.11,13.95,736.07,-1.97,0.62,60.9,0
2020-03-30T18:25:00-05:00,74.83,13.95,735.73,-2.85,1.17,3.67,0
2020-03-30T18:26:00-05:00,74.97,13.94,734.96,-0.35,1.05,22.9,0
2020-03-30T18:27:00-05:00,75.23,13.92,734.43,-0.2,1.84,39.12,0
2020-03-30T18:28:00-05:00,74.71,13.92,732.52,-0.79,0.4,10.28,0
2020-03-30T18:29:00-05:00,74.61,13.88,734.83,-2.85,0.57,103.75,0
2020-03-30T18:30:00-05:00,74.88,13.91,735.33,-4.46,0.12,111.48,0
2020-03-30T18:31:00-05:00,75.23,13.92,734.66,-2.55,0.77,84.37,0
2020-03-30T18:32:00-05:00,74.69,13.88,734.39,-2.55,0.56,1.76,0
2020-03-30T18:33:00-05:00,75.06,13.89,735.56,-1.67,1.06,69.94,0
2020-03-30T18:34:00-05:00,74.84,13.87,735.56,-1.23,1.15,118.26,0
2020-03-30T18:35:00-05:00,74.69,13.9,734.63,-0.94,0.67,1.23,0
2020-03-30T18:36:00-05:00,74.41,13.9,734.9,-1.52,0.59,307.66,0
2020-03-30T18:37:00-05:00,74.19,13.9,734.53,-1.08,2.05,75.98,0
2020-03-30T18:38:00-05:00,74.13,13.9,735.56,0.53,0.89,33.76,0
2020-03-30T18:39:00-05:00,74.62,13.92,735.67,0.39,0.92,155.32,0
2020-03-30T18:40:00-05:00,74.59,13.9,734.59,-1.38,0.95,86.02,0
2020-03-30T18:41:00-05:00,74.48,13.89,735.73,-0.05,0.71,209.95,0
2020-03-30T18:42:00-05:00,74.94,13.86,734.66,-2.11,2.93,219.9,0
2020-03-30T18:43:00-05:00,74.55,13.87,735.63,-1.82,0.51,332.55,0
2020-03-30T18:44:00-05:00,75.01,13.86,734.16,-1.67,1.23,95.55,0
2020-03-30T18:45:00-05:00,74.93,13.84,735.36,-1.52,4.43,40.15,0
2020-03-30T18:46:00-05:00,75.36,13.86,735.1,0.39,0.62,180.11,0
2020-03-30T18:47:00-05:00,75.74,13.84,735.1,-2.11,1.25,100.8,0
2020-03-30T18:48:00-05:00,74.24,13.83,734.29,-1.08,0.78,201.99,0
2020-03-30T18:49:00-05:00,74.29,13.84,734.79,-0.79,2.89,43.06,0
2020-03-30T18:50:00-05:00,74.27,13.85,734.26,-0.05,0.77,352.83,0
2020-03-30T18:51:00-05:00,74.79,13.84,734.26,-1.82,2.07,43.57,0
2020-03-30T18:52:00-05:00,74.44,13.85,735.33,-1.97,1.27,326.91,0
2020-03-30T18:53:00-05:00,73.99,13.86,734.36,-2.41,3.11,48.97,0
2020-03-30T18:54:00-05:00,73.44,13.88,735.06,-0.79,1.23,33.34,0
2020-03-30T18:55:00-05:00,73.24,13.89,734.53,-1.08,0.85,292.67,0
2020-03-30T18:56:00-05:00,73.51,13.9,735.43,0.39,1.8,295.97,0
2020-03-30T18:57:00-05:00,73.79,13.9,734.36,-1.67,0.93,156.24,0
2020-03-30T18:58:00-05:00,73.52,13.88,735.03,-1.23,1.61,13.63,0
2020-03-30T18:59:00-05:00,72.92,13.89,734.69,0.09,2.49,341.59,0
2020-03-30T19:00:00-05:00,72.62,13.92,734.49,-1.97,2.1,33.7,0
2020-03-30T19:01:00-05:00,72.41,13.93,735.36,-2.11,0.17,58.38,0
2020-03-30T19:02:00-05:00,72.38,13.95,734.33,-0.64,3.18,51.55,0
2020-03-30T19:03:00-05:00,72.64,13.97,735.83,0.24,3.24,78.21,0
2020-03-30T19:04:00-05:00,72.49,13.97,735.43,0.24,3.08,38.19,0
2020-03-30T19:05:00-05:00,72.41,13.96,734.56,0.09,3.15,76.61,0
2020-03-30T19:06:00-05:00,72.59,14.01,734.26,0.68,1.41,19.67,0
2020-03-30T19:07:00-05:00,72.94,14,735.1,-1.52,0.9,4.67,0
2020-03-30T19:08:00-05:00,73.4,14.01,735.77,0.09,0.65,248.83,0
2020-03-30T19:09:00-05:00,73.33,14,734.9,-0.05,2.12,44.81,0
2020-03-30T19:10:00-05:00,73.06,14,735.5,-0.64,0.69,189.05,0
2020-03-30T19:11:00-05:00,73.34,14,735.63,-2.26,0.51,102.3,0
2020-03-30T19:12:00-05:00,73.42,14,735.93,-2.26,0.61,42.97,0
2020-03-30T19:13:00-05:00,73.36,14,736.2,-0.64,1.58,34.9,0
2020-03-30T19:14:00-05:00,73.18,13.99,735.63,-2.26,0.73,20.45,0
2020-03-30T19:15:00-05:00,74.03,13.99,735.26,-0.64,1.45,32.31,0
2020-03-30T19:16:00-05:00,73.17,13.99,735.5,-1.82,0.57,347.47,0
2020-03-30T19:17:00-05:00,73.54,13.99,734.39,-1.38,0.71,42.74,0
2020-03-30T19:18:00-05:00,73.29,13.98,734.79,-0.79,0.41,7.34,0
2020-03-30T19:19:00-05:00,73.25,13.98,734.79,-2.55,0.69,39.18,0
2020-03-30T19:20:00-05:00,73.61,13.97,735.3,-1.52,0.65,350.56,0
2020-03-30T19:21:00-05:00,73.52,13.98,735.9,-1.82,0.77,7.52,0
2020-03-30T19:22:00-05:00,73.54,13.96,735.4,-2.41,1.86,39.15,0
2020-03-30T19:23:00-05:00,73.44,13.96,734.79,-1.97,0.71,30.66,0
2020-03-30T19:24:00-05:00,73.08,13.96,734.56,-0.2,0.63,5.72,0
2020-03-30T19:25:00-05:00,73.49,13.95,734.49,-0.94,0.61,349.45,0
2020-03-30T19:26:00-05:00,73.67,13.97,735.2,-2.7,0.88,338.56,0
2020-03-30T19:27:00-05:00,73.66,13.95,735.33,-1.52,1,1.74,0
2020-03-30T19:28:00-05:00,72.78,13.94,735.26,-1.08,0.84,295.99,0
2020-03-30T19:29:00-05:00,72.55,13.95,735.53,-2.26,0.74,245.79,0
2020-03-30T19:30:00-05:00,72.5,13.96,735.33,-0.35,0.63,280.97,0
2020-03-30T19:31:00-05:00,73.34,13.95,734.19,-2.85,0.55,354.49,0
2020-03-30T19:32:00-05:00,73.22,13.93,735.26,-2.11,1.36,64.18,0
2020-03-30T19:33:00-05:00,73.58,13.92,733.86,-0.79,0.81,36.91,0
2020-03-30T19:34:00-05:00,73.78,13.96,735.13,-1.08,0.27,48,0
2020-03-30T19:35:00-05:00,73.24,13.94,733.86,-1.97,2.93,64.03,0
2020-03-30T19:36:00-05:00,72.63,13.96,735.53,-0.94,2.69,29.2,0
2020-03-30T19:37:00-05:00,71.97,13.98,735.46,-0.79,1.41,9.33,0
2020-03-30T19:38:00-05:00,71.48,14,734.49,-0.64,1.1,0.84,0
2020-03-30T19:39:00-05:00,71.71,14,734.23,-0.49,0.68,40.11,0
2020-03-30T19:40:00-05:00,71.58,14,734.36,-1.67,0.59,36,0
2020-03-30T19:41:00-05:00,71.64,14.01,734.39,-1.08,0.99,29.2,0
2020-03-30T19:42:00-05:00,71.53,13.99,734.26,-0.79,0.38,312.6,0
2020-03-30T19:43:00-05:00,72.62,14,735.4,-2.85,0.09,181.07,0
2020-03-30T19:44:00-05:00,71.81,13.99,734.49,-2.11,0.68,192,0
2020-03-30T19:45:00-05:00,71.94,13.97,735,0.24,0.82,30.62,0
2020-03-30T19:46:00-05:00,72.33,13.98,735,-1.82,1.08,60.11,0
2020-03-30T19:47:00-05:00,71.52,13.96,735.26,-0.94,1.43,204.28,0
2020-03-30T19:48:00-05:00,71.58,13.96,734.23,-1.82,2.78,71.66,0
2020-03-30T19:49:00-05:00,70.97,13.99,734.66,-2.55,0.57,273.02,0
2020-03-30T19:50:00-05:00,71.23,14.03,735.26,-1.97,0.27,167.11,0
2020-03-30T19:51:00-05:00,71.33,14.01,735.1,-1.08,0.6,129.64,0
2020-03-30T19:52:00-05:00,71.46,14.01,735.3,-1.67,0.65,14.79,0
2020-03-30T19:53:00-05:00,71.93,14.01,734.29,-2.99,0.9,9.4,0
2020-03-30T19:54:00-05:00,71.8,13.99,734.33,-2.11,0.31,176.05,0
2020-03-30T19:55:00-05:00,71.17,13.98,735.26,-1.38,1.32,166.42,0
2020-03-30T19:56:00-05:00,70.96,14,735.4,-2.26,1.24,35.25,0
2020-03-30T19:57:00-05:00,71.4,13.98,735.33,-0.05,1.26,64.4,0
2020-03-30T19:58:00-05:00,71.95,13.98,734.9,-0.49,0.6,333.59,0
2020-03-30T19:59:00-05:00,71.89,13.98,734.09,-2.55,0.63,326.57,0
2020-03-30T20:00:00-05:00,71.75,13.98,734.76,-1.08,0.35,0.82,0
2020-03-30T20:01:00-05:00,71.63,13.96,734.23,-1.08,0.6,343.54,0
2020-03-30T20:02:00-05:00,71.75,13.94,734.43,-2.85,0.5,159.18,0
2020-03-30T20:03:00-05:00,71.66,13.94,734.76,-2.55,0.75,126.2,0
2020-03-30T20:04:00-05:00,71.69,13.94,734.13,0.09,1.26,54.07,0
2020-03-30T20:05:00-05:00,71.26,13.95,734.16,-1.38,2.13,8.18,0
2020-03-30T20:06:00-05:00,70.97,13.94,734.09,-1.23,0.37,18.52,0
2020-03-30T20:07:00-05:00,70.85,13.95,734.66,-2.41,0.65,270.7,0
2020-03-30T20:08:00-05:00,70.65,13.94,734.19,-1.97,1.85,324.94,0
2020-03-30T20:09:00-05:00,70.78,13.94,735.06,-0.49,1.9,43.3,0
2020-03-30T20:10:00-05:00,70.83,13.94,734.19,-0.2,0.62,317.97,0
2020-03-30T20:11:00-05:00,70.7,13.96,734.96,-1.97,1.64,40.22,0
2020-03-30T20:12:00-05:00,70.64,13.98,735.46,-1.52,0.62,340.82,0
2020-03-30T20:13:00-05:00,71.39,13.98,734.96,-0.35,2.4,245.77,0
2020-03-30T20:14:00-05:00,70.66,13.96,735,0.24,0.26,131.36,0
2020-03-30T20:15:00-05:00,70.8,13.96,734.29,-2.41,2.08,188.07,0
2020-03-30T20:16:00-05:00,70.98,13.95,734.83,-1.08,0.46,57.03,0
2020-03-30T20:17:00-05:00,71.19,13.96,735.13,-0.79,0.91,65.36,0
2020-03-30T20:18:00-05:00,71.81,13.97,734.73,-1.08,1.21,44.55,0
2020-03-30T20:19:00-05:00,71.29,13.94,734.23,0.09,2.02,79.84,0
2020-03-30T20:20:00-05:00,71.09,13.94,734.79,-1.67,0.93,230.92,0
2020-03-30T20:21:00-05:00,71.43,13.93,734.26,-1.97,0.57,292.7,0
2020-03-30T20:22:00-05:00,71.46,13.91,734.39,-1.82,0.21,292.73,0
2020-03-30T20:23:00-05:00,71.81,13.9,735.23,-1.38,0.58,307.68,0
2020-03-30T20:24:00-05:00,71.87,13.89,734.06,-0.79,0.29,146.24,0
2020-03-30T20:25:00-05:00,71.43,13.9,734.16,-2.41,0.9,53.94,0
2020-03-30T20:26:00-05:00,71.6,13.9,734.86,-1.52,0.56,194.26,0
2020-03-30T20:27:00-05:00,71.57,13.92,734.33,-2.41,0.72,284.03,0
2020-03-30T20:28:00-05:00,71.62,13.93,734.63,-1.08,0.87,163.2,0
2020-03-30T20:29:00-05:00,72.35,13.93,733.99,-1.08,0.83,159.52,0
2020-03-30T20:30:00-05:00,72.15,13.91,734.93,-0.94,0.58,299.67,0
2020-03-30T20:31:00-05:00,71.97,13.88,733.49,-0.2,0.64,192.32,0
2020-03-30T20:32:00-05:00,72.07,13.86,733.99,-2.99,0.67,247.84,0
2020-03-30T20:33:00-05:00,72.22,13.83,733.89,-1.38,0.33,173.2,0
2020-03-30T20:34:00-05:00,72.67,13.82,734.56,-2.41,0.27,136.31,0
2020-03-30T20:35:00-05:00,73.67,13.79,733.72,-1.97,0.54,29.29,0
2020-03-30T20:36:00-05:00,74.63,13.74,733.52,-1.82,0.59,59.49,0
2020-03-30T20:37:00-05:00,75.38,13.73,733.89,-2.55,0.48,70.83,0
2020-03-30T20:38:00-05:00,73.52,13.68,735.1,-2.41,0.55,59.63,0
2020-03-30T20:39:00-05:00,75.05,13.67,734.73,-1.08,0.66,15.35,0
2020-03-30T20:40:00-05:00,75.66,13.64,733.62,-2.41,0.07,273.74,0
2020-03-30T20:41:00-05:00,74.21,13.62,734.49,-0.05,2.51,54.59,0
2020-03-30T20:42:00-05:00,73.28,13.66,734.26,-0.05,0.71,49.07,0
2020-03-30T20:43:00-05:00,73.05,13.7,734.69,-2.11,0.2,352.51,0
2020-03-30T20:44:00-05:00,74.11,13.7,733.42,-2.41,0.61,119.55,0
2020-03-30T20:45:00-05:00,74.61,13.67,733.99,-2.55,0.5,137.58,0
2020-03-30T20:46:00-05:00,74.89,13.68,733.25,-1.97,0.28,24.37,0
2020-03-30T20:47:00-05:00,74.46,13.65,733.59,-2.99,0.58,109.15,0
2020-03-30T20:48:00-05:00,74.09,13.63,734.06,-2.55,0.54,51.7,0
2020-03-30T20:49:00-05:00,74.38,13.6,733.49,-0.79,1.73,22.96,0
2020-03-30T20:50:00-05:00,72.84,13.64,734.06,-1.52,1.23,26.77,0
2020-03-30T20:51:00-05:00,72.09,13.68,733.32,-1.52,0.59,59.89,0
2020-03-30T20:52:00-05:00,72.08,13.72,733.36,-0.35,0.6,17.49,0
2020-03-30T20:53:00-05:00,71.84,13.72,733.62,0.39,0.21,14.86,0
2020-03-30T20:54:00-05:00,72.42,13.76,733.15,-0.94,0.95,70.11,0
2020-03-30T20:55:00-05:00,72.53,13.74,734.23,-1.08,1.17,42.97,0
2020-03-30T20:56:00-05:00,71.66,13.76,734.33,-1.52,0.56,19.1,0
2020-03-30T20:57:00-05:00,71.97,13.78,734.33,-2.11,0.55,103.19,0
2020-03-30T20:58:00-05:00,72.04,13.78,733.59,0.24,0.61,115.4,0
2020-03-30T20:59:00-05:00,71.89,13.78,733.25,-1.38,0.74,81.06,0
2020-03-30T21:00:00-05:00,72.56,13.79,733.42,-1.38,0.9,72.85,0
2020-03-30T21:01:00-05:00,73.2,13.78,735,-2.26,0.5,117.23,0
2020-03-30T21:02:00-05:00,73.41,13.76,733.36,-0.94,0.58,128.35,0
2020-03-30T21:03:00-05:00,73.92,13.72,733.76,-0.94,0.36,113.5,0
2020-03-30T21:04:00-05:00,73.68,13.7,734.13,-0.94,0.26,125.55,0
2020-03-30T21:05:00-05:00,74.54,13.66,734.16,-2.7,0.37,110.26,0
2020-03-30T21:06:00-05:00,73.53,13.64,734.06,-1.08,0.58,68.2,0
2020-03-30T21:07:00-05:00,74.74,13.63,733.79,-2.26,0.81,25.56,0
2020-03-30T21:08:00-05:00,75.6,13.58,732.85,-2.11,0.99,36.13,0
2020-03-30T21:09:00-05:00,74.12,13.56,733.12,-0.79,0.64,30.86,0
2020-03-30T21:10:00-05:00,73.32,13.56,733.22,-2.41,2.07,54.12,0
2020-03-30T21:11:00-05:00,72.92,13.6,733.49,-1.97,1.92,59.05,0
2020-03-30T21:12:00-05:00,72.92,13.6,733.96,-1.97,0.71,71.18,0
2020-03-30T21:13:00-05:00,73.17,13.59,732.99,-0.05,1.42,28.18,0
2020-03-30T21:14:00-05:00,73.48,13.61,733.39,-2.85,0.47,147.23,0
2020-03-30T21:15:00-05:00,73.32,13.59,733.22,-2.11,0.58,352.5,0
2020-03-30T21:16:00-05:00,74.28,13.59,732.79,-2.11,0.06,180.12,0
2020-03-30T21:17:00-05:00,73.87,13.6,732.82,-0.2,0.24,356.48,0
2020-03-30T21:18:00-05:00,73.61,13.59,733.09,-3.14,0.84,39.64,0
2020-03-30T21:19:00-05:00,73.16,13.59,733.22,0.24,1.49,5.65,0
2020-03-30T21:20:00-05:00,72.9,13.57,734.09,-1.23,0.64,42.85,0
2020-03-30T21:21:00-05:00,73.19,13.58,733.42,-0.05,0.24,258.79,0
2020-03-30T21:22:00-05:00,74.46,13.58,733.82,-1.23,0.34,151.5,0
2020-03-30T21:23:00-05:00,73.97,13.56,733.12,-0.05,0.46,194.92,0
2020-03-30T21:24:00-05:00,73.69,13.54,733.66,-2.41,0.93,14.91,0
2020-03-30T21:25:00-05:00,74.15,13.52,733.42,0.09,1,19.34,0
2020-03-30T21:26:00-05:00,73.89,13.5,732.95,-0.2,0.65,347.83,0
2020-03-30T21:27:00-05:00,73.57,13.48,733.89,-1.82,0.74,13.49,0
2020-03-30T21:28:00-05:00,73.24,13.49,732.95,0.24,1.74,29.9,0
2020-03-30T21:29:00-05:00,73.35,13.5,733.82,-0.05,0.57,298.7,0
2020-03-30T21:30:00-05:00,73.16,13.51,733.96,0.24,0.17,173.17,0
2020-03-30T21:31:00-05:00,73.58,13.52,733.69,-1.23,0.58,16.6,0
2020-03-30T21:32:00-05:00,73.94,13.52,732.99,-1.97,1,23.17,0
2020-03-30T21:33:00-05:00,73.33,13.5,733.49,-0.05,0.8,354.73,0
2020-03-30T21:34:00-05:00,73.68,13.5,733.69,-1.67,0.89,1,0
2020-03-30T21:35:00-05:00,73.73,13.5,733.72,-1.08,1.54,81.55,0
2020-03-30T21:36:00-05:00,73.46,13.51,733.12,-0.2,0.95,356.5,0
2020-03-30T21:37:00-05:00,73.49,13.48,733.92,-1.52,1.13,29.23,0
2020-03-30T21:38:00-05:00,73.9,13.51,734.02,-1.82,0.21,172.14,0
2020-03-30T21:39:00-05:00,74.11,13.5,733.12,-1.08,0.19,133.72,0
2020-03-30T21:40:00-05:00,73.78,13.5,733.29,-0.64,0.59,177.08,0
2020-03-30T21:41:00-05:00,73.71,13.47,733.09,-1.97,0.42,49.48,0
2020-03-30T21:42:00-05:00,73.89,13.46,733.15,-2.26,0.57,214.98,0
2020-03-30T21:43:00-05:00,73.5,13.46,733.96,-2.41,0.6,291.06,0
2020-03-30T21:44:00-05:00,74.32,13.48,733.66,-1.38,0.5,136.47,0
2020-03-30T21:45:00-05:00,74.68,13.46,733.42,-0.79,1.12,50.03,0
2020-03-30T21:46:00-05:00,75.26,13.45,733.62,-0.35,0.92,12.67,0
2020-03-30T21:47:00-05:00,74.21,13.42,732.75,-1.67,0.6,328.92,0
2020-03-30T21:48:00-05:00,74.74,13.41,732.99,0.09,0.44,356.45,0
2020-03-30T21:49:00-05:00,75.98,13.4,732.59,-2.26,0.6,179.24,0
2020-03-30T21:50:00-05:00,75.52,13.38,733.59,-2.41,0.22,283.71,0
2020-03-30T21:51:00-05:00,75.54,13.34,733.39,-1.52,0.48,320.56,0
2020-03-30T21:52:00-05:00,75.49,13.33,733.39,-2.11,0.76,307.69,0
2020-03-30T21:53:00-05:00,75.08,13.34,732.59,-1.67,0.97,297.61,0
2020-03-30T21:54:00-05:00,74.81,13.34,733.69,-1.08,0.59,337.54,0
2020-03-30T21:55:00-05:00,75.37,13.35,732.62,0.24,0.3,186.97,0
2020-03-30T21:56:00-05:00,75.48,13.32,732.82,-0.35,0.26,261.73,0
2020-03-30T21:57:00-05:00,75.92,13.32,733.62,-2.26,0.68,205.03,0
2020-03-30T21:58:00-05:00,75.43,13.31,733.15,-2.7,0.53,246.77,0
2020-03-30T21:59:00-05:00,75.73,13.28,732.72,-1.97,0.58,192,0
2020-03-30T22:00:00-05:00,75.22,13.27,732.65,-0.2,0.57,218.26,0
2020-03-30T22:01:00-05:00,74.8,13.27,733.12,-2.26,0.59,18.52,0
2020-03-30T22:02:00-05:00,75.14,13.27,732.48,0.09,0.32,218.25,0
2020-03-30T22:03:00-05:00,74.82,13.28,732.25,-1.38,0.6,238.86,0
2020-03-30T22:04:00-05:00,75.36,13.29,733.29,-0.49,0.35,182.43,0
2020-03-30T22:05:00-05:00,75.37,13.3,732.42,-2.11,0.65,318.59,0
2020-03-30T22:06:00-05:00,75.71,13.3,732.52,-1.82,0.77,201.31,0
2020-03-30T22:07:00-05:00,75.72,13.27,732.18,-0.2,0.71,190.98,0
2020-03-30T22:08:00-05:00,74.97,13.25,733.19,-2.11,0.24,125.48,0
2020-03-30T22:09:00-05:00,75.3,13.24,732.38,-1.38,0.2,118.16,0
2020-03-30T22:10:00-05:00,76.46,13.24,732.79,-0.49,1.19,27.57,0
2020-03-30T22:11:00-05:00,75.81,13.26,732.48,-0.05,0.92,27.33,0
2020-03-30T22:12:00-05:00,75.66,13.27,732.48,-0.05,0.22,172.14,0
2020-03-30T22:13:00-05:00,76.74,13.28,732.12,-2.85,0.46,185.99,0
2020-03-30T22:14:00-05:00,77.05,13.24,737.41,-1.52,0.18,236.8,0
2020-03-30T22:15:00-05:00,77.15,13.26,736.27,-2.7,0.09,0.84,0
2020-03-30T22:16:00-05:00,77.41,13.22,736.54,-1.08,0.3,191.02,0
2020-03-30T22:17:00-05:00,77.21,13.21,737.34,-1.08,0.53,90.58,0
2020-03-30T22:18:00-05:00,77.72,13.18,737.31,-1.67,0.35,122.24,0
2020-03-30T22:19:00-05:00,76.92,13.18,737.34,-0.35,0.41,144.54,0
2020-03-30T22:20:00-05:00,75.88,13.14,737.2,-2.41,0.58,65.81,0
2020-03-30T22:21:00-05:00,76.15,13.16,737.57,-0.2,0.78,53.97,0
2020-03-30T22:22:00-05:00,76.28,13.16,736.47,-0.2,0.37,34.65,0
2020-03-30T22:23:00-05:00,76.51,13.18,736.27,-2.99,0.25,294.03,0
2020-03-30T22:24:00-05:00,76.13,13.18,736.5,-2.99,0.8,44.51,0
2020-03-30T22:25:00-05:00,75.82,13.18,735.83,-1.38,0.62,41.49,0
2020-03-30T22:26:00-05:00,77.49,13.21,736.37,-0.35,0.39,187,0
2020-03-30T22:27:00-05:00,76.41,13.18,736.4,-0.94,0.47,160.38,0
2020-03-30T22:28:00-05:00,76.37,13.14,737.51,-2.55,0.23,184.03,0
2020-03-30T22:29:00-05:00,76.09,13.14,736.13,-1.67,0.2,154.25,0
2020-03-30T22:30:00-05:00,76.24,13.13,736.33,-0.79,0.57,73,0
2020-03-30T22:31:00-05:00,75.81,13.14,737.2,-2.55,0.58,111.55,0
2020-03-30T22:32:00-05:00,75.65,13.14,736.3,-1.97,0.16,54.18,0
2020-03-30T22:33:00-05:00,76.62,13.16,736.23,-2.55,0.29,117.7,0
2020-03-30T22:34:00-05:00,76.69,13.16,736.97,-2.26,0.49,143.19,0
2020-03-30T22:35:00-05:00,76.2,13.16,737.07,-1.97,0.18,134.22,0
2020-03-30T22:36:00-05:00,76.53,13.15,736.13,-2.26,0.44,82.86,0
2020-03-30T22:37:00-05:00,76.37,13.15,737.17,-0.94,0.57,31.33,0
2020-03-30T22:38:00-05:00,77.61,13.13,737,-2.55,0.34,27.6,0
2020-03-30T22:39:00-05:00,78.22,13.14,736.77,-0.49,0.22,37.38,0
2020-03-30T22:40:00-05:00,76.66,13.12,737,-1.97,0.59,55.75,0
2020-03-30T22:41:00-05:00,75.49,13.14,736.77,-1.82,0.49,126.23,0
2020-03-30T22:42:00-05:00,74.89,13.16,735.77,-1.38,0.25,159.53,0
2020-03-30T22:43:00-05:00,74.41,13.18,737.57,-1.97,0.86,206.98,0
2020-03-30T22:44:00-05:00,74.19,13.21,737.27,-0.49,0.6,253.15,0
2020-03-30T22:45:00-05:00,73.81,13.26,736.47,-1.97,0.51,317.64,0
2020-03-30T22:46:00-05:00,74.58,13.29,737,-1.67,0.31,63.01,0
2020-03-30T22:47:00-05:00,74.48,13.3,736.7,0.09,0.06,42.48,0
2020-03-30T22:48:00-05:00,74.53,13.29,736.37,-0.2,0.67,19.5,0
2020-03-30T22:49:00-05:00,74.68,13.29,737,-1.82,0.67,292.95,0
2020-03-30T22:50:00-05:00,74.49,13.3,737.67,-2.41,0.83,240.16,0
2020-03-30T22:51:00-05:00,75.04,13.28,737.07,-0.2,0.57,312.57,0
2020-03-30T22:52:00-05:00,74.85,13.27,737.61,-0.94,0.44,341.58,0
2020-03-30T22:53:00-05:00,74.67,13.26,737.47,-0.35,0.85,353.49,0
2020-03-30T22:54:00-05:00,74.45,13.27,736.8,-1.38,1.01,34.28,0
2020-03-30T22:55:00-05:00,74.52,13.28,736.67,-2.11,1.66,12.85,0
2020-03-30T22:56:00-05:00,74.52,13.28,737.77,-1.08,0.59,31.55,0
2020-03-30T22:57:00-05:00,74.45,13.29,737.61,0.09,0.41,99.21,0
2020-03-30T22:58:00-05:00,74.94,13.29,736.84,-0.64,0.58,17.26,0
2020-03-30T22:59:00-05:00,74.68,13.26,737.64,-2.26,1.83,23.26,0
2020-03-30T23:00:00-05:00,74.91,13.25,736.43,-1.82,0.67,356.46,0
2020-03-30T23:01:00-05:00,74.71,13.26,737.71,-1.97,0.84,58,0
2020-03-30T23:02:00-05:00,74.53,13.26,736.64,-2.7,0.54,334.6,0
2020-03-30T23:03:00-05:00,74.67,13.26,736.67,-0.79,0.35,46.8,0
2020-03-30T23:04:00-05:00,74.75,13.25,737.67,-0.79,0.9,57.57,0
2020-03-30T23:05:00-05:00,75.12,13.26,737.67,-2.26,0.14,309.9,0
2020-03-30T23:06:00-05:00,74.62,13.24,738.01,-2.41,0.7,41.25,0
2020-03-30T23:07:00-05:00,74.63,13.27,736.9,-1.82,3.1,41.81,0
2020-03-30T23:08:00-05:00,74.51,13.27,737.2,-1.97,1.21,325.62,0
2020-03-30T23:09:00-05:00,74.39,13.26,736.57,-1.97,0.97,24.3,0
2020-03-30T23:10:00-05:00,74.91,13.27,737.51,-0.05,0.61,44.31,0
2020-03-30T23:11:00-05:00,74.76,13.26,737.81,-1.08,0.77,13.73,0
2020-03-30T23:12:00-05:00,75.04,13.25,737.77,-1.82,0.61,16.3,0
2020-03-30T23:13:00-05:00,75.14,13.23,737.67,0.53,0.3,0.87,0
2020-03-30T23:14:00-05:00,75.41,13.23,737.81,-2.41,0.58,17.5,0
2020-03-30T23:15:00-05:00,75.41,13.23,736.8,-2.55,0.61,352.51,0
2020-03-30T23:16:00-05:00,75.46,13.2,737.34,-0.2,0.62,353.81,0
2020-03-30T23:17:00-05:00,75.06,13.22,737.44,-0.2,0.87,13.44,0
2020-03-30T23:18:00-05:00,75.15,13.24,737.57,-0.35,0.45,348.79,0
2020-03-30T23:19:00-05:00,75.17,13.24,736.43,-2.26,1.03,27.48,0
2020-03-30T23:20:00-05:00,74.89,13.24,736.74,-1.52,0.64,23.31,0
2020-03-30T23:21:00-05:00,75.28,13.22,737.34,-2.11,0.61,98.56,0
2020-03-30T23:22:00-05:00,75.22,13.23,736.6,-1.08,0.95,340.82,0
2020-03-30T23:23:00-05:00,75.08,13.21,737,-2.85,0.17,277.95,0
2020-03-30T23:24:00-05:00,75.76,13.24,737,-1.23,0.09,15.61,0
2020-03-30T23:25:00-05:00,75.34,13.21,737.47,-2.85,0.33,309.63,0
2020-03-30T23:26:00-05:00,75.41,13.21,737.27,-0.2,0.89,14.52,0
2020-03-30T23:27:00-05:00,75.04,13.19,737.17,-1.23,0.13,344.52,0
2020-03-30T23:28:00-05:00,75.42,13.19,737.57,-2.26,0.16,53.61,0
2020-03-30T23:29:00-05:00,76.47,13.18,737.14,-1.67,0.59,66.97,0
2020-03-30T23:30:00-05:00,77.1,13.15,737.1,-0.2,0.6,75.44,0
2020-03-30T23:31:00-05:00,77.69,13.13,737.51,-2.99,0.29,3.69,0
2020-03-30T23:32:00-05:00,78.56,13.12,736.37,-0.79,0.23,355.47,0
2020-03-30T23:33:00-05:00,78.9,13.11,736.43,-1.38,0.17,175.15,0
2020-03-30T23:34:00-05:00,79.11,13.08,735.5,-2.7,0.11,3.72,0
2020-03-30T23:35:00-05:00,78.72,13.07,736.43,-2.7,0.58,163.55,0
2020-03-30T23:36:00-05:00,77.77,13,735.83,-2.85,0.61,182.04,0
2020-03-30T23:37:00-05:00,76.96,12.95,735.93,-1.67,0.59,180.42,0
2020-03-30T23:38:00-05:00,76.78,12.92,735.83,-0.49,0.59,152.15,0
2020-03-30T23:39:00-05:00,75.56,12.91,736.9,-1.67,0.14,112.5,0
2020-03-30T23:40:00-05:00,75.5,12.93,736.77,-1.52,0.22,278.66,0
2020-03-30T23:41:00-05:00,76.57,12.97,736,-0.05,0.28,95.5,0
2020-03-30T23:42:00-05:00,77.11,12.97,735.9,-1.97,0.23,281.73,0
2020-03-30T23:43:00-05:00,76.83,12.96,736.77,-1.82,0.14,249.09,0
2020-03-30T23:44:00-05:00,76.7,12.96,735.73,-2.26,0.17,309.64,0
2020-03-30T23:45:00-05:00,76.78,12.96,736.54,-2.55,0.17,332.5,0
2020-03-30T23:46:00-05:00,77.18,12.97,736.64,-0.49,0.14,331.51,0
2020-03-30T23:47:00-05:00,77.23,12.95,736.77,-0.64,0.17,356.45,0
2020-03-30T23:48:00-05:00,77.4,12.95,736.13,-1.08,0.23,29.97,0
2020-03-30T23:49:00-05:00,77.61,12.95,736.6,-0.2,0.13,357.46,0
2020-03-30T23:50:00-05:00,78.22,12.92,735.73,-2.26,0.93,30.42,0
2020-03-30T23:51:00-05:00,76.73,12.93,735.67,-2.11,0.06,118.16,0
2020-03-30T23:52:00-05:00,77.43,12.95,736.67,0.09,0.19,323.56,0
2020-03-30T23:53:00-05:00,76.9,12.93,735.97,-2.26,0.33,18.22,0
2020-03-30T23:54:00-05:00,76.26,12.93,735.87,-2.11,0.3,351.87,0
2020-03-30T23:55:00-05:00,76.46,12.93,736.9,-1.67,0.5,60.96,0
2020-03-30T23:56:00-05:00,77.25,12.93,736.57,-2.11,0.91,57.04,0
2020-03-30T23:57:00-05:00,77.03,12.94,736.6,-0.79,0.72,40.51,0
2020-03-30T23:58:00-05:00,76.81,12.93,735.36,-0.49,0.65,47.17,0
2020-03-30T23:59:00-05:00,77.54,12.92,736.13,0.24,0.58,116.23,0
